{
  "inheritance_structure": [
    {
      "uri": "http://purl.org/spar/doco/Section"
    },
    {
      "uri": "http://purl.org/spar/deo/DiscourseElement",
      "children": [
        {
          "uri": ":Context"
        }
      ]
    },
    {
      "uri": "terms:BibliographicResource",
      "children": [
        {
          "uri": ":PubMed"
        },
        {
          "uri": ":ReferencePaper"
        },
        {
          "uri": ":CitationPaper"
        },
        {
          "uri": ":RelevantPaper"
        },
        {
          "uri": ":RelevantBibliographicResource"
        }
      ]
    }
  ],
  "classes": {
    ":CitationPaper": {
      "entities": 3033677,
      "label": {
        "en": "CitationPaper"
      },
      "subClassOf": [
        "terms:BibliographicResource"
      ],
      "rhs": [
        [
          ":cocitationWith",
          ":RelevantPaper"
        ],
        [
          ":cocitationWith",
          ":CitationPaper"
        ],
        [
          ":hasRelevantBibliographicResourceOf",
          ":RelevantBibliographicResource"
        ],
        [
          ":pmcid",
          "rdfs:Literal"
        ],
        [
          "http://purl.org/ontology/bibo/cites",
          ":RelevantPaper"
        ],
        [
          "http://purl.org/ontology/bibo/cites",
          ":ReferencePaper"
        ],
        [
          "http://purl.org/ontology/bibo/cites",
          ":CitationPaper"
        ],
        [
          "http://purl.org/ontology/bibo/doi",
          "rdfs:Literal"
        ],
        [
          "http://purl.org/spar/doco/contains",
          "http://purl.org/spar/doco/Section"
        ],
        [
          "rdfs:seeAlso",
          ":PubMed"
        ]
      ],
      "lhs": [
        [
          ":CitationPaper",
          ":cocitationWith"
        ],
        [
          ":ReferencePaper",
          ":cocitationWith"
        ],
        [
          ":RelevantPaper",
          ":cocitationWith"
        ],
        [
          ":Context",
          ":mentions"
        ],
        [
          ":CitationPaper",
          "http://purl.org/ontology/bibo/cites"
        ],
        [
          ":RelevantPaper",
          "http://purl.org/ontology/bibo/cites"
        ],
        [
          ":ReferencePaper",
          "http://purl.org/ontology/bibo/cites"
        ]
      ]
    },
    ":RelevantPaper": {
      "entities": 7963657,
      "label": {
        "en": "RelevantPaper"
      },
      "subClassOf": [
        "terms:BibliographicResource"
      ],
      "rhs": [
        [
          ":cocitationWith",
          ":RelevantPaper"
        ],
        [
          ":cocitationWith",
          ":CitationPaper"
        ],
        [
          ":hasRelevantBibliographicResourceOf",
          ":RelevantBibliographicResource"
        ],
        [
          ":pmcid",
          "rdfs:Literal"
        ],
        [
          "http://purl.org/ontology/bibo/cites",
          ":RelevantPaper"
        ],
        [
          "http://purl.org/ontology/bibo/cites",
          ":ReferencePaper"
        ],
        [
          "http://purl.org/ontology/bibo/cites",
          ":CitationPaper"
        ],
        [
          "http://purl.org/ontology/bibo/doi",
          "rdfs:Literal"
        ],
        [
          "http://purl.org/spar/doco/contains",
          "http://purl.org/spar/doco/Section"
        ],
        [
          "rdfs:seeAlso",
          ":PubMed"
        ]
      ],
      "lhs": [
        [
          ":CitationPaper",
          ":cocitationWith"
        ],
        [
          ":ReferencePaper",
          ":cocitationWith"
        ],
        [
          ":RelevantPaper",
          ":cocitationWith"
        ],
        [
          ":Context",
          ":mentions"
        ],
        [
          ":CitationPaper",
          "http://purl.org/ontology/bibo/cites"
        ],
        [
          ":RelevantPaper",
          "http://purl.org/ontology/bibo/cites"
        ],
        [
          ":ReferencePaper",
          "http://purl.org/ontology/bibo/cites"
        ]
      ]
    },
    ":PubMed": {
      "entities": 14306378,
      "label": {
        "en": "PubMed"
      },
      "subClassOf": [
        "terms:BibliographicResource"
      ],
      "rhs": [
        [
          ":Authors",
          "rdfs:Literal"
        ],
        [
          "http://togows.dbcls.jp/ontology/ncbi-pubmed#dp",
          "rdfs:Literal"
        ],
        [
          "http://togows.dbcls.jp/ontology/ncbi-pubmed#pmid",
          "rdfs:Literal"
        ],
        [
          "http://togows.dbcls.jp/ontology/ncbi-pubmed#so",
          "rdfs:Literal"
        ],
        [
          "http://togows.dbcls.jp/ontology/ncbi-pubmed#ti",
          "rdfs:Literal"
        ]
      ],
      "lhs": [
        [
          ":ReferencePaper",
          "rdfs:seeAlso"
        ],
        [
          ":RelevantPaper",
          "rdfs:seeAlso"
        ],
        [
          ":CitationPaper",
          "rdfs:seeAlso"
        ]
      ]
    },
    ":ReferencePaper": {
      "entities": 13394178,
      "label": {
        "en": "ReferencePaper"
      },
      "subClassOf": [
        "terms:BibliographicResource"
      ],
      "rhs": [
        [
          ":cocitationWith",
          ":RelevantPaper"
        ],
        [
          ":cocitationWith",
          ":CitationPaper"
        ],
        [
          ":hasRelevantBibliographicResourceOf",
          ":RelevantBibliographicResource"
        ],
        [
          ":pmcid",
          "rdfs:Literal"
        ],
        [
          "http://purl.org/ontology/bibo/cites",
          ":RelevantPaper"
        ],
        [
          "http://purl.org/ontology/bibo/cites",
          ":ReferencePaper"
        ],
        [
          "http://purl.org/ontology/bibo/cites",
          ":CitationPaper"
        ],
        [
          "http://purl.org/ontology/bibo/doi",
          "rdfs:Literal"
        ],
        [
          "http://purl.org/spar/doco/contains",
          "http://purl.org/spar/doco/Section"
        ],
        [
          "rdfs:seeAlso",
          ":PubMed"
        ]
      ],
      "lhs": [
        [
          ":Context",
          ":mentions"
        ],
        [
          ":CitationPaper",
          "http://purl.org/ontology/bibo/cites"
        ],
        [
          ":RelevantPaper",
          "http://purl.org/ontology/bibo/cites"
        ],
        [
          ":ReferencePaper",
          "http://purl.org/ontology/bibo/cites"
        ]
      ]
    },
    ":Context": {
      "entities": 145583063,
      "label": {
        "en": "Context"
      },
      "subClassOf": [
        "http://purl.org/spar/deo/DiscourseElement"
      ],
      "rhs": [
        [
          ":mentions",
          ":ReferencePaper"
        ],
        [
          ":mentions",
          ":RelevantPaper"
        ],
        [
          ":mentions",
          ":CitationPaper"
        ],
        [
          "rdf:value",
          "rdfs:Literal"
        ]
      ],
      "lhs": [
        [
          "http://purl.org/spar/doco/Section",
          "http://purl.org/spar/doco/contains"
        ]
      ]
    },
    "http://purl.org/spar/doco/Section": {
      "entities": 10108111,
      "rhs": [
        [
          "dc:title",
          "rdfs:Literal"
        ],
        [
          "http://purl.org/spar/doco/contains",
          ":Context"
        ]
      ],
      "lhs": [
        [
          ":ReferencePaper",
          "http://purl.org/spar/doco/contains"
        ],
        [
          ":CitationPaper",
          "http://purl.org/spar/doco/contains"
        ],
        [
          ":RelevantPaper",
          "http://purl.org/spar/doco/contains"
        ]
      ]
    },
    ":RelevantBibliographicResource": {
      "entities": 539130666,
      "label": {
        "en": "RelevantBibliographicResource"
      },
      "subClassOf": [
        "terms:BibliographicResource"
      ],
      "rhs": [
        [
          ":RelevantScore",
          "rdfs:Literal"
        ]
      ],
      "lhs": [
        [
          ":ReferencePaper",
          ":hasRelevantBibliographicResourceOf"
        ],
        [
          ":RelevantPaper",
          ":hasRelevantBibliographicResourceOf"
        ],
        [
          ":CitationPaper",
          ":hasRelevantBibliographicResourceOf"
        ]
      ]
    },
    "http://purl.org/spar/deo/DiscourseElement": {
      "label": {}
    },
    "terms:BibliographicResource": {
      "label": {}
    }
  },
  "properties": [
    {
      "uri": ":cocitationWith",
      "triples": 2651436650,
      "class_relations": [
        {
          "triples": 539130666,
          "object_class": ":RelevantPaper",
          "object_datatype": null,
          "subject_class": ":RelevantPaper"
        },
        {
          "triples": 539130666,
          "object_class": ":RelevantPaper",
          "object_datatype": null,
          "subject_class": ":ReferencePaper"
        },
        {
          "triples": 114787942,
          "object_class": ":CitationPaper",
          "object_datatype": null,
          "subject_class": ":ReferencePaper"
        },
        {
          "triples": 114787942,
          "object_class": ":CitationPaper",
          "object_datatype": null,
          "subject_class": ":RelevantPaper"
        },
        {
          "triples": 114787942,
          "object_class": ":RelevantPaper",
          "object_datatype": null,
          "subject_class": ":CitationPaper"
        },
        {
          "triples": 35762218,
          "object_class": ":CitationPaper",
          "object_datatype": null,
          "subject_class": ":CitationPaper"
        }
      ]
    },
    {
      "uri": ":hasRelevantBibliographicResourceOf",
      "triples": 1193049274,
      "class_relations": [
        {
          "triples": 539130666,
          "object_class": ":RelevantBibliographicResource",
          "object_datatype": null,
          "subject_class": ":ReferencePaper"
        },
        {
          "triples": 539130666,
          "object_class": ":RelevantBibliographicResource",
          "object_datatype": null,
          "subject_class": ":RelevantPaper"
        },
        {
          "triples": 114787942,
          "object_class": ":RelevantBibliographicResource",
          "object_datatype": null,
          "subject_class": ":CitationPaper"
        }
      ]
    },
    {
      "uri": ":RelevantScore",
      "triples": 539130666,
      "class_relations": [
        {
          "triples": 539130666,
          "object_class": null,
          "object_datatype": "rdfs:Literal",
          "subject_class": ":RelevantBibliographicResource"
        }
      ]
    },
    {
      "uri": "http://purl.org/ontology/bibo/cites",
      "triples": 515627698,
      "class_relations": [
        {
          "triples": 103089372,
          "object_class": ":ReferencePaper",
          "object_datatype": null,
          "subject_class": ":CitationPaper"
        },
        {
          "triples": 95444083,
          "object_class": ":RelevantPaper",
          "object_datatype": null,
          "subject_class": ":CitationPaper"
        },
        {
          "triples": 79615762,
          "object_class": ":ReferencePaper",
          "object_datatype": null,
          "subject_class": ":ReferencePaper"
        },
        {
          "triples": 75033186,
          "object_class": ":RelevantPaper",
          "object_datatype": null,
          "subject_class": ":ReferencePaper"
        },
        {
          "triples": 58802766,
          "object_class": ":ReferencePaper",
          "object_datatype": null,
          "subject_class": ":RelevantPaper"
        },
        {
          "triples": 56136731,
          "object_class": ":RelevantPaper",
          "object_datatype": null,
          "subject_class": ":RelevantPaper"
        },
        {
          "triples": 20815214,
          "object_class": ":CitationPaper",
          "object_datatype": null,
          "subject_class": ":CitationPaper"
        },
        {
          "triples": 15458754,
          "object_class": ":CitationPaper",
          "object_datatype": null,
          "subject_class": ":ReferencePaper"
        },
        {
          "triples": 11231830,
          "object_class": ":CitationPaper",
          "object_datatype": null,
          "subject_class": ":RelevantPaper"
        }
      ]
    },
    {
      "uri": ":mentions",
      "triples": 349190879,
      "class_relations": [
        {
          "triples": 162624785,
          "object_class": ":ReferencePaper",
          "object_datatype": null,
          "subject_class": ":Context"
        },
        {
          "triples": 151505516,
          "object_class": ":RelevantPaper",
          "object_datatype": null,
          "subject_class": ":Context"
        },
        {
          "triples": 35060578,
          "object_class": ":CitationPaper",
          "object_datatype": null,
          "subject_class": ":Context"
        }
      ]
    },
    {
      "uri": "http://purl.org/spar/doco/contains",
      "triples": 168250794,
      "class_relations": [
        {
          "triples": 145583063,
          "object_class": ":Context",
          "object_datatype": null,
          "subject_class": "http://purl.org/spar/doco/Section"
        },
        {
          "triples": 10108111,
          "object_class": "http://purl.org/spar/doco/Section",
          "object_datatype": null,
          "subject_class": ":CitationPaper"
        },
        {
          "triples": 7383016,
          "object_class": "http://purl.org/spar/doco/Section",
          "object_datatype": null,
          "subject_class": ":ReferencePaper"
        },
        {
          "triples": 5176604,
          "object_class": "http://purl.org/spar/doco/Section",
          "object_datatype": null,
          "subject_class": ":RelevantPaper"
        }
      ]
    },
    {
      "uri": "rdf:value",
      "triples": 145583063,
      "class_relations": [
        {
          "triples": 145583063,
          "object_class": null,
          "object_datatype": "rdfs:Literal",
          "subject_class": ":Context"
        }
      ]
    },
    {
      "uri": "rdfs:seeAlso",
      "triples": 24385026,
      "class_relations": [
        {
          "triples": 13391224,
          "object_class": ":PubMed",
          "object_datatype": null,
          "subject_class": ":ReferencePaper"
        },
        {
          "triples": 7963280,
          "object_class": ":PubMed",
          "object_datatype": null,
          "subject_class": ":RelevantPaper"
        },
        {
          "triples": 3030522,
          "object_class": ":PubMed",
          "object_datatype": null,
          "subject_class": ":CitationPaper"
        }
      ]
    },
    {
      "uri": "http://togows.dbcls.jp/ontology/ncbi-pubmed#pmid",
      "triples": 14306378,
      "class_relations": [
        {
          "triples": 14306378,
          "object_class": null,
          "object_datatype": "rdfs:Literal",
          "subject_class": ":PubMed"
        }
      ]
    },
    {
      "uri": "http://togows.dbcls.jp/ontology/ncbi-pubmed#so",
      "triples": 14306378,
      "class_relations": [
        {
          "triples": 14306378,
          "object_class": null,
          "object_datatype": "rdfs:Literal",
          "subject_class": ":PubMed"
        }
      ]
    },
    {
      "uri": "http://togows.dbcls.jp/ontology/ncbi-pubmed#dp",
      "triples": 14306378,
      "class_relations": [
        {
          "triples": 14306378,
          "object_class": null,
          "object_datatype": "rdfs:Literal",
          "subject_class": ":PubMed"
        }
      ]
    },
    {
      "uri": "http://togows.dbcls.jp/ontology/ncbi-pubmed#ti",
      "triples": 14305874,
      "class_relations": [
        {
          "triples": 14305874,
          "object_class": null,
          "object_datatype": "rdfs:Literal",
          "subject_class": ":PubMed"
        }
      ]
    },
    {
      "uri": ":Authors",
      "triples": 14276126,
      "class_relations": [
        {
          "triples": 14276126,
          "object_class": null,
          "object_datatype": "rdfs:Literal",
          "subject_class": ":PubMed"
        }
      ]
    },
    {
      "uri": "dc:title",
      "triples": 10108111,
      "class_relations": [
        {
          "triples": 10108111,
          "object_class": null,
          "object_datatype": "rdfs:Literal",
          "subject_class": "http://purl.org/spar/doco/Section"
        }
      ]
    },
    {
      "uri": ":pmcid",
      "triples": 6880092,
      "class_relations": [
        {
          "triples": 3033675,
          "object_class": null,
          "object_datatype": "rdfs:Literal",
          "subject_class": ":CitationPaper"
        },
        {
          "triples": 2315702,
          "object_class": null,
          "object_datatype": "rdfs:Literal",
          "subject_class": ":ReferencePaper"
        },
        {
          "triples": 1530715,
          "object_class": null,
          "object_datatype": "rdfs:Literal",
          "subject_class": ":RelevantPaper"
        }
      ]
    },
    {
      "uri": "http://purl.org/ontology/bibo/doi",
      "triples": 4976,
      "class_relations": [
        {
          "triples": 2968,
          "object_class": null,
          "object_datatype": "rdfs:Literal",
          "subject_class": ":ReferencePaper"
        },
        {
          "triples": 1634,
          "object_class": null,
          "object_datatype": "rdfs:Literal",
          "subject_class": ":RelevantPaper"
        },
        {
          "triples": 374,
          "object_class": null,
          "object_datatype": "rdfs:Literal",
          "subject_class": ":CitationPaper"
        }
      ]
    }
  ],
  "prefixes": {
    "xml": "http://www.w3.org/XML/1998/namespace",
    "rdf": "http://www.w3.org/1999/02/22-rdf-syntax-ns#",
    "rdfs": "http://www.w3.org/2000/01/rdf-schema#",
    "xsd": "http://www.w3.org/2001/XMLSchema#",
    "owl": "http://www.w3.org/2002/07/owl#",
    "skos": "http://www.w3.org/2004/02/skos/core#",
    "doap": "http://usefulinc.com/ns/doap#",
    "foaf": "http://xmlns.com/foaf/0.1/",
    "dc": "http://purl.org/dc/elements/1.1/",
    "dcterms": "http://purl.org/dc/terms/",
    "void": "http://rdfs.org/ns/void#",
    "": "http://purl.jp/bio/10/colil/ontology/201303#",
    "ns": "http://www.w3.org/2003/06/sw-vocab-status/ns#",
    "terms": "http://purl.org/dc/terms/",
    "sd": "http://www.w3.org/ns/sparql-service-description#",
    "sbm": "http://sparqlbuilder.org/2015/09/rdf-metadata-schema#"
  },
  "meta_data": {
    "endpoint": "http://colil.dbcls.jp/sparql",
    "crawl_date": "2021/01/20 00:51:21",
    "triples": 3559425975,
    "classes": 9,
    "properties": 16
  }
}