{
  "inheritance_structure": [
    {
      "uri": "http://purl.obolibrary.org/obo/DOID_3594"
    },
    {
      "uri": "http://purl.obolibrary.org/obo/DOID_1785"
    },
    {
      "uri": "http://purl.obolibrary.org/obo/DOID_1926"
    },
    {
      "uri": "http://purl.obolibrary.org/obo/DOID_3590"
    },
    {
      "uri": "http://purl.obolibrary.org/obo/DOID_299"
    },
    {
      "uri": "http://purl.obolibrary.org/obo/DOID_0060125"
    },
    {
      "uri": "http://purl.glycoinfo.org/ontology/codao/CompoundDiseaseAssociation"
    },
    {
      "uri": "up:Taxon"
    },
    {
      "uri": "http://purl.obolibrary.org/obo/DOID_9120"
    },
    {
      "uri": "http://purl.obolibrary.org/obo/DOID_10146"
    },
    {
      "uri": "http://purl.obolibrary.org/obo/DOID_14500"
    },
    {
      "uri": "glycan:Citation"
    },
    {
      "uri": "http://purl.obolibrary.org/obo/DOID_784"
    },
    {
      "uri": "http://purl.obolibrary.org/obo/DOID_9351"
    },
    {
      "uri": "http://purl.obolibrary.org/obo/DOID_9352"
    },
    {
      "uri": "glycan:Glycoconjugate",
      "children": [
        {
          "uri": "glycan:Glycoprotein"
        }
      ]
    },
    {
      "uri": "http://purl.obolibrary.org/obo/DOID_12894"
    },
    {
      "uri": "http://purl.obolibrary.org/obo/DOID_4989"
    },
    {
      "uri": "rdf:List"
    },
    {
      "uri": "http://purl.obolibrary.org/obo/DOID_3343"
    },
    {
      "uri": "http://purl.obolibrary.org/obo/DOID_1612"
    },
    {
      "uri": "http://purl.obolibrary.org/obo/DOID_9119"
    },
    {
      "uri": "glycan:Source",
      "children": [
        {
          "uri": "glycan:Source_natural"
        }
      ]
    },
    {
      "uri": "https://purl.org/glyconnect/referenced_protein/Reference_protein"
    },
    {
      "uri": "http://purl.obolibrary.org/obo/DOID_769"
    },
    {
      "uri": "http://purl.obolibrary.org/obo/DOID_684"
    },
    {
      "uri": "http://purl.obolibrary.org/obo/DOID_5119"
    },
    {
      "uri": "http://purl.obolibrary.org/obo/DOID_8584"
    },
    {
      "uri": "http://purl.obolibrary.org/obo/DOID_3211"
    },
    {
      "uri": "up:Protein",
      "children": [
        {
          "uri": "glycan:Glycoprotein"
        }
      ]
    },
    {
      "uri": "rdf:Property"
    },
    {
      "uri": "http://purl.obolibrary.org/obo/DOID_0050461"
    },
    {
      "uri": "http://purl.obolibrary.org/obo/DOID_13810"
    },
    {
      "uri": "http://purl.obolibrary.org/obo/DOID_10652"
    },
    {
      "uri": "rdfs:Class"
    },
    {
      "uri": "https://purl.org/glyconnect/peptide/Peptide"
    },
    {
      "uri": "http://purl.obolibrary.org/obo/DOID_4948"
    },
    {
      "uri": "http://purl.obolibrary.org/obo/DOID_14067"
    },
    {
      "uri": "http://purl.obolibrary.org/obo/DOID_7475"
    },
    {
      "uri": "http://purl.obolibrary.org/obo/DOID_5434"
    },
    {
      "uri": "http://purl.obolibrary.org/obo/DOID_3355"
    },
    {
      "uri": "http://purl.obolibrary.org/obo/DOID_3721"
    },
    {
      "uri": "http://purl.obolibrary.org/obo/DOID_3322"
    },
    {
      "uri": "http://purl.obolibrary.org/obo/DOID_1171"
    },
    {
      "uri": "http://purl.obolibrary.org/obo/DOID_8398"
    },
    {
      "uri": "http://purl.obolibrary.org/obo/DOID_8552"
    },
    {
      "uri": "http://purl.obolibrary.org/obo/DOID_5041"
    },
    {
      "uri": "http://purl.obolibrary.org/obo/DOID_4606"
    },
    {
      "uri": "http://purl.obolibrary.org/obo/DOID_9169"
    },
    {
      "uri": "http://purl.obolibrary.org/obo/DOID_9952"
    },
    {
      "uri": "http://purl.obolibrary.org/obo/DOID_848"
    },
    {
      "uri": "rdf:Statement"
    },
    {
      "uri": "http://purl.obolibrary.org/obo/DOID_1911"
    },
    {
      "uri": "http://purl.obolibrary.org/obo/DOID_0070004"
    },
    {
      "uri": "glycan:Compound",
      "children": [
        {
          "uri": "glycan:Saccharide"
        }
      ]
    },
    {
      "uri": "http://purl.obolibrary.org/obo/DOID_0060318"
    },
    {
      "uri": "rdfs:Resource"
    },
    {
      "uri": "glycan:Referenced_compound",
      "children": [
        {
          "uri": "gco:Referenced_protein"
        },
        {
          "uri": "gco:Referenced_glycoconjugate"
        },
        {
          "uri": "gco:Referenced_saccharide"
        }
      ]
    },
    {
      "uri": "http://purl.obolibrary.org/obo/DOID_9538"
    },
    {
      "uri": "http://purl.obolibrary.org/obo/DOID_2394"
    },
    {
      "uri": "http://purl.obolibrary.org/obo/DOID_0060058"
    },
    {
      "uri": "faldo:Position",
      "children": [
        {
          "uri": "faldo:ExactPosition"
        }
      ]
    },
    {
      "uri": "http://purl.obolibrary.org/obo/DOID_10283"
    },
    {
      "uri": "rdfs:Datatype"
    },
    {
      "uri": "http://purl.obolibrary.org/obo/DOID_1485"
    },
    {
      "uri": "http://purl.obolibrary.org/obo/DOID_1909"
    },
    {
      "uri": "http://purl.obolibrary.org/obo/DOID_3070"
    },
    {
      "uri": "http://purl.obolibrary.org/obo/DOID_686"
    },
    {
      "uri": "http://purl.obolibrary.org/obo/DOID_0080520"
    },
    {
      "uri": "http://purl.obolibrary.org/obo/DOID_0080147"
    },
    {
      "uri": "http://purl.obolibrary.org/obo/DOID_7148"
    },
    {
      "uri": "http://purl.obolibrary.org/obo/DOID_5212"
    },
    {
      "uri": "http://purl.obolibrary.org/obo/DOID_3371"
    },
    {
      "uri": "http://purl.obolibrary.org/obo/DOID_6536"
    },
    {
      "uri": "up:Glycosylation_Annotation",
      "children": [
        {
          "uri": "glycan:Glycosylation_site"
        }
      ]
    },
    {
      "uri": "http://purl.obolibrary.org/obo/DOID_12449"
    },
    {
      "uri": "http://purl.obolibrary.org/obo/DOID_1240"
    },
    {
      "uri": "http://purl.obolibrary.org/obo/DOID_305"
    },
    {
      "uri": "http://purl.obolibrary.org/obo/DOID_6132"
    },
    {
      "uri": "http://purl.obolibrary.org/obo/DOID_0060901"
    },
    {
      "uri": "http://purl.obolibrary.org/obo/DOID_1749"
    }
  ],
  "classes": {
    "gco:Referenced_glycoconjugate": {
      "entities": 16627,
      "label": {
        "en": "Referenced Glycoconjugate"
      },
      "subClassOf": [
        "glycan:Referenced_compound"
      ],
      "rhs": [
        [
          "gco:has_protein_part",
          "up:Protein"
        ],
        [
          "gco:has_saccharide_part",
          "gco:Referenced_saccharide"
        ],
        [
          "glycan:has_association",
          "http://purl.glycoinfo.org/ontology/codao/CompoundDiseaseAssociation"
        ],
        [
          "glycan:is_from_source",
          "glycan:Source_natural"
        ],
        [
          "glycan:published_in",
          "glycan:Citation"
        ]
      ],
      "lhs": [
        [
          "http://purl.glycoinfo.org/ontology/codao/CompoundDiseaseAssociation",
          "sio:SIO_000628"
        ]
      ]
    },
    "up:Protein": {
      "entities": 2057,
      "label": {
        "": "Protein"
      },
      "rhs": [
        [
          "gco:glycosylated_at",
          "glycan:Glycosylation_site"
        ],
        [
          "gco:has_attached_referenced_saccharide",
          "gco:Referenced_saccharide"
        ],
        [
          "rdfs:label",
          "rdfs:Literal"
        ]
      ],
      "lhs": [
        [
          "gco:Referenced_glycoconjugate",
          "gco:has_protein_part"
        ]
      ]
    },
    "http://purl.obolibrary.org/obo/DOID_1485": {
      "entities": 1,
      "rhs": [
        [
          "http://www.w3.org/2008/05/skos#notation",
          "rdfs:Literal"
        ],
        [
          "rdfs:label",
          "rdfs:Literal"
        ]
      ],
      "lhs": [
        [
          "http://purl.glycoinfo.org/ontology/codao/CompoundDiseaseAssociation",
          "sio:SIO_000628"
        ]
      ]
    },
    "http://purl.obolibrary.org/obo/DOID_1911": {
      "entities": 1,
      "rhs": [
        [
          "http://www.w3.org/2008/05/skos#notation",
          "rdfs:Literal"
        ],
        [
          "rdfs:label",
          "rdfs:Literal"
        ]
      ]
    },
    "http://purl.obolibrary.org/obo/DOID_9538": {
      "entities": 1,
      "rhs": [
        [
          "http://www.w3.org/2008/05/skos#notation",
          "rdfs:Literal"
        ],
        [
          "rdfs:label",
          "rdfs:Literal"
        ]
      ],
      "lhs": [
        [
          "http://purl.glycoinfo.org/ontology/codao/CompoundDiseaseAssociation",
          "sio:SIO_000628"
        ]
      ]
    },
    "http://purl.obolibrary.org/obo/DOID_1909": {
      "entities": 1,
      "rhs": [
        [
          "http://www.w3.org/2008/05/skos#notation",
          "rdfs:Literal"
        ],
        [
          "rdfs:label",
          "rdfs:Literal"
        ]
      ],
      "lhs": [
        [
          "http://purl.glycoinfo.org/ontology/codao/CompoundDiseaseAssociation",
          "sio:SIO_000628"
        ]
      ]
    },
    "rdf:Statement": {
      "entities": 22144,
      "rhs": [
        [
          "https://purl.org/glyconnect/peptide/validated_by",
          "https://purl.org/glyconnect/peptide/Peptide"
        ],
        [
          "rdf:object",
          "faldo:ExactPosition"
        ],
        [
          "rdf:predicate",
          "rdf:Property"
        ],
        [
          "rdf:subject",
          "glycan:Glycosylation_site"
        ]
      ]
    },
    "http://purl.obolibrary.org/obo/DOID_6132": {
      "entities": 1,
      "rhs": [
        [
          "http://www.w3.org/2008/05/skos#notation",
          "rdfs:Literal"
        ],
        [
          "rdfs:label",
          "rdfs:Literal"
        ]
      ],
      "lhs": [
        [
          "http://purl.glycoinfo.org/ontology/codao/CompoundDiseaseAssociation",
          "sio:SIO_000628"
        ]
      ]
    },
    "http://purl.obolibrary.org/obo/DOID_9119": {
      "entities": 1,
      "rhs": [
        [
          "http://www.w3.org/2008/05/skos#notation",
          "rdfs:Literal"
        ],
        [
          "rdfs:label",
          "rdfs:Literal"
        ]
      ],
      "lhs": [
        [
          "http://purl.glycoinfo.org/ontology/codao/CompoundDiseaseAssociation",
          "sio:SIO_000628"
        ]
      ]
    },
    "http://purl.obolibrary.org/obo/DOID_0050461": {
      "entities": 1,
      "rhs": [
        [
          "http://www.w3.org/2008/05/skos#notation",
          "rdfs:Literal"
        ],
        [
          "rdfs:label",
          "rdfs:Literal"
        ]
      ]
    },
    "http://purl.obolibrary.org/obo/DOID_6536": {
      "entities": 1,
      "rhs": [
        [
          "http://www.w3.org/2008/05/skos#notation",
          "rdfs:Literal"
        ],
        [
          "rdfs:label",
          "rdfs:Literal"
        ]
      ]
    },
    "http://purl.obolibrary.org/obo/DOID_10146": {
      "entities": 1,
      "rhs": [
        [
          "http://www.w3.org/2008/05/skos#notation",
          "rdfs:Literal"
        ],
        [
          "rdfs:label",
          "rdfs:Literal"
        ]
      ]
    },
    "http://purl.obolibrary.org/obo/DOID_3594": {
      "entities": 1,
      "rhs": [
        [
          "http://www.w3.org/2008/05/skos#notation",
          "rdfs:Literal"
        ],
        [
          "rdfs:label",
          "rdfs:Literal"
        ]
      ],
      "lhs": [
        [
          "http://purl.glycoinfo.org/ontology/codao/CompoundDiseaseAssociation",
          "sio:SIO_000628"
        ]
      ]
    },
    "http://purl.obolibrary.org/obo/DOID_848": {
      "entities": 1,
      "rhs": [
        [
          "http://www.w3.org/2008/05/skos#notation",
          "rdfs:Literal"
        ],
        [
          "rdfs:label",
          "rdfs:Literal"
        ]
      ]
    },
    "http://purl.obolibrary.org/obo/DOID_14500": {
      "entities": 1,
      "rhs": [
        [
          "http://www.w3.org/2008/05/skos#notation",
          "rdfs:Literal"
        ],
        [
          "rdfs:label",
          "rdfs:Literal"
        ]
      ],
      "lhs": [
        [
          "http://purl.glycoinfo.org/ontology/codao/CompoundDiseaseAssociation",
          "sio:SIO_000628"
        ]
      ]
    },
    "http://purl.obolibrary.org/obo/DOID_13810": {
      "entities": 1,
      "rhs": [
        [
          "http://www.w3.org/2008/05/skos#notation",
          "rdfs:Literal"
        ],
        [
          "rdfs:label",
          "rdfs:Literal"
        ]
      ],
      "lhs": [
        [
          "http://purl.glycoinfo.org/ontology/codao/CompoundDiseaseAssociation",
          "sio:SIO_000628"
        ]
      ]
    },
    "http://purl.obolibrary.org/obo/DOID_305": {
      "entities": 1,
      "rhs": [
        [
          "http://www.w3.org/2008/05/skos#notation",
          "rdfs:Literal"
        ],
        [
          "rdfs:label",
          "rdfs:Literal"
        ]
      ],
      "lhs": [
        [
          "http://purl.glycoinfo.org/ontology/codao/CompoundDiseaseAssociation",
          "sio:SIO_000628"
        ]
      ]
    },
    "http://purl.obolibrary.org/obo/DOID_3371": {
      "entities": 1,
      "rhs": [
        [
          "http://www.w3.org/2008/05/skos#notation",
          "rdfs:Literal"
        ],
        [
          "rdfs:label",
          "rdfs:Literal"
        ]
      ],
      "lhs": [
        [
          "http://purl.glycoinfo.org/ontology/codao/CompoundDiseaseAssociation",
          "sio:SIO_000628"
        ]
      ]
    },
    "http://purl.obolibrary.org/obo/DOID_14067": {
      "entities": 1,
      "rhs": [
        [
          "http://www.w3.org/2008/05/skos#notation",
          "rdfs:Literal"
        ],
        [
          "rdfs:label",
          "rdfs:Literal"
        ]
      ],
      "lhs": [
        [
          "http://purl.glycoinfo.org/ontology/codao/CompoundDiseaseAssociation",
          "sio:SIO_000628"
        ]
      ]
    },
    "http://purl.obolibrary.org/obo/DOID_5434": {
      "entities": 1,
      "rhs": [
        [
          "http://www.w3.org/2008/05/skos#notation",
          "rdfs:Literal"
        ],
        [
          "rdfs:label",
          "rdfs:Literal"
        ]
      ]
    },
    "glycan:Citation": {
      "entities": 861,
      "label": {
        "": "Citation"
      },
      "lhs": [
        [
          "gco:Referenced_glycoconjugate",
          "glycan:published_in"
        ]
      ]
    },
    "up:Taxon": {
      "entities": 225,
      "label": {
        "": "Taxon"
      },
      "rhs": [
        [
          "rdfs:label",
          "rdfs:Literal"
        ],
        [
          "up:commonName",
          "rdfs:Literal"
        ]
      ],
      "lhs": [
        [
          "glycan:Source_natural",
          "glycan:has_taxon"
        ]
      ]
    },
    "http://purl.obolibrary.org/obo/DOID_1171": {
      "entities": 1,
      "rhs": [
        [
          "http://www.w3.org/2008/05/skos#notation",
          "rdfs:Literal"
        ],
        [
          "rdfs:label",
          "rdfs:Literal"
        ]
      ],
      "lhs": [
        [
          "http://purl.glycoinfo.org/ontology/codao/CompoundDiseaseAssociation",
          "sio:SIO_000628"
        ]
      ]
    },
    "glycan:Saccharide": {
      "entities": 3216,
      "label": {
        "": "Saccharide"
      },
      "subClassOf": [
        "glycan:Compound"
      ],
      "rhs": [
        [
          "foaf:primaryTopicOf",
          "glycan:Saccharide"
        ],
        [
          "rdfs:seeAlso",
          "glycan:Saccharide"
        ]
      ],
      "lhs": [
        [
          "glycan:Saccharide",
          "foaf:primaryTopicOf"
        ],
        [
          "gco:Referenced_saccharide",
          "glycan:has_glycan"
        ],
        [
          "glycan:Saccharide",
          "rdfs:seeAlso"
        ]
      ]
    },
    "http://purl.obolibrary.org/obo/DOID_684": {
      "entities": 1,
      "rhs": [
        [
          "http://www.w3.org/2008/05/skos#notation",
          "rdfs:Literal"
        ],
        [
          "rdfs:label",
          "rdfs:Literal"
        ]
      ],
      "lhs": [
        [
          "http://purl.glycoinfo.org/ontology/codao/CompoundDiseaseAssociation",
          "sio:SIO_000628"
        ]
      ]
    },
    "http://purl.obolibrary.org/obo/DOID_9952": {
      "entities": 1,
      "rhs": [
        [
          "http://www.w3.org/2008/05/skos#notation",
          "rdfs:Literal"
        ],
        [
          "rdfs:label",
          "rdfs:Literal"
        ]
      ]
    },
    "http://purl.obolibrary.org/obo/DOID_5041": {
      "entities": 1,
      "rhs": [
        [
          "http://www.w3.org/2008/05/skos#notation",
          "rdfs:Literal"
        ],
        [
          "rdfs:label",
          "rdfs:Literal"
        ]
      ],
      "lhs": [
        [
          "http://purl.glycoinfo.org/ontology/codao/CompoundDiseaseAssociation",
          "sio:SIO_000628"
        ]
      ]
    },
    "glycan:Source_natural": {
      "entities": 3560,
      "label": {
        "": "Source Natural"
      },
      "subClassOf": [
        "glycan:Source"
      ],
      "rhs": [
        [
          "glycan:has_cell_line",
          "rdfs:Literal"
        ],
        [
          "glycan:has_taxon",
          "up:Taxon"
        ],
        [
          "glycan:has_tissue",
          "rdfs:Literal"
        ]
      ],
      "lhs": [
        [
          "gco:Referenced_glycoconjugate",
          "glycan:is_from_source"
        ]
      ]
    },
    "http://purl.obolibrary.org/obo/DOID_10652": {
      "entities": 1,
      "rhs": [
        [
          "http://www.w3.org/2008/05/skos#notation",
          "rdfs:Literal"
        ],
        [
          "rdfs:label",
          "rdfs:Literal"
        ]
      ]
    },
    "http://purl.glycoinfo.org/ontology/codao/CompoundDiseaseAssociation": {
      "entities": 13430,
      "rhs": [
        [
          "sio:SIO_000628",
          "http://purl.obolibrary.org/obo/DOID_684"
        ],
        [
          "sio:SIO_000628",
          "http://purl.obolibrary.org/obo/DOID_9119"
        ],
        [
          "sio:SIO_000628",
          "http://purl.obolibrary.org/obo/DOID_3721"
        ],
        [
          "sio:SIO_000628",
          "http://purl.obolibrary.org/obo/DOID_1171"
        ],
        [
          "sio:SIO_000628",
          "http://purl.obolibrary.org/obo/DOID_2394"
        ],
        [
          "sio:SIO_000628",
          "http://purl.obolibrary.org/obo/DOID_1909"
        ],
        [
          "sio:SIO_000628",
          "http://purl.obolibrary.org/obo/DOID_305"
        ],
        [
          "sio:SIO_000628",
          "http://purl.obolibrary.org/obo/DOID_3371"
        ],
        [
          "sio:SIO_000628",
          "http://purl.obolibrary.org/obo/DOID_6132"
        ],
        [
          "sio:SIO_000628",
          "http://purl.obolibrary.org/obo/DOID_5119"
        ],
        [
          "sio:SIO_000628",
          "http://purl.obolibrary.org/obo/DOID_9169"
        ],
        [
          "sio:SIO_000628",
          "http://purl.obolibrary.org/obo/DOID_9120"
        ],
        [
          "sio:SIO_000628",
          "http://purl.obolibrary.org/obo/DOID_1612"
        ],
        [
          "sio:SIO_000628",
          "http://purl.obolibrary.org/obo/DOID_1485"
        ],
        [
          "sio:SIO_000628",
          "http://purl.obolibrary.org/obo/DOID_1749"
        ],
        [
          "sio:SIO_000628",
          "http://purl.obolibrary.org/obo/DOID_3322"
        ],
        [
          "sio:SIO_000628",
          "http://purl.obolibrary.org/obo/DOID_9538"
        ],
        [
          "sio:SIO_000628",
          "http://purl.obolibrary.org/obo/DOID_0060058"
        ],
        [
          "sio:SIO_000628",
          "http://purl.obolibrary.org/obo/DOID_0070004"
        ],
        [
          "sio:SIO_000628",
          "http://purl.obolibrary.org/obo/DOID_3594"
        ],
        [
          "sio:SIO_000628",
          "http://purl.obolibrary.org/obo/DOID_13810"
        ],
        [
          "sio:SIO_000628",
          "http://purl.obolibrary.org/obo/DOID_299"
        ],
        [
          "sio:SIO_000628",
          "http://purl.obolibrary.org/obo/DOID_12449"
        ],
        [
          "sio:SIO_000628",
          "http://purl.obolibrary.org/obo/DOID_14500"
        ],
        [
          "sio:SIO_000628",
          "http://purl.obolibrary.org/obo/DOID_5041"
        ],
        [
          "sio:SIO_000628",
          "http://purl.obolibrary.org/obo/DOID_1926"
        ],
        [
          "sio:SIO_000628",
          "http://purl.obolibrary.org/obo/DOID_3590"
        ],
        [
          "sio:SIO_000628",
          "gco:Referenced_glycoconjugate"
        ],
        [
          "sio:SIO_000628",
          "http://purl.obolibrary.org/obo/DOID_0080147"
        ],
        [
          "sio:SIO_000628",
          "http://purl.obolibrary.org/obo/DOID_686"
        ],
        [
          "sio:SIO_000628",
          "http://purl.obolibrary.org/obo/DOID_12894"
        ],
        [
          "sio:SIO_000628",
          "http://purl.obolibrary.org/obo/DOID_7148"
        ],
        [
          "sio:SIO_000628",
          "http://purl.obolibrary.org/obo/DOID_7475"
        ],
        [
          "sio:SIO_000628",
          "http://purl.obolibrary.org/obo/DOID_14067"
        ],
        [
          "sio:SIO_000628",
          "http://purl.obolibrary.org/obo/DOID_10283"
        ],
        [
          "sio:SIO_000628",
          "http://purl.obolibrary.org/obo/DOID_0060901"
        ]
      ],
      "lhs": [
        [
          "gco:Referenced_glycoconjugate",
          "glycan:has_association"
        ]
      ]
    },
    "http://purl.obolibrary.org/obo/DOID_3322": {
      "entities": 1,
      "rhs": [
        [
          "http://www.w3.org/2008/05/skos#notation",
          "rdfs:Literal"
        ],
        [
          "rdfs:label",
          "rdfs:Literal"
        ]
      ],
      "lhs": [
        [
          "http://purl.glycoinfo.org/ontology/codao/CompoundDiseaseAssociation",
          "sio:SIO_000628"
        ]
      ]
    },
    "http://purl.obolibrary.org/obo/DOID_9120": {
      "entities": 3,
      "rhs": [
        [
          "http://www.w3.org/2008/05/skos#notation",
          "rdfs:Literal"
        ],
        [
          "rdfs:label",
          "rdfs:Literal"
        ]
      ],
      "lhs": [
        [
          "http://purl.glycoinfo.org/ontology/codao/CompoundDiseaseAssociation",
          "sio:SIO_000628"
        ]
      ]
    },
    "http://purl.obolibrary.org/obo/DOID_4606": {
      "entities": 1,
      "rhs": [
        [
          "http://www.w3.org/2008/05/skos#notation",
          "rdfs:Literal"
        ],
        [
          "rdfs:label",
          "rdfs:Literal"
        ]
      ]
    },
    "gco:Referenced_saccharide": {
      "entities": 3881,
      "label": {
        "en": "Referenced Saccharide"
      },
      "subClassOf": [
        "glycan:Referenced_compound"
      ],
      "rhs": [
        [
          "gco:glycosylates_at",
          "glycan:Glycosylation_site"
        ],
        [
          "glycan:has_glycan",
          "glycan:Saccharide"
        ]
      ],
      "lhs": [
        [
          "up:Protein",
          "gco:has_attached_referenced_saccharide"
        ],
        [
          "https://purl.org/glyconnect/referenced_protein/Reference_protein",
          "gco:has_attached_referenced_saccharide"
        ],
        [
          "gco:Referenced_glycoconjugate",
          "gco:has_saccharide_part"
        ]
      ]
    },
    "http://purl.obolibrary.org/obo/DOID_3070": {
      "entities": 1,
      "rhs": [
        [
          "http://www.w3.org/2008/05/skos#notation",
          "rdfs:Literal"
        ],
        [
          "rdfs:label",
          "rdfs:Literal"
        ]
      ]
    },
    "http://purl.obolibrary.org/obo/DOID_7475": {
      "entities": 1,
      "rhs": [
        [
          "http://www.w3.org/2008/05/skos#notation",
          "rdfs:Literal"
        ],
        [
          "rdfs:label",
          "rdfs:Literal"
        ]
      ],
      "lhs": [
        [
          "http://purl.glycoinfo.org/ontology/codao/CompoundDiseaseAssociation",
          "sio:SIO_000628"
        ]
      ]
    },
    "http://purl.obolibrary.org/obo/DOID_12449": {
      "entities": 1,
      "rhs": [
        [
          "http://www.w3.org/2008/05/skos#notation",
          "rdfs:Literal"
        ],
        [
          "rdfs:label",
          "rdfs:Literal"
        ]
      ],
      "lhs": [
        [
          "http://purl.glycoinfo.org/ontology/codao/CompoundDiseaseAssociation",
          "sio:SIO_000628"
        ]
      ]
    },
    "http://purl.obolibrary.org/obo/DOID_686": {
      "entities": 1,
      "rhs": [
        [
          "http://www.w3.org/2008/05/skos#notation",
          "rdfs:Literal"
        ],
        [
          "rdfs:label",
          "rdfs:Literal"
        ]
      ],
      "lhs": [
        [
          "http://purl.glycoinfo.org/ontology/codao/CompoundDiseaseAssociation",
          "sio:SIO_000628"
        ]
      ]
    },
    "http://purl.obolibrary.org/obo/DOID_8584": {
      "entities": 1,
      "rhs": [
        [
          "http://www.w3.org/2008/05/skos#notation",
          "rdfs:Literal"
        ],
        [
          "rdfs:label",
          "rdfs:Literal"
        ]
      ]
    },
    "http://purl.obolibrary.org/obo/DOID_784": {
      "entities": 1,
      "rhs": [
        [
          "http://www.w3.org/2008/05/skos#notation",
          "rdfs:Literal"
        ],
        [
          "rdfs:label",
          "rdfs:Literal"
        ]
      ]
    },
    "http://purl.obolibrary.org/obo/DOID_0060125": {
      "entities": 1,
      "rhs": [
        [
          "http://www.w3.org/2008/05/skos#notation",
          "rdfs:Literal"
        ],
        [
          "rdfs:label",
          "rdfs:Literal"
        ]
      ]
    },
    "http://purl.obolibrary.org/obo/DOID_1612": {
      "entities": 1,
      "rhs": [
        [
          "http://www.w3.org/2008/05/skos#notation",
          "rdfs:Literal"
        ],
        [
          "rdfs:label",
          "rdfs:Literal"
        ]
      ],
      "lhs": [
        [
          "http://purl.glycoinfo.org/ontology/codao/CompoundDiseaseAssociation",
          "sio:SIO_000628"
        ]
      ]
    },
    "http://purl.obolibrary.org/obo/DOID_3343": {
      "entities": 1,
      "rhs": [
        [
          "http://www.w3.org/2008/05/skos#notation",
          "rdfs:Literal"
        ],
        [
          "rdfs:label",
          "rdfs:Literal"
        ]
      ]
    },
    "http://purl.obolibrary.org/obo/DOID_299": {
      "entities": 2,
      "rhs": [
        [
          "http://www.w3.org/2008/05/skos#notation",
          "rdfs:Literal"
        ],
        [
          "rdfs:label",
          "rdfs:Literal"
        ]
      ],
      "lhs": [
        [
          "http://purl.glycoinfo.org/ontology/codao/CompoundDiseaseAssociation",
          "sio:SIO_000628"
        ]
      ]
    },
    "http://purl.obolibrary.org/obo/DOID_3355": {
      "entities": 1,
      "rhs": [
        [
          "http://www.w3.org/2008/05/skos#notation",
          "rdfs:Literal"
        ],
        [
          "rdfs:label",
          "rdfs:Literal"
        ]
      ]
    },
    "http://purl.obolibrary.org/obo/DOID_0080520": {
      "entities": 1,
      "rhs": [
        [
          "http://www.w3.org/2008/05/skos#notation",
          "rdfs:Literal"
        ],
        [
          "rdfs:label",
          "rdfs:Literal"
        ]
      ]
    },
    "http://purl.obolibrary.org/obo/DOID_12894": {
      "entities": 1,
      "rhs": [
        [
          "http://www.w3.org/2008/05/skos#notation",
          "rdfs:Literal"
        ],
        [
          "rdfs:label",
          "rdfs:Literal"
        ]
      ],
      "lhs": [
        [
          "http://purl.glycoinfo.org/ontology/codao/CompoundDiseaseAssociation",
          "sio:SIO_000628"
        ]
      ]
    },
    "http://purl.obolibrary.org/obo/DOID_10283": {
      "entities": 1,
      "rhs": [
        [
          "http://www.w3.org/2008/05/skos#notation",
          "rdfs:Literal"
        ],
        [
          "rdfs:label",
          "rdfs:Literal"
        ]
      ],
      "lhs": [
        [
          "http://purl.glycoinfo.org/ontology/codao/CompoundDiseaseAssociation",
          "sio:SIO_000628"
        ]
      ]
    },
    "glycan:Glycosylation_site": {
      "entities": 4769,
      "label": {
        "en": "Glycosylation Site"
      },
      "subClassOf": [
        "up:Glycosylation_Annotation"
      ],
      "rhs": [
        [
          "faldo:location",
          "faldo:ExactPosition"
        ]
      ],
      "lhs": [
        [
          "https://purl.org/glyconnect/referenced_protein/Reference_protein",
          "gco:glycosylated_at"
        ],
        [
          "up:Protein",
          "gco:glycosylated_at"
        ],
        [
          "gco:Referenced_saccharide",
          "gco:glycosylates_at"
        ],
        [
          "rdf:Statement",
          "rdf:subject"
        ]
      ]
    },
    "http://purl.obolibrary.org/obo/DOID_1240": {
      "entities": 1,
      "rhs": [
        [
          "http://www.w3.org/2008/05/skos#notation",
          "rdfs:Literal"
        ],
        [
          "rdfs:label",
          "rdfs:Literal"
        ]
      ]
    },
    "rdfs:Class": {
      "entities": 95,
      "rhs": [
        [
          "rdfs:subClassOf",
          "rdfs:Datatype"
        ],
        [
          "rdfs:subClassOf",
          "rdfs:Class"
        ],
        [
          "rdfs:subClassOf",
          "rdfs:Resource"
        ]
      ],
      "lhs": [
        [
          "rdfs:Class",
          "rdfs:subClassOf"
        ]
      ]
    },
    "https://purl.org/glyconnect/peptide/Peptide": {
      "entities": 5040,
      "rhs": [
        [
          "rdfs:label",
          "rdfs:Literal"
        ]
      ],
      "lhs": [
        [
          "rdf:Statement",
          "https://purl.org/glyconnect/peptide/validated_by"
        ]
      ]
    },
    "http://purl.obolibrary.org/obo/DOID_4989": {
      "entities": 1,
      "rhs": [
        [
          "http://www.w3.org/2008/05/skos#notation",
          "rdfs:Literal"
        ],
        [
          "rdfs:label",
          "rdfs:Literal"
        ]
      ]
    },
    "http://purl.obolibrary.org/obo/DOID_3721": {
      "entities": 1,
      "rhs": [
        [
          "http://www.w3.org/2008/05/skos#notation",
          "rdfs:Literal"
        ],
        [
          "rdfs:label",
          "rdfs:Literal"
        ]
      ],
      "lhs": [
        [
          "http://purl.glycoinfo.org/ontology/codao/CompoundDiseaseAssociation",
          "sio:SIO_000628"
        ]
      ]
    },
    "http://purl.obolibrary.org/obo/DOID_4948": {
      "entities": 1,
      "rhs": [
        [
          "http://www.w3.org/2008/05/skos#notation",
          "rdfs:Literal"
        ],
        [
          "rdfs:label",
          "rdfs:Literal"
        ]
      ]
    },
    "http://purl.obolibrary.org/obo/DOID_7148": {
      "entities": 1,
      "rhs": [
        [
          "http://www.w3.org/2008/05/skos#notation",
          "rdfs:Literal"
        ],
        [
          "rdfs:label",
          "rdfs:Literal"
        ]
      ],
      "lhs": [
        [
          "http://purl.glycoinfo.org/ontology/codao/CompoundDiseaseAssociation",
          "sio:SIO_000628"
        ]
      ]
    },
    "faldo:ExactPosition": {
      "entities": 4769,
      "label": {
        "": "Exact position"
      },
      "subClassOf": [
        "faldo:Position"
      ],
      "rhs": [
        [
          "faldo:position",
          "rdfs:Literal"
        ],
        [
          "faldo:reference",
          "glycan:Glycoprotein"
        ]
      ],
      "lhs": [
        [
          "glycan:Glycosylation_site",
          "faldo:location"
        ],
        [
          "rdf:Statement",
          "rdf:object"
        ]
      ]
    },
    "gco:Referenced_protein": {
      "entities": 2608,
      "label": {
        "en": "Referenced Protein"
      },
      "subClassOf": [
        "glycan:Referenced_compound"
      ],
      "rhs": [
        [
          "gco:has_protein",
          "glycan:Glycoprotein"
        ],
        [
          "rdfs:label",
          "rdfs:Literal"
        ]
      ]
    },
    "http://purl.obolibrary.org/obo/DOID_5119": {
      "entities": 1,
      "rhs": [
        [
          "http://www.w3.org/2008/05/skos#notation",
          "rdfs:Literal"
        ],
        [
          "rdfs:label",
          "rdfs:Literal"
        ]
      ],
      "lhs": [
        [
          "http://purl.glycoinfo.org/ontology/codao/CompoundDiseaseAssociation",
          "sio:SIO_000628"
        ]
      ]
    },
    "http://purl.obolibrary.org/obo/DOID_9169": {
      "entities": 1,
      "rhs": [
        [
          "http://www.w3.org/2008/05/skos#notation",
          "rdfs:Literal"
        ],
        [
          "rdfs:label",
          "rdfs:Literal"
        ]
      ],
      "lhs": [
        [
          "http://purl.glycoinfo.org/ontology/codao/CompoundDiseaseAssociation",
          "sio:SIO_000628"
        ]
      ]
    },
    "http://purl.obolibrary.org/obo/DOID_769": {
      "entities": 1,
      "rhs": [
        [
          "http://www.w3.org/2008/05/skos#notation",
          "rdfs:Literal"
        ],
        [
          "rdfs:label",
          "rdfs:Literal"
        ]
      ]
    },
    "rdfs:Resource": {
      "entities": 41,
      "rhs": [
        [
          "rdfs:domain",
          "rdfs:Resource"
        ],
        [
          "rdfs:range",
          "rdfs:Resource"
        ],
        [
          "rdfs:subClassOf",
          "rdfs:Datatype"
        ],
        [
          "rdfs:subClassOf",
          "rdfs:Resource"
        ],
        [
          "rdfs:subPropertyOf",
          "rdf:Property"
        ]
      ],
      "lhs": [
        [
          "rdf:Property",
          "rdfs:domain"
        ],
        [
          "rdfs:Resource",
          "rdfs:domain"
        ],
        [
          "rdf:Property",
          "rdfs:range"
        ],
        [
          "rdfs:Resource",
          "rdfs:range"
        ],
        [
          "rdfs:Class",
          "rdfs:subClassOf"
        ],
        [
          "rdfs:Datatype",
          "rdfs:subClassOf"
        ],
        [
          "rdfs:Resource",
          "rdfs:subClassOf"
        ],
        [
          "rdf:Property",
          "rdfs:subPropertyOf"
        ]
      ]
    },
    "http://purl.obolibrary.org/obo/DOID_3211": {
      "entities": 1,
      "rhs": [
        [
          "http://www.w3.org/2008/05/skos#notation",
          "rdfs:Literal"
        ],
        [
          "rdfs:label",
          "rdfs:Literal"
        ]
      ]
    },
    "https://purl.org/glyconnect/referenced_protein/Reference_protein": {
      "entities": 2057,
      "rhs": [
        [
          "gco:glycosylated_at",
          "glycan:Glycosylation_site"
        ],
        [
          "gco:has_attached_referenced_saccharide",
          "gco:Referenced_saccharide"
        ],
        [
          "rdfs:label",
          "rdfs:Literal"
        ]
      ]
    },
    "http://purl.obolibrary.org/obo/DOID_5212": {
      "entities": 1,
      "rhs": [
        [
          "http://www.w3.org/2008/05/skos#notation",
          "rdfs:Literal"
        ],
        [
          "rdfs:label",
          "rdfs:Literal"
        ]
      ]
    },
    "rdf:List": {
      "entities": 1
    },
    "http://purl.obolibrary.org/obo/DOID_8552": {
      "entities": 1,
      "rhs": [
        [
          "http://www.w3.org/2008/05/skos#notation",
          "rdfs:Literal"
        ],
        [
          "rdfs:label",
          "rdfs:Literal"
        ]
      ]
    },
    "rdf:Property": {
      "entities": 44,
      "rhs": [
        [
          "rdfs:domain",
          "rdfs:Resource"
        ],
        [
          "rdfs:range",
          "rdfs:Resource"
        ],
        [
          "rdfs:subPropertyOf",
          "rdf:Property"
        ],
        [
          "rdfs:subPropertyOf",
          "rdfs:Resource"
        ]
      ],
      "lhs": [
        [
          "rdf:Statement",
          "rdf:predicate"
        ],
        [
          "rdfs:Resource",
          "rdfs:subPropertyOf"
        ],
        [
          "rdf:Property",
          "rdfs:subPropertyOf"
        ]
      ]
    },
    "glycan:Glycoprotein": {
      "entities": 2147,
      "label": {
        "": "Glycoprotein"
      },
      "subClassOf": [
        "glycan:Glycoconjugate",
        "up:Protein"
      ],
      "lhs": [
        [
          "faldo:ExactPosition",
          "faldo:reference"
        ],
        [
          "gco:Referenced_protein",
          "gco:has_protein"
        ]
      ]
    },
    "http://purl.obolibrary.org/obo/DOID_8398": {
      "entities": 1,
      "rhs": [
        [
          "http://www.w3.org/2008/05/skos#notation",
          "rdfs:Literal"
        ],
        [
          "rdfs:label",
          "rdfs:Literal"
        ]
      ]
    },
    "http://purl.obolibrary.org/obo/DOID_1785": {
      "entities": 1,
      "rhs": [
        [
          "http://www.w3.org/2008/05/skos#notation",
          "rdfs:Literal"
        ],
        [
          "rdfs:label",
          "rdfs:Literal"
        ]
      ]
    },
    "http://purl.obolibrary.org/obo/DOID_9351": {
      "entities": 1,
      "rhs": [
        [
          "http://www.w3.org/2008/05/skos#notation",
          "rdfs:Literal"
        ],
        [
          "rdfs:label",
          "rdfs:Literal"
        ]
      ]
    },
    "http://purl.obolibrary.org/obo/DOID_0080147": {
      "entities": 1,
      "rhs": [
        [
          "http://www.w3.org/2008/05/skos#notation",
          "rdfs:Literal"
        ],
        [
          "rdfs:label",
          "rdfs:Literal"
        ]
      ],
      "lhs": [
        [
          "http://purl.glycoinfo.org/ontology/codao/CompoundDiseaseAssociation",
          "sio:SIO_000628"
        ]
      ]
    },
    "rdfs:Datatype": {
      "entities": 1,
      "rhs": [
        [
          "rdfs:subClassOf",
          "rdfs:Datatype"
        ],
        [
          "rdfs:subClassOf",
          "rdfs:Resource"
        ]
      ],
      "lhs": [
        [
          "rdfs:Resource",
          "rdfs:subClassOf"
        ],
        [
          "rdfs:Class",
          "rdfs:subClassOf"
        ],
        [
          "rdfs:Datatype",
          "rdfs:subClassOf"
        ]
      ]
    },
    "http://purl.obolibrary.org/obo/DOID_1749": {
      "entities": 1,
      "rhs": [
        [
          "http://www.w3.org/2008/05/skos#notation",
          "rdfs:Literal"
        ],
        [
          "rdfs:label",
          "rdfs:Literal"
        ]
      ],
      "lhs": [
        [
          "http://purl.glycoinfo.org/ontology/codao/CompoundDiseaseAssociation",
          "sio:SIO_000628"
        ]
      ]
    },
    "http://purl.obolibrary.org/obo/DOID_0060901": {
      "entities": 1,
      "rhs": [
        [
          "http://www.w3.org/2008/05/skos#notation",
          "rdfs:Literal"
        ],
        [
          "rdfs:label",
          "rdfs:Literal"
        ]
      ],
      "lhs": [
        [
          "http://purl.glycoinfo.org/ontology/codao/CompoundDiseaseAssociation",
          "sio:SIO_000628"
        ]
      ]
    },
    "http://purl.obolibrary.org/obo/DOID_1926": {
      "entities": 1,
      "rhs": [
        [
          "http://www.w3.org/2008/05/skos#notation",
          "rdfs:Literal"
        ],
        [
          "rdfs:label",
          "rdfs:Literal"
        ]
      ],
      "lhs": [
        [
          "http://purl.glycoinfo.org/ontology/codao/CompoundDiseaseAssociation",
          "sio:SIO_000628"
        ]
      ]
    },
    "http://purl.obolibrary.org/obo/DOID_2394": {
      "entities": 2,
      "rhs": [
        [
          "http://www.w3.org/2008/05/skos#notation",
          "rdfs:Literal"
        ],
        [
          "rdfs:label",
          "rdfs:Literal"
        ]
      ],
      "lhs": [
        [
          "http://purl.glycoinfo.org/ontology/codao/CompoundDiseaseAssociation",
          "sio:SIO_000628"
        ]
      ]
    },
    "http://purl.obolibrary.org/obo/DOID_0070004": {
      "entities": 1,
      "rhs": [
        [
          "http://www.w3.org/2008/05/skos#notation",
          "rdfs:Literal"
        ],
        [
          "rdfs:label",
          "rdfs:Literal"
        ]
      ],
      "lhs": [
        [
          "http://purl.glycoinfo.org/ontology/codao/CompoundDiseaseAssociation",
          "sio:SIO_000628"
        ]
      ]
    },
    "http://purl.obolibrary.org/obo/DOID_0060318": {
      "entities": 1,
      "rhs": [
        [
          "http://www.w3.org/2008/05/skos#notation",
          "rdfs:Literal"
        ],
        [
          "rdfs:label",
          "rdfs:Literal"
        ]
      ]
    },
    "http://purl.obolibrary.org/obo/DOID_9352": {
      "entities": 1,
      "rhs": [
        [
          "http://www.w3.org/2008/05/skos#notation",
          "rdfs:Literal"
        ],
        [
          "rdfs:label",
          "rdfs:Literal"
        ]
      ]
    },
    "http://purl.obolibrary.org/obo/DOID_3590": {
      "entities": 2,
      "rhs": [
        [
          "http://www.w3.org/2008/05/skos#notation",
          "rdfs:Literal"
        ],
        [
          "rdfs:label",
          "rdfs:Literal"
        ]
      ],
      "lhs": [
        [
          "http://purl.glycoinfo.org/ontology/codao/CompoundDiseaseAssociation",
          "sio:SIO_000628"
        ]
      ]
    },
    "http://purl.obolibrary.org/obo/DOID_0060058": {
      "entities": 1,
      "rhs": [
        [
          "http://www.w3.org/2008/05/skos#notation",
          "rdfs:Literal"
        ],
        [
          "rdfs:label",
          "rdfs:Literal"
        ]
      ],
      "lhs": [
        [
          "http://purl.glycoinfo.org/ontology/codao/CompoundDiseaseAssociation",
          "sio:SIO_000628"
        ]
      ]
    },
    "glycan:Glycoconjugate": {
      "label": {}
    },
    "glycan:Source": {
      "label": {
        "": "Source"
      }
    },
    "glycan:Compound": {
      "label": {}
    },
    "glycan:Referenced_compound": {
      "label": {
        "": "Referenced Compound"
      }
    },
    "faldo:Position": {
      "label": {}
    },
    "up:Glycosylation_Annotation": {
      "label": {
        "": "Glycosylation Annotation"
      }
    }
  },
  "properties": [
    {
      "uri": "https://purl.org/glyconnect/peptide/validated_by",
      "triples": 43768,
      "class_relations": [
        {
          "triples": 43768,
          "object_class": "https://purl.org/glyconnect/peptide/Peptide",
          "object_datatype": null,
          "subject_class": "rdf:Statement"
        }
      ]
    },
    {
      "uri": "gco:has_attached_referenced_saccharide",
      "triples": 33254,
      "class_relations": [
        {
          "triples": 16627,
          "object_class": "gco:Referenced_saccharide",
          "object_datatype": null,
          "subject_class": "https://purl.org/glyconnect/referenced_protein/Reference_protein"
        },
        {
          "triples": 16627,
          "object_class": "gco:Referenced_saccharide",
          "object_datatype": null,
          "subject_class": "up:Protein"
        }
      ]
    },
    {
      "uri": "gco:has_protein_part",
      "triples": 33254,
      "class_relations": [
        {
          "triples": 16627,
          "object_class": "up:Protein",
          "object_datatype": null,
          "subject_class": "gco:Referenced_glycoconjugate"
        }
      ]
    },
    {
      "uri": "sio:SIO_000628",
      "triples": 25241,
      "class_relations": [
        {
          "triples": 12059,
          "object_class": "gco:Referenced_glycoconjugate",
          "object_datatype": null,
          "subject_class": "http://purl.glycoinfo.org/ontology/codao/CompoundDiseaseAssociation"
        },
        {
          "triples": 8013,
          "object_class": "http://purl.obolibrary.org/obo/DOID_1612",
          "object_datatype": null,
          "subject_class": "http://purl.glycoinfo.org/ontology/codao/CompoundDiseaseAssociation"
        },
        {
          "triples": 3660,
          "object_class": "http://purl.obolibrary.org/obo/DOID_10283",
          "object_datatype": null,
          "subject_class": "http://purl.glycoinfo.org/ontology/codao/CompoundDiseaseAssociation"
        },
        {
          "triples": 178,
          "object_class": "http://purl.obolibrary.org/obo/DOID_684",
          "object_datatype": null,
          "subject_class": "http://purl.glycoinfo.org/ontology/codao/CompoundDiseaseAssociation"
        },
        {
          "triples": 128,
          "object_class": "http://purl.obolibrary.org/obo/DOID_1485",
          "object_datatype": null,
          "subject_class": "http://purl.glycoinfo.org/ontology/codao/CompoundDiseaseAssociation"
        },
        {
          "triples": 125,
          "object_class": "http://purl.obolibrary.org/obo/DOID_299",
          "object_datatype": null,
          "subject_class": "http://purl.glycoinfo.org/ontology/codao/CompoundDiseaseAssociation"
        },
        {
          "triples": 105,
          "object_class": "http://purl.obolibrary.org/obo/DOID_5041",
          "object_datatype": null,
          "subject_class": "http://purl.glycoinfo.org/ontology/codao/CompoundDiseaseAssociation"
        },
        {
          "triples": 92,
          "object_class": "http://purl.obolibrary.org/obo/DOID_0070004",
          "object_datatype": null,
          "subject_class": "http://purl.glycoinfo.org/ontology/codao/CompoundDiseaseAssociation"
        },
        {
          "triples": 65,
          "object_class": "http://purl.obolibrary.org/obo/DOID_0060901",
          "object_datatype": null,
          "subject_class": "http://purl.glycoinfo.org/ontology/codao/CompoundDiseaseAssociation"
        },
        {
          "triples": 63,
          "object_class": "http://purl.obolibrary.org/obo/DOID_3721",
          "object_datatype": null,
          "subject_class": "http://purl.glycoinfo.org/ontology/codao/CompoundDiseaseAssociation"
        },
        {
          "triples": 59,
          "object_class": "http://purl.obolibrary.org/obo/DOID_7475",
          "object_datatype": null,
          "subject_class": "http://purl.glycoinfo.org/ontology/codao/CompoundDiseaseAssociation"
        },
        {
          "triples": 57,
          "object_class": "http://purl.obolibrary.org/obo/DOID_1749",
          "object_datatype": null,
          "subject_class": "http://purl.glycoinfo.org/ontology/codao/CompoundDiseaseAssociation"
        },
        {
          "triples": 47,
          "object_class": "http://purl.obolibrary.org/obo/DOID_3322",
          "object_datatype": null,
          "subject_class": "http://purl.glycoinfo.org/ontology/codao/CompoundDiseaseAssociation"
        },
        {
          "triples": 41,
          "object_class": "http://purl.obolibrary.org/obo/DOID_2394",
          "object_datatype": null,
          "subject_class": "http://purl.glycoinfo.org/ontology/codao/CompoundDiseaseAssociation"
        },
        {
          "triples": 38,
          "object_class": "http://purl.obolibrary.org/obo/DOID_3594",
          "object_datatype": null,
          "subject_class": "http://purl.glycoinfo.org/ontology/codao/CompoundDiseaseAssociation"
        },
        {
          "triples": 37,
          "object_class": "http://purl.obolibrary.org/obo/DOID_6132",
          "object_datatype": null,
          "subject_class": "http://purl.glycoinfo.org/ontology/codao/CompoundDiseaseAssociation"
        },
        {
          "triples": 33,
          "object_class": "http://purl.obolibrary.org/obo/DOID_5119",
          "object_datatype": null,
          "subject_class": "http://purl.glycoinfo.org/ontology/codao/CompoundDiseaseAssociation"
        },
        {
          "triples": 28,
          "object_class": "http://purl.obolibrary.org/obo/DOID_14500",
          "object_datatype": null,
          "subject_class": "http://purl.glycoinfo.org/ontology/codao/CompoundDiseaseAssociation"
        },
        {
          "triples": 26,
          "object_class": "http://purl.obolibrary.org/obo/DOID_1926",
          "object_datatype": null,
          "subject_class": "http://purl.glycoinfo.org/ontology/codao/CompoundDiseaseAssociation"
        },
        {
          "triples": 25,
          "object_class": "http://purl.obolibrary.org/obo/DOID_0080147",
          "object_datatype": null,
          "subject_class": "http://purl.glycoinfo.org/ontology/codao/CompoundDiseaseAssociation"
        },
        {
          "triples": 20,
          "object_class": "http://purl.obolibrary.org/obo/DOID_3590",
          "object_datatype": null,
          "subject_class": "http://purl.glycoinfo.org/ontology/codao/CompoundDiseaseAssociation"
        },
        {
          "triples": 19,
          "object_class": "http://purl.obolibrary.org/obo/DOID_7148",
          "object_datatype": null,
          "subject_class": "http://purl.glycoinfo.org/ontology/codao/CompoundDiseaseAssociation"
        },
        {
          "triples": 18,
          "object_class": "http://purl.obolibrary.org/obo/DOID_13810",
          "object_datatype": null,
          "subject_class": "http://purl.glycoinfo.org/ontology/codao/CompoundDiseaseAssociation"
        },
        {
          "triples": 15,
          "object_class": "http://purl.obolibrary.org/obo/DOID_1909",
          "object_datatype": null,
          "subject_class": "http://purl.glycoinfo.org/ontology/codao/CompoundDiseaseAssociation"
        },
        {
          "triples": 13,
          "object_class": "http://purl.obolibrary.org/obo/DOID_12449",
          "object_datatype": null,
          "subject_class": "http://purl.glycoinfo.org/ontology/codao/CompoundDiseaseAssociation"
        },
        {
          "triples": 12,
          "object_class": "http://purl.obolibrary.org/obo/DOID_12894",
          "object_datatype": null,
          "subject_class": "http://purl.glycoinfo.org/ontology/codao/CompoundDiseaseAssociation"
        },
        {
          "triples": 11,
          "object_class": "http://purl.obolibrary.org/obo/DOID_9538",
          "object_datatype": null,
          "subject_class": "http://purl.glycoinfo.org/ontology/codao/CompoundDiseaseAssociation"
        },
        {
          "triples": 9,
          "object_class": "http://purl.obolibrary.org/obo/DOID_0060058",
          "object_datatype": null,
          "subject_class": "http://purl.glycoinfo.org/ontology/codao/CompoundDiseaseAssociation"
        },
        {
          "triples": 8,
          "object_class": "http://purl.obolibrary.org/obo/DOID_305",
          "object_datatype": null,
          "subject_class": "http://purl.glycoinfo.org/ontology/codao/CompoundDiseaseAssociation"
        },
        {
          "triples": 7,
          "object_class": "http://purl.obolibrary.org/obo/DOID_9119",
          "object_datatype": null,
          "subject_class": "http://purl.glycoinfo.org/ontology/codao/CompoundDiseaseAssociation"
        },
        {
          "triples": 6,
          "object_class": "http://purl.obolibrary.org/obo/DOID_686",
          "object_datatype": null,
          "subject_class": "http://purl.glycoinfo.org/ontology/codao/CompoundDiseaseAssociation"
        },
        {
          "triples": 5,
          "object_class": "http://purl.obolibrary.org/obo/DOID_3371",
          "object_datatype": null,
          "subject_class": "http://purl.glycoinfo.org/ontology/codao/CompoundDiseaseAssociation"
        },
        {
          "triples": 4,
          "object_class": "http://purl.obolibrary.org/obo/DOID_9169",
          "object_datatype": null,
          "subject_class": "http://purl.glycoinfo.org/ontology/codao/CompoundDiseaseAssociation"
        },
        {
          "triples": 3,
          "object_class": "http://purl.obolibrary.org/obo/DOID_9120",
          "object_datatype": null,
          "subject_class": "http://purl.glycoinfo.org/ontology/codao/CompoundDiseaseAssociation"
        },
        {
          "triples": 2,
          "object_class": "http://purl.obolibrary.org/obo/DOID_1171",
          "object_datatype": null,
          "subject_class": "http://purl.glycoinfo.org/ontology/codao/CompoundDiseaseAssociation"
        },
        {
          "triples": 1,
          "object_class": "http://purl.obolibrary.org/obo/DOID_14067",
          "object_datatype": null,
          "subject_class": "http://purl.glycoinfo.org/ontology/codao/CompoundDiseaseAssociation"
        }
      ]
    },
    {
      "uri": "gco:glycosylates_at",
      "triples": 23858,
      "class_relations": [
        {
          "triples": 23858,
          "object_class": "glycan:Glycosylation_site",
          "object_datatype": null,
          "subject_class": "gco:Referenced_saccharide"
        }
      ]
    },
    {
      "uri": "rdf:predicate",
      "triples": 22144,
      "class_relations": [
        {
          "triples": 22144,
          "object_class": "rdf:Property",
          "object_datatype": null,
          "subject_class": "rdf:Statement"
        }
      ]
    },
    {
      "uri": "rdf:subject",
      "triples": 22144,
      "class_relations": [
        {
          "triples": 22144,
          "object_class": "glycan:Glycosylation_site",
          "object_datatype": null,
          "subject_class": "rdf:Statement"
        }
      ]
    },
    {
      "uri": "rdf:object",
      "triples": 22144,
      "class_relations": [
        {
          "triples": 22144,
          "object_class": "faldo:ExactPosition",
          "object_datatype": null,
          "subject_class": "rdf:Statement"
        }
      ]
    },
    {
      "uri": "glycan:published_in",
      "triples": 18284,
      "class_relations": [
        {
          "triples": 18284,
          "object_class": "glycan:Citation",
          "object_datatype": null,
          "subject_class": "gco:Referenced_glycoconjugate"
        }
      ]
    },
    {
      "uri": "glycan:is_from_source",
      "triples": 18201,
      "class_relations": [
        {
          "triples": 18201,
          "object_class": "glycan:Source_natural",
          "object_datatype": null,
          "subject_class": "gco:Referenced_glycoconjugate"
        }
      ]
    },
    {
      "uri": "gco:has_saccharide_part",
      "triples": 16627,
      "class_relations": [
        {
          "triples": 16627,
          "object_class": "gco:Referenced_saccharide",
          "object_datatype": null,
          "subject_class": "gco:Referenced_glycoconjugate"
        }
      ]
    },
    {
      "uri": "glycan:has_association",
      "triples": 12059,
      "class_relations": [
        {
          "triples": 12059,
          "object_class": "http://purl.glycoinfo.org/ontology/codao/CompoundDiseaseAssociation",
          "object_datatype": null,
          "subject_class": "gco:Referenced_glycoconjugate"
        }
      ]
    },
    {
      "uri": "rdfs:label",
      "triples": 12056,
      "class_relations": [
        {
          "triples": 5040,
          "object_class": null,
          "object_datatype": "rdfs:Literal",
          "subject_class": "https://purl.org/glyconnect/peptide/Peptide"
        },
        {
          "triples": 2608,
          "object_class": null,
          "object_datatype": "rdfs:Literal",
          "subject_class": "gco:Referenced_protein"
        },
        {
          "triples": 2057,
          "object_class": null,
          "object_datatype": "rdfs:Literal",
          "subject_class": "https://purl.org/glyconnect/referenced_protein/Reference_protein"
        },
        {
          "triples": 2057,
          "object_class": null,
          "object_datatype": "rdfs:Literal",
          "subject_class": "up:Protein"
        },
        {
          "triples": 226,
          "object_class": null,
          "object_datatype": "rdfs:Literal",
          "subject_class": "up:Taxon"
        },
        {
          "triples": 3,
          "object_class": null,
          "object_datatype": "rdfs:Literal",
          "subject_class": "http://purl.obolibrary.org/obo/DOID_9120"
        },
        {
          "triples": 2,
          "object_class": null,
          "object_datatype": "rdfs:Literal",
          "subject_class": "http://purl.obolibrary.org/obo/DOID_3590"
        },
        {
          "triples": 2,
          "object_class": null,
          "object_datatype": "rdfs:Literal",
          "subject_class": "http://purl.obolibrary.org/obo/DOID_2394"
        },
        {
          "triples": 2,
          "object_class": null,
          "object_datatype": "rdfs:Literal",
          "subject_class": "http://purl.obolibrary.org/obo/DOID_299"
        },
        {
          "triples": 1,
          "object_class": null,
          "object_datatype": "rdfs:Literal",
          "subject_class": "http://purl.obolibrary.org/obo/DOID_1909"
        },
        {
          "triples": 1,
          "object_class": null,
          "object_datatype": "rdfs:Literal",
          "subject_class": "http://purl.obolibrary.org/obo/DOID_3070"
        },
        {
          "triples": 1,
          "object_class": null,
          "object_datatype": "rdfs:Literal",
          "subject_class": "http://purl.obolibrary.org/obo/DOID_1612"
        },
        {
          "triples": 1,
          "object_class": null,
          "object_datatype": "rdfs:Literal",
          "subject_class": "http://purl.obolibrary.org/obo/DOID_9352"
        },
        {
          "triples": 1,
          "object_class": null,
          "object_datatype": "rdfs:Literal",
          "subject_class": "http://purl.obolibrary.org/obo/DOID_0080147"
        },
        {
          "triples": 1,
          "object_class": null,
          "object_datatype": "rdfs:Literal",
          "subject_class": "http://purl.obolibrary.org/obo/DOID_3371"
        },
        {
          "triples": 1,
          "object_class": null,
          "object_datatype": "rdfs:Literal",
          "subject_class": "http://purl.obolibrary.org/obo/DOID_5434"
        },
        {
          "triples": 1,
          "object_class": null,
          "object_datatype": "rdfs:Literal",
          "subject_class": "http://purl.obolibrary.org/obo/DOID_4606"
        },
        {
          "triples": 1,
          "object_class": null,
          "object_datatype": "rdfs:Literal",
          "subject_class": "http://purl.obolibrary.org/obo/DOID_5212"
        },
        {
          "triples": 1,
          "object_class": null,
          "object_datatype": "rdfs:Literal",
          "subject_class": "http://purl.obolibrary.org/obo/DOID_5119"
        },
        {
          "triples": 1,
          "object_class": null,
          "object_datatype": "rdfs:Literal",
          "subject_class": "http://purl.obolibrary.org/obo/DOID_3594"
        },
        {
          "triples": 1,
          "object_class": null,
          "object_datatype": "rdfs:Literal",
          "subject_class": "http://purl.obolibrary.org/obo/DOID_3211"
        },
        {
          "triples": 1,
          "object_class": null,
          "object_datatype": "rdfs:Literal",
          "subject_class": "http://purl.obolibrary.org/obo/DOID_7475"
        },
        {
          "triples": 1,
          "object_class": null,
          "object_datatype": "rdfs:Literal",
          "subject_class": "http://purl.obolibrary.org/obo/DOID_0060058"
        },
        {
          "triples": 1,
          "object_class": null,
          "object_datatype": "rdfs:Literal",
          "subject_class": "http://purl.obolibrary.org/obo/DOID_0080520"
        },
        {
          "triples": 1,
          "object_class": null,
          "object_datatype": "rdfs:Literal",
          "subject_class": "http://purl.obolibrary.org/obo/DOID_13810"
        },
        {
          "triples": 1,
          "object_class": null,
          "object_datatype": "rdfs:Literal",
          "subject_class": "http://purl.obolibrary.org/obo/DOID_0060318"
        },
        {
          "triples": 1,
          "object_class": null,
          "object_datatype": "rdfs:Literal",
          "subject_class": "http://purl.obolibrary.org/obo/DOID_1171"
        },
        {
          "triples": 1,
          "object_class": null,
          "object_datatype": "rdfs:Literal",
          "subject_class": "http://purl.obolibrary.org/obo/DOID_10652"
        },
        {
          "triples": 1,
          "object_class": null,
          "object_datatype": "rdfs:Literal",
          "subject_class": "http://purl.obolibrary.org/obo/DOID_3355"
        },
        {
          "triples": 1,
          "object_class": null,
          "object_datatype": "rdfs:Literal",
          "subject_class": "http://purl.obolibrary.org/obo/DOID_4989"
        },
        {
          "triples": 1,
          "object_class": null,
          "object_datatype": "rdfs:Literal",
          "subject_class": "http://purl.obolibrary.org/obo/DOID_1240"
        },
        {
          "triples": 1,
          "object_class": null,
          "object_datatype": "rdfs:Literal",
          "subject_class": "http://purl.obolibrary.org/obo/DOID_1926"
        },
        {
          "triples": 1,
          "object_class": null,
          "object_datatype": "rdfs:Literal",
          "subject_class": "http://purl.obolibrary.org/obo/DOID_0060125"
        },
        {
          "triples": 1,
          "object_class": null,
          "object_datatype": "rdfs:Literal",
          "subject_class": "http://purl.obolibrary.org/obo/DOID_684"
        },
        {
          "triples": 1,
          "object_class": null,
          "object_datatype": "rdfs:Literal",
          "subject_class": "http://purl.obolibrary.org/obo/DOID_14500"
        },
        {
          "triples": 1,
          "object_class": null,
          "object_datatype": "rdfs:Literal",
          "subject_class": "http://purl.obolibrary.org/obo/DOID_0060901"
        },
        {
          "triples": 1,
          "object_class": null,
          "object_datatype": "rdfs:Literal",
          "subject_class": "http://purl.obolibrary.org/obo/DOID_6536"
        },
        {
          "triples": 1,
          "object_class": null,
          "object_datatype": "rdfs:Literal",
          "subject_class": "http://purl.obolibrary.org/obo/DOID_6132"
        },
        {
          "triples": 1,
          "object_class": null,
          "object_datatype": "rdfs:Literal",
          "subject_class": "http://purl.obolibrary.org/obo/DOID_0070004"
        },
        {
          "triples": 1,
          "object_class": null,
          "object_datatype": "rdfs:Literal",
          "subject_class": "http://purl.obolibrary.org/obo/DOID_0050461"
        },
        {
          "triples": 1,
          "object_class": null,
          "object_datatype": "rdfs:Literal",
          "subject_class": "http://purl.obolibrary.org/obo/DOID_3343"
        },
        {
          "triples": 1,
          "object_class": null,
          "object_datatype": "rdfs:Literal",
          "subject_class": "http://purl.obolibrary.org/obo/DOID_1749"
        },
        {
          "triples": 1,
          "object_class": null,
          "object_datatype": "rdfs:Literal",
          "subject_class": "http://purl.obolibrary.org/obo/DOID_4948"
        },
        {
          "triples": 1,
          "object_class": null,
          "object_datatype": "rdfs:Literal",
          "subject_class": "http://purl.obolibrary.org/obo/DOID_7148"
        },
        {
          "triples": 1,
          "object_class": null,
          "object_datatype": "rdfs:Literal",
          "subject_class": "http://purl.obolibrary.org/obo/DOID_769"
        },
        {
          "triples": 1,
          "object_class": null,
          "object_datatype": "rdfs:Literal",
          "subject_class": "http://purl.obolibrary.org/obo/DOID_3322"
        },
        {
          "triples": 1,
          "object_class": null,
          "object_datatype": "rdfs:Literal",
          "subject_class": "http://purl.obolibrary.org/obo/DOID_9119"
        },
        {
          "triples": 1,
          "object_class": null,
          "object_datatype": "rdfs:Literal",
          "subject_class": "http://purl.obolibrary.org/obo/DOID_305"
        },
        {
          "triples": 1,
          "object_class": null,
          "object_datatype": "rdfs:Literal",
          "subject_class": "http://purl.obolibrary.org/obo/DOID_848"
        },
        {
          "triples": 1,
          "object_class": null,
          "object_datatype": "rdfs:Literal",
          "subject_class": "http://purl.obolibrary.org/obo/DOID_9169"
        },
        {
          "triples": 1,
          "object_class": null,
          "object_datatype": "rdfs:Literal",
          "subject_class": "http://purl.obolibrary.org/obo/DOID_12449"
        },
        {
          "triples": 1,
          "object_class": null,
          "object_datatype": "rdfs:Literal",
          "subject_class": "http://purl.obolibrary.org/obo/DOID_14067"
        },
        {
          "triples": 1,
          "object_class": null,
          "object_datatype": "rdfs:Literal",
          "subject_class": "http://purl.obolibrary.org/obo/DOID_3721"
        },
        {
          "triples": 1,
          "object_class": null,
          "object_datatype": "rdfs:Literal",
          "subject_class": "http://purl.obolibrary.org/obo/DOID_1785"
        },
        {
          "triples": 1,
          "object_class": null,
          "object_datatype": "rdfs:Literal",
          "subject_class": "http://purl.obolibrary.org/obo/DOID_686"
        },
        {
          "triples": 1,
          "object_class": null,
          "object_datatype": "rdfs:Literal",
          "subject_class": "http://purl.obolibrary.org/obo/DOID_12894"
        },
        {
          "triples": 1,
          "object_class": null,
          "object_datatype": "rdfs:Literal",
          "subject_class": "http://purl.obolibrary.org/obo/DOID_8584"
        },
        {
          "triples": 1,
          "object_class": null,
          "object_datatype": "rdfs:Literal",
          "subject_class": "http://purl.obolibrary.org/obo/DOID_8552"
        },
        {
          "triples": 1,
          "object_class": null,
          "object_datatype": "rdfs:Literal",
          "subject_class": "http://purl.obolibrary.org/obo/DOID_9351"
        },
        {
          "triples": 1,
          "object_class": null,
          "object_datatype": "rdfs:Literal",
          "subject_class": "http://purl.obolibrary.org/obo/DOID_9952"
        },
        {
          "triples": 1,
          "object_class": null,
          "object_datatype": "rdfs:Literal",
          "subject_class": "http://purl.obolibrary.org/obo/DOID_8398"
        },
        {
          "triples": 1,
          "object_class": null,
          "object_datatype": "rdfs:Literal",
          "subject_class": "http://purl.obolibrary.org/obo/DOID_784"
        },
        {
          "triples": 1,
          "object_class": null,
          "object_datatype": "rdfs:Literal",
          "subject_class": "http://purl.obolibrary.org/obo/DOID_10283"
        },
        {
          "triples": 1,
          "object_class": null,
          "object_datatype": "rdfs:Literal",
          "subject_class": "http://purl.obolibrary.org/obo/DOID_9538"
        },
        {
          "triples": 1,
          "object_class": null,
          "object_datatype": "rdfs:Literal",
          "subject_class": "http://purl.obolibrary.org/obo/DOID_1911"
        },
        {
          "triples": 1,
          "object_class": null,
          "object_datatype": "rdfs:Literal",
          "subject_class": "http://purl.obolibrary.org/obo/DOID_5041"
        },
        {
          "triples": 1,
          "object_class": null,
          "object_datatype": "rdfs:Literal",
          "subject_class": "http://purl.obolibrary.org/obo/DOID_10146"
        },
        {
          "triples": 1,
          "object_class": null,
          "object_datatype": "rdfs:Literal",
          "subject_class": "http://purl.obolibrary.org/obo/DOID_1485"
        }
      ]
    },
    {
      "uri": "gco:glycosylated_at",
      "triples": 9538,
      "class_relations": [
        {
          "triples": 4769,
          "object_class": "glycan:Glycosylation_site",
          "object_datatype": null,
          "subject_class": "https://purl.org/glyconnect/referenced_protein/Reference_protein"
        },
        {
          "triples": 4769,
          "object_class": "glycan:Glycosylation_site",
          "object_datatype": null,
          "subject_class": "up:Protein"
        }
      ]
    },
    {
      "uri": "faldo:position",
      "triples": 4769,
      "class_relations": [
        {
          "triples": 4769,
          "object_class": null,
          "object_datatype": "rdfs:Literal",
          "subject_class": "faldo:ExactPosition"
        }
      ]
    },
    {
      "uri": "faldo:location",
      "triples": 4769,
      "class_relations": [
        {
          "triples": 4769,
          "object_class": "faldo:ExactPosition",
          "object_datatype": null,
          "subject_class": "glycan:Glycosylation_site"
        }
      ]
    },
    {
      "uri": "faldo:reference",
      "triples": 4625,
      "class_relations": [
        {
          "triples": 4625,
          "object_class": "glycan:Glycoprotein",
          "object_datatype": null,
          "subject_class": "faldo:ExactPosition"
        }
      ]
    },
    {
      "uri": "glycan:has_taxon",
      "triples": 3560,
      "class_relations": [
        {
          "triples": 3560,
          "object_class": "up:Taxon",
          "object_datatype": null,
          "subject_class": "glycan:Source_natural"
        }
      ]
    },
    {
      "uri": "glycan:has_tissue",
      "triples": 3550,
      "class_relations": [
        {
          "triples": 3550,
          "object_class": null,
          "object_datatype": "rdfs:Literal",
          "subject_class": "glycan:Source_natural"
        }
      ]
    },
    {
      "uri": "glycan:has_glycan",
      "triples": 3235,
      "class_relations": [
        {
          "triples": 3235,
          "object_class": "glycan:Saccharide",
          "object_datatype": null,
          "subject_class": "gco:Referenced_saccharide"
        }
      ]
    },
    {
      "uri": "rdfs:seeAlso",
      "triples": 3216,
      "class_relations": [
        {
          "triples": 3216,
          "object_class": "glycan:Saccharide",
          "object_datatype": null,
          "subject_class": "glycan:Saccharide"
        }
      ]
    },
    {
      "uri": "foaf:primaryTopicOf",
      "triples": 3216,
      "class_relations": [
        {
          "triples": 3216,
          "object_class": "glycan:Saccharide",
          "object_datatype": null,
          "subject_class": "glycan:Saccharide"
        }
      ]
    },
    {
      "uri": "gco:has_protein",
      "triples": 2260,
      "class_relations": [
        {
          "triples": 2260,
          "object_class": "glycan:Glycoprotein",
          "object_datatype": null,
          "subject_class": "gco:Referenced_protein"
        }
      ]
    },
    {
      "uri": "rdfs:subClassOf",
      "triples": 428,
      "class_relations": [
        {
          "triples": 201,
          "object_class": "rdfs:Class",
          "object_datatype": null,
          "subject_class": "rdfs:Class"
        },
        {
          "triples": 124,
          "object_class": "rdfs:Resource",
          "object_datatype": null,
          "subject_class": "rdfs:Class"
        },
        {
          "triples": 47,
          "object_class": "rdfs:Resource",
          "object_datatype": null,
          "subject_class": "rdfs:Resource"
        },
        {
          "triples": 3,
          "object_class": "rdfs:Resource",
          "object_datatype": null,
          "subject_class": "rdfs:Datatype"
        },
        {
          "triples": 1,
          "object_class": "rdfs:Datatype",
          "object_datatype": null,
          "subject_class": "rdfs:Resource"
        },
        {
          "triples": 1,
          "object_class": "rdfs:Datatype",
          "object_datatype": null,
          "subject_class": "rdfs:Datatype"
        },
        {
          "triples": 1,
          "object_class": "rdfs:Datatype",
          "object_datatype": null,
          "subject_class": "rdfs:Class"
        }
      ]
    },
    {
      "uri": "up:commonName",
      "triples": 147,
      "class_relations": [
        {
          "triples": 147,
          "object_class": null,
          "object_datatype": "rdfs:Literal",
          "subject_class": "up:Taxon"
        }
      ]
    },
    {
      "uri": "rdfs:subPropertyOf",
      "triples": 122,
      "class_relations": [
        {
          "triples": 47,
          "object_class": "rdf:Property",
          "object_datatype": null,
          "subject_class": "rdf:Property"
        },
        {
          "triples": 25,
          "object_class": "rdfs:Resource",
          "object_datatype": null,
          "subject_class": "rdf:Property"
        },
        {
          "triples": 25,
          "object_class": "rdf:Property",
          "object_datatype": null,
          "subject_class": "rdfs:Resource"
        }
      ]
    },
    {
      "uri": "glycan:has_cell_line",
      "triples": 119,
      "class_relations": [
        {
          "triples": 119,
          "object_class": null,
          "object_datatype": "rdfs:Literal",
          "subject_class": "glycan:Source_natural"
        }
      ]
    },
    {
      "uri": "http://www.w3.org/2008/05/skos#notation",
      "triples": 68,
      "class_relations": [
        {
          "triples": 3,
          "object_class": null,
          "object_datatype": "rdfs:Literal",
          "subject_class": "http://purl.obolibrary.org/obo/DOID_9120"
        },
        {
          "triples": 2,
          "object_class": null,
          "object_datatype": "rdfs:Literal",
          "subject_class": "http://purl.obolibrary.org/obo/DOID_3590"
        },
        {
          "triples": 2,
          "object_class": null,
          "object_datatype": "rdfs:Literal",
          "subject_class": "http://purl.obolibrary.org/obo/DOID_2394"
        },
        {
          "triples": 2,
          "object_class": null,
          "object_datatype": "rdfs:Literal",
          "subject_class": "http://purl.obolibrary.org/obo/DOID_299"
        },
        {
          "triples": 1,
          "object_class": null,
          "object_datatype": "rdfs:Literal",
          "subject_class": "http://purl.obolibrary.org/obo/DOID_14500"
        },
        {
          "triples": 1,
          "object_class": null,
          "object_datatype": "rdfs:Literal",
          "subject_class": "http://purl.obolibrary.org/obo/DOID_9952"
        },
        {
          "triples": 1,
          "object_class": null,
          "object_datatype": "rdfs:Literal",
          "subject_class": "http://purl.obolibrary.org/obo/DOID_4989"
        },
        {
          "triples": 1,
          "object_class": null,
          "object_datatype": "rdfs:Literal",
          "subject_class": "http://purl.obolibrary.org/obo/DOID_1240"
        },
        {
          "triples": 1,
          "object_class": null,
          "object_datatype": "rdfs:Literal",
          "subject_class": "http://purl.obolibrary.org/obo/DOID_1909"
        },
        {
          "triples": 1,
          "object_class": null,
          "object_datatype": "rdfs:Literal",
          "subject_class": "http://purl.obolibrary.org/obo/DOID_0080147"
        },
        {
          "triples": 1,
          "object_class": null,
          "object_datatype": "rdfs:Literal",
          "subject_class": "http://purl.obolibrary.org/obo/DOID_4948"
        },
        {
          "triples": 1,
          "object_class": null,
          "object_datatype": "rdfs:Literal",
          "subject_class": "http://purl.obolibrary.org/obo/DOID_3721"
        },
        {
          "triples": 1,
          "object_class": null,
          "object_datatype": "rdfs:Literal",
          "subject_class": "http://purl.obolibrary.org/obo/DOID_12449"
        },
        {
          "triples": 1,
          "object_class": null,
          "object_datatype": "rdfs:Literal",
          "subject_class": "http://purl.obolibrary.org/obo/DOID_1485"
        },
        {
          "triples": 1,
          "object_class": null,
          "object_datatype": "rdfs:Literal",
          "subject_class": "http://purl.obolibrary.org/obo/DOID_13810"
        },
        {
          "triples": 1,
          "object_class": null,
          "object_datatype": "rdfs:Literal",
          "subject_class": "http://purl.obolibrary.org/obo/DOID_3594"
        },
        {
          "triples": 1,
          "object_class": null,
          "object_datatype": "rdfs:Literal",
          "subject_class": "http://purl.obolibrary.org/obo/DOID_684"
        },
        {
          "triples": 1,
          "object_class": null,
          "object_datatype": "rdfs:Literal",
          "subject_class": "http://purl.obolibrary.org/obo/DOID_0050461"
        },
        {
          "triples": 1,
          "object_class": null,
          "object_datatype": "rdfs:Literal",
          "subject_class": "http://purl.obolibrary.org/obo/DOID_1749"
        },
        {
          "triples": 1,
          "object_class": null,
          "object_datatype": "rdfs:Literal",
          "subject_class": "http://purl.obolibrary.org/obo/DOID_0060901"
        },
        {
          "triples": 1,
          "object_class": null,
          "object_datatype": "rdfs:Literal",
          "subject_class": "http://purl.obolibrary.org/obo/DOID_8552"
        },
        {
          "triples": 1,
          "object_class": null,
          "object_datatype": "rdfs:Literal",
          "subject_class": "http://purl.obolibrary.org/obo/DOID_3211"
        },
        {
          "triples": 1,
          "object_class": null,
          "object_datatype": "rdfs:Literal",
          "subject_class": "http://purl.obolibrary.org/obo/DOID_784"
        },
        {
          "triples": 1,
          "object_class": null,
          "object_datatype": "rdfs:Literal",
          "subject_class": "http://purl.obolibrary.org/obo/DOID_305"
        },
        {
          "triples": 1,
          "object_class": null,
          "object_datatype": "rdfs:Literal",
          "subject_class": "http://purl.obolibrary.org/obo/DOID_6132"
        },
        {
          "triples": 1,
          "object_class": null,
          "object_datatype": "rdfs:Literal",
          "subject_class": "http://purl.obolibrary.org/obo/DOID_3371"
        },
        {
          "triples": 1,
          "object_class": null,
          "object_datatype": "rdfs:Literal",
          "subject_class": "http://purl.obolibrary.org/obo/DOID_0060318"
        },
        {
          "triples": 1,
          "object_class": null,
          "object_datatype": "rdfs:Literal",
          "subject_class": "http://purl.obolibrary.org/obo/DOID_9169"
        },
        {
          "triples": 1,
          "object_class": null,
          "object_datatype": "rdfs:Literal",
          "subject_class": "http://purl.obolibrary.org/obo/DOID_9119"
        },
        {
          "triples": 1,
          "object_class": null,
          "object_datatype": "rdfs:Literal",
          "subject_class": "http://purl.obolibrary.org/obo/DOID_3343"
        },
        {
          "triples": 1,
          "object_class": null,
          "object_datatype": "rdfs:Literal",
          "subject_class": "http://purl.obolibrary.org/obo/DOID_5041"
        },
        {
          "triples": 1,
          "object_class": null,
          "object_datatype": "rdfs:Literal",
          "subject_class": "http://purl.obolibrary.org/obo/DOID_9538"
        },
        {
          "triples": 1,
          "object_class": null,
          "object_datatype": "rdfs:Literal",
          "subject_class": "http://purl.obolibrary.org/obo/DOID_769"
        },
        {
          "triples": 1,
          "object_class": null,
          "object_datatype": "rdfs:Literal",
          "subject_class": "http://purl.obolibrary.org/obo/DOID_0060058"
        },
        {
          "triples": 1,
          "object_class": null,
          "object_datatype": "rdfs:Literal",
          "subject_class": "http://purl.obolibrary.org/obo/DOID_686"
        },
        {
          "triples": 1,
          "object_class": null,
          "object_datatype": "rdfs:Literal",
          "subject_class": "http://purl.obolibrary.org/obo/DOID_5119"
        },
        {
          "triples": 1,
          "object_class": null,
          "object_datatype": "rdfs:Literal",
          "subject_class": "http://purl.obolibrary.org/obo/DOID_8398"
        },
        {
          "triples": 1,
          "object_class": null,
          "object_datatype": "rdfs:Literal",
          "subject_class": "http://purl.obolibrary.org/obo/DOID_0080520"
        },
        {
          "triples": 1,
          "object_class": null,
          "object_datatype": "rdfs:Literal",
          "subject_class": "http://purl.obolibrary.org/obo/DOID_3070"
        },
        {
          "triples": 1,
          "object_class": null,
          "object_datatype": "rdfs:Literal",
          "subject_class": "http://purl.obolibrary.org/obo/DOID_9351"
        },
        {
          "triples": 1,
          "object_class": null,
          "object_datatype": "rdfs:Literal",
          "subject_class": "http://purl.obolibrary.org/obo/DOID_3322"
        },
        {
          "triples": 1,
          "object_class": null,
          "object_datatype": "rdfs:Literal",
          "subject_class": "http://purl.obolibrary.org/obo/DOID_9352"
        },
        {
          "triples": 1,
          "object_class": null,
          "object_datatype": "rdfs:Literal",
          "subject_class": "http://purl.obolibrary.org/obo/DOID_1926"
        },
        {
          "triples": 1,
          "object_class": null,
          "object_datatype": "rdfs:Literal",
          "subject_class": "http://purl.obolibrary.org/obo/DOID_1612"
        },
        {
          "triples": 1,
          "object_class": null,
          "object_datatype": "rdfs:Literal",
          "subject_class": "http://purl.obolibrary.org/obo/DOID_10652"
        },
        {
          "triples": 1,
          "object_class": null,
          "object_datatype": "rdfs:Literal",
          "subject_class": "http://purl.obolibrary.org/obo/DOID_12894"
        },
        {
          "triples": 1,
          "object_class": null,
          "object_datatype": "rdfs:Literal",
          "subject_class": "http://purl.obolibrary.org/obo/DOID_3355"
        },
        {
          "triples": 1,
          "object_class": null,
          "object_datatype": "rdfs:Literal",
          "subject_class": "http://purl.obolibrary.org/obo/DOID_1785"
        },
        {
          "triples": 1,
          "object_class": null,
          "object_datatype": "rdfs:Literal",
          "subject_class": "http://purl.obolibrary.org/obo/DOID_4606"
        },
        {
          "triples": 1,
          "object_class": null,
          "object_datatype": "rdfs:Literal",
          "subject_class": "http://purl.obolibrary.org/obo/DOID_5434"
        },
        {
          "triples": 1,
          "object_class": null,
          "object_datatype": "rdfs:Literal",
          "subject_class": "http://purl.obolibrary.org/obo/DOID_7148"
        },
        {
          "triples": 1,
          "object_class": null,
          "object_datatype": "rdfs:Literal",
          "subject_class": "http://purl.obolibrary.org/obo/DOID_6536"
        },
        {
          "triples": 1,
          "object_class": null,
          "object_datatype": "rdfs:Literal",
          "subject_class": "http://purl.obolibrary.org/obo/DOID_1171"
        },
        {
          "triples": 1,
          "object_class": null,
          "object_datatype": "rdfs:Literal",
          "subject_class": "http://purl.obolibrary.org/obo/DOID_8584"
        },
        {
          "triples": 1,
          "object_class": null,
          "object_datatype": "rdfs:Literal",
          "subject_class": "http://purl.obolibrary.org/obo/DOID_7475"
        },
        {
          "triples": 1,
          "object_class": null,
          "object_datatype": "rdfs:Literal",
          "subject_class": "http://purl.obolibrary.org/obo/DOID_1911"
        },
        {
          "triples": 1,
          "object_class": null,
          "object_datatype": "rdfs:Literal",
          "subject_class": "http://purl.obolibrary.org/obo/DOID_10146"
        },
        {
          "triples": 1,
          "object_class": null,
          "object_datatype": "rdfs:Literal",
          "subject_class": "http://purl.obolibrary.org/obo/DOID_14067"
        },
        {
          "triples": 1,
          "object_class": null,
          "object_datatype": "rdfs:Literal",
          "subject_class": "http://purl.obolibrary.org/obo/DOID_848"
        },
        {
          "triples": 1,
          "object_class": null,
          "object_datatype": "rdfs:Literal",
          "subject_class": "http://purl.obolibrary.org/obo/DOID_0070004"
        },
        {
          "triples": 1,
          "object_class": null,
          "object_datatype": "rdfs:Literal",
          "subject_class": "http://purl.obolibrary.org/obo/DOID_5212"
        },
        {
          "triples": 1,
          "object_class": null,
          "object_datatype": "rdfs:Literal",
          "subject_class": "http://purl.obolibrary.org/obo/DOID_0060125"
        },
        {
          "triples": 1,
          "object_class": null,
          "object_datatype": "rdfs:Literal",
          "subject_class": "http://purl.obolibrary.org/obo/DOID_10283"
        }
      ]
    },
    {
      "uri": "rdfs:range",
      "triples": 64,
      "class_relations": [
        {
          "triples": 16,
          "object_class": "rdfs:Resource",
          "object_datatype": null,
          "subject_class": "rdfs:Resource"
        },
        {
          "triples": 16,
          "object_class": "rdfs:Resource",
          "object_datatype": null,
          "subject_class": "rdf:Property"
        }
      ]
    },
    {
      "uri": "rdfs:domain",
      "triples": 64,
      "class_relations": [
        {
          "triples": 16,
          "object_class": "rdfs:Resource",
          "object_datatype": null,
          "subject_class": "rdf:Property"
        },
        {
          "triples": 16,
          "object_class": "rdfs:Resource",
          "object_datatype": null,
          "subject_class": "rdfs:Resource"
        }
      ]
    }
  ],
  "prefixes": {
    "xml": "http://www.w3.org/XML/1998/namespace",
    "rdf": "http://www.w3.org/1999/02/22-rdf-syntax-ns#",
    "rdfs": "http://www.w3.org/2000/01/rdf-schema#",
    "xsd": "http://www.w3.org/2001/XMLSchema#",
    "owl": "http://www.w3.org/2002/07/owl#",
    "skos": "http://www.w3.org/2004/02/skos/core#",
    "doap": "http://usefulinc.com/ns/doap#",
    "foaf": "http://xmlns.com/foaf/0.1/",
    "dc": "http://purl.org/dc/elements/1.1/",
    "dcterms": "http://purl.org/dc/terms/",
    "void": "http://rdfs.org/ns/void#",
    "": "http://purl.jp/bio/12/glyco/glycoconjugate#",
    "uo": "http://purl.obolibrary.org/obo/uo#",
    "up": "http://purl.uniprot.org/core/",
    "gco": "http://purl.jp/bio/12/glyco/conjugate#",
    "sio": "http://semanticscience.org/resource/",
    "codao": "http://purl.glycoinfo.org/ontology/codao#",
    "faldo": "http://biohackathon.org/resource/faldo#",
    "glycan": "http://purl.jp/bio/12/glyco/glycan#",
    "sd": "http://www.w3.org/ns/sparql-service-description#",
    "sbm": "http://sparqlbuilder.org/2015/09/rdf-metadata-schema#"
  },
  "meta_data": {
    "endpoint": "https://glyconnect.expasy.org/sparql",
    "crawl_date": "2021/03/05 00:31:46",
    "triples": 416139,
    "classes": 89,
    "properties": 30
  }
}