{
  "inheritance_structure": [
    {
      "uri": "owl:Class"
    },
    {
      "uri": ":dblabel"
    },
    {
      "uri": "rdf:Property"
    },
    {
      "uri": ":entry"
    },
    {
      "uri": "owl:DatatypeProperty"
    },
    {
      "uri": ":link"
    },
    {
      "uri": "owl:ObjectProperty"
    },
    {
      "uri": ":database"
    }
  ],
  "classes": {
    "rdf:Property": {
      "entities": 1,
      "rhs": [
        [
          "rdfs:comment",
          "rdfs:Literal"
        ]
      ]
    },
    ":dblabel": {
      "entities": 26,
      "rhs": [
        [
          "https://www.genome.jp/linkdb/core/dblabel",
          "rdfs:Literal"
        ],
        [
          "https://www.genome.jp/linkdb/core/prefix",
          "rdfs:Literal"
        ],
        [
          "rdfs:comment",
          "rdfs:Literal"
        ],
        [
          "rdfs:label",
          "rdfs:Literal"
        ]
      ]
    },
    ":entry": {
      "entities": 1209736765,
      "rhs": [
        [
          "rdfs:label",
          "rdfs:Literal"
        ]
      ]
    },
    "owl:ObjectProperty": {
      "entities": 4,
      "rhs": [
        [
          "rdfs:comment",
          "rdfs:Literal"
        ]
      ]
    },
    "owl:Class": {
      "entities": 4,
      "rhs": [
        [
          "rdfs:comment",
          "rdfs:Literal"
        ]
      ]
    },
    ":database": {
      "entities": 7003,
      "rhs": [
        [
          "https://www.genome.jp/linkdb/core/dblabel",
          "rdfs:Literal"
        ],
        [
          "https://www.genome.jp/linkdb/core/prefix",
          "rdfs:Literal"
        ],
        [
          "rdfs:comment",
          "rdfs:Literal"
        ],
        [
          "rdfs:label",
          "rdfs:Literal"
        ]
      ]
    },
    "owl:DatatypeProperty": {
      "entities": 2,
      "rhs": [
        [
          "rdfs:comment",
          "rdfs:Literal"
        ]
      ]
    },
    ":link": {
      "entities": 4,
      "rhs": [
        [
          "rdfs:label",
          "rdfs:Literal"
        ]
      ]
    }
  },
  "properties": [
    {
      "uri": "rdfs:label",
      "triples": 1209743785,
      "class_relations": [
        {
          "triples": 1209736765,
          "object_class": null,
          "object_datatype": "rdfs:Literal",
          "subject_class": ":entry"
        },
        {
          "triples": 7003,
          "object_class": null,
          "object_datatype": "rdfs:Literal",
          "subject_class": ":database"
        },
        {
          "triples": 13,
          "object_class": null,
          "object_datatype": "rdfs:Literal",
          "subject_class": ":dblabel"
        },
        {
          "triples": 4,
          "object_class": null,
          "object_datatype": "rdfs:Literal",
          "subject_class": ":link"
        }
      ]
    },
    {
      "uri": "https://www.genome.jp/linkdb/core/dblabel",
      "triples": 48244,
      "class_relations": [
        {
          "triples": 48219,
          "object_class": null,
          "object_datatype": "rdfs:Literal",
          "subject_class": ":database"
        },
        {
          "triples": 25,
          "object_class": null,
          "object_datatype": "rdfs:Literal",
          "subject_class": ":dblabel"
        }
      ]
    },
    {
      "uri": "rdfs:comment",
      "triples": 7026,
      "class_relations": [
        {
          "triples": 7003,
          "object_class": null,
          "object_datatype": "rdfs:Literal",
          "subject_class": ":database"
        },
        {
          "triples": 13,
          "object_class": null,
          "object_datatype": "rdfs:Literal",
          "subject_class": ":dblabel"
        },
        {
          "triples": 4,
          "object_class": null,
          "object_datatype": "rdfs:Literal",
          "subject_class": "owl:Class"
        },
        {
          "triples": 4,
          "object_class": null,
          "object_datatype": "rdfs:Literal",
          "subject_class": "owl:ObjectProperty"
        },
        {
          "triples": 1,
          "object_class": null,
          "object_datatype": "rdfs:Literal",
          "subject_class": "owl:DatatypeProperty"
        },
        {
          "triples": 1,
          "object_class": null,
          "object_datatype": "rdfs:Literal",
          "subject_class": "rdf:Property"
        }
      ]
    },
    {
      "uri": "https://www.genome.jp/linkdb/core/prefix",
      "triples": 7016,
      "class_relations": [
        {
          "triples": 7003,
          "object_class": null,
          "object_datatype": "rdfs:Literal",
          "subject_class": ":database"
        },
        {
          "triples": 13,
          "object_class": null,
          "object_datatype": "rdfs:Literal",
          "subject_class": ":dblabel"
        }
      ]
    }
  ],
  "prefixes": {
    "xml": "http://www.w3.org/XML/1998/namespace",
    "rdf": "http://www.w3.org/1999/02/22-rdf-syntax-ns#",
    "rdfs": "http://www.w3.org/2000/01/rdf-schema#",
    "xsd": "http://www.w3.org/2001/XMLSchema#",
    "owl": "http://www.w3.org/2002/07/owl#",
    "skos": "http://www.w3.org/2004/02/skos/core#",
    "doap": "http://usefulinc.com/ns/doap#",
    "foaf": "http://xmlns.com/foaf/0.1/",
    "dc": "http://purl.org/dc/elements/1.1/",
    "dcterms": "http://purl.org/dc/terms/",
    "void": "http://rdfs.org/ns/void#",
    "sd": "http://www.w3.org/ns/sparql-service-description#",
    "sbm": "http://sparqlbuilder.org/2015/09/rdf-metadata-schema#",
    "": "https://www.genome.jp/linkdb/"
  },
  "meta_data": {
    "endpoint": "https://www.genome.jp/sparql/linkdb",
    "crawl_date": "2021/02/03 21:26:16",
    "triples": 13343776477,
    "classes": 8,
    "properties": 4
  }
}