{
  "inheritance_structure": [
    {
      "uri": "orth:OrthologyDataset"
    },
    {
      "uri": "http://purl.jp/bio/11/mbgd#Linear"
    },
    {
      "uri": "up:Protein"
    },
    {
      "uri": "http://purl.jp/bio/11/mbgd#ncRNA"
    },
    {
      "uri": "http://purl.jp/bio/11/mbgd#CDS"
    },
    {
      "uri": "http://purl.jp/bio/11/mbgd#Contig"
    },
    {
      "uri": "http://purl.jp/bio/11/mbgd#Plasmid"
    },
    {
      "uri": "owl:DatatypeProperty"
    },
    {
      "uri": "http://purl.jp/bio/11/mbgd#Circular"
    },
    {
      "uri": "void:Dataset"
    },
    {
      "uri": "http://purl.jp/bio/11/mbgd#Genome"
    },
    {
      "uri": "owl:Class"
    },
    {
      "uri": "http://purl.jp/bio/11/mbgd#tRNA"
    },
    {
      "uri": "http://purl.jp/bio/11/mbgd#precursor_"
    },
    {
      "uri": "owl:AnnotationProperty"
    },
    {
      "uri": "http://biohackathon.org/resource/faldo#Region"
    },
    {
      "uri": "obo:SO_0005855",
      "children": [
        {
          "uri": "orth:HomologsCluster",
          "children": [
            {
              "uri": "orth:OrthologsCluster"
            }
          ]
        }
      ]
    },
    {
      "uri": "http://purl.jp/bio/11/mbgd#snoRNA"
    },
    {
      "uri": "http://purl.jp/bio/11/mbgd#tmRNA"
    },
    {
      "uri": "http://ddbj.nig.ac.jp/ontologies/taxonomy/DummyTaxon"
    },
    {
      "uri": "owl:ObjectProperty"
    },
    {
      "uri": "http://ddbj.nig.ac.jp/ontologies/taxonomy/GeneticCode"
    },
    {
      "uri": "owl:TransitiveProperty"
    },
    {
      "uri": "http://purl.jp/bio/11/mbgd#Mitochondrion"
    },
    {
      "uri": "http://purl.jp/bio/11/mbgd#CompleteGenome"
    },
    {
      "uri": "http://biohackathon.org/resource/faldo#ExactPosition"
    },
    {
      "uri": "http://purl.jp/bio/11/mbgd#Chromosome"
    },
    {
      "uri": "http://purl.jp/bio/11/mbgd#misc_RNA"
    },
    {
      "uri": "owl:Restriction"
    },
    {
      "uri": "owl:FunctionalProperty"
    },
    {
      "uri": "http://ddbj.nig.ac.jp/ontologies/taxonomy/Rank"
    },
    {
      "uri": "obo:CDAO_0000140",
      "children": [
        {
          "uri": "orth:GeneTreeNode",
          "children": [
            {
              "uri": "orth:HomologsCluster",
              "children": [
                {
                  "uri": "orth:OrthologsCluster"
                }
              ]
            },
            {
              "uri": "orth:SequenceUnit",
              "children": [
                {
                  "uri": "orth:Subgene"
                },
                {
                  "uri": "orth:Gene"
                },
                {
                  "uri": "orth:Protein"
                }
              ]
            }
          ]
        }
      ]
    },
    {
      "uri": "owl:Ontology"
    },
    {
      "uri": "http://ddbj.nig.ac.jp/ontologies/taxonomy/Taxon"
    },
    {
      "uri": "http://purl.jp/bio/11/mbgd#Domain"
    },
    {
      "uri": "sd:Service"
    },
    {
      "uri": "http://purl.jp/bio/11/mbgd#rRNA"
    },
    {
      "uri": "http://purl.jp/bio/11/mbgd#DraftGenome"
    },
    {
      "uri": "owl:Axiom"
    }
  ],
  "classes": {
    "owl:ObjectProperty": {
      "entities": 7,
      "rhs": [
        [
          "http://www.geneontology.org/formats/oboInOwl#created_by",
          "rdfs:Literal"
        ],
        [
          "http://www.geneontology.org/formats/oboInOwl#creation_date",
          "rdfs:Literal"
        ],
        [
          "http://www.geneontology.org/formats/oboInOwl#hasBroadSynonym",
          "rdfs:Literal"
        ],
        [
          "http://www.geneontology.org/formats/oboInOwl#hasDbXref",
          "rdfs:Literal"
        ],
        [
          "http://www.geneontology.org/formats/oboInOwl#hasOBONamespace",
          "rdfs:Literal"
        ],
        [
          "http://www.geneontology.org/formats/oboInOwl#id",
          "rdfs:Literal"
        ],
        [
          "http://www.geneontology.org/formats/oboInOwl#shorthand",
          "rdfs:Literal"
        ],
        [
          "owl:inverseOf",
          "owl:TransitiveProperty"
        ],
        [
          "owl:inverseOf",
          "owl:ObjectProperty"
        ],
        [
          "rdfs:comment",
          "rdfs:Literal"
        ],
        [
          "rdfs:isDefinedBy",
          "owl:Ontology"
        ],
        [
          "rdfs:label",
          "rdfs:Literal"
        ],
        [
          "rdfs:subPropertyOf",
          "owl:ObjectProperty"
        ]
      ],
      "lhs": [
        [
          "owl:ObjectProperty",
          "owl:inverseOf"
        ],
        [
          "owl:TransitiveProperty",
          "owl:inverseOf"
        ],
        [
          "owl:Restriction",
          "owl:onProperty"
        ],
        [
          "owl:ObjectProperty",
          "rdfs:subPropertyOf"
        ]
      ]
    },
    "owl:Ontology": {
      "entities": 1,
      "rhs": [
        [
          "dct:description",
          "rdfs:Literal"
        ],
        [
          "dct:title",
          "rdfs:Literal"
        ],
        [
          "http://www.geneontology.org/formats/oboInOwl#default-namespace",
          "rdfs:Literal"
        ],
        [
          "http://www.geneontology.org/formats/oboInOwl#hasOBOFormatVersion",
          "rdfs:Literal"
        ],
        [
          "owl:versionInfo",
          "rdfs:Literal"
        ]
      ],
      "lhs": [
        [
          "owl:ObjectProperty",
          "rdfs:isDefinedBy"
        ]
      ]
    },
    "http://purl.jp/bio/11/mbgd#Mitochondrion": {
      "entities": 224,
      "rhs": [
        [
          "dct:identifier",
          "rdfs:Literal"
        ],
        [
          "http://purl.jp/bio/11/mbgd#geneCount",
          "rdfs:Literal"
        ],
        [
          "http://purl.jp/bio/11/mbgd#nucLength",
          "rdfs:Literal"
        ]
      ]
    },
    "http://purl.jp/bio/11/mbgd#Circular": {
      "entities": 11576,
      "rhs": [
        [
          "dct:identifier",
          "rdfs:Literal"
        ],
        [
          "http://purl.jp/bio/11/mbgd#geneCount",
          "rdfs:Literal"
        ],
        [
          "http://purl.jp/bio/11/mbgd#nucLength",
          "rdfs:Literal"
        ]
      ]
    },
    "http://purl.jp/bio/11/mbgd#Linear": {
      "entities": 3206242,
      "rhs": [
        [
          "dct:identifier",
          "rdfs:Literal"
        ],
        [
          "http://purl.jp/bio/11/mbgd#geneCount",
          "rdfs:Literal"
        ],
        [
          "http://purl.jp/bio/11/mbgd#nucLength",
          "rdfs:Literal"
        ]
      ]
    },
    "http://purl.jp/bio/11/mbgd#Plasmid": {
      "entities": 6694,
      "rhs": [
        [
          "dct:identifier",
          "rdfs:Literal"
        ],
        [
          "http://purl.jp/bio/11/mbgd#geneCount",
          "rdfs:Literal"
        ],
        [
          "http://purl.jp/bio/11/mbgd#nucLength",
          "rdfs:Literal"
        ]
      ]
    },
    "http://purl.jp/bio/11/mbgd#Chromosome": {
      "entities": 18756,
      "rhs": [
        [
          "dct:identifier",
          "rdfs:Literal"
        ],
        [
          "http://purl.jp/bio/11/mbgd#geneCount",
          "rdfs:Literal"
        ],
        [
          "http://purl.jp/bio/11/mbgd#nucLength",
          "rdfs:Literal"
        ]
      ]
    },
    "http://purl.jp/bio/11/mbgd#Contig": {
      "entities": 3192144,
      "rhs": [
        [
          "dct:identifier",
          "rdfs:Literal"
        ],
        [
          "http://purl.jp/bio/11/mbgd#geneCount",
          "rdfs:Literal"
        ],
        [
          "http://purl.jp/bio/11/mbgd#nucLength",
          "rdfs:Literal"
        ]
      ]
    },
    "void:Dataset": {
      "entities": 1,
      "rhs": [
        [
          "dct:created",
          "rdfs:Literal"
        ],
        [
          "pav:version",
          "rdfs:Literal"
        ]
      ],
      "lhs": [
        [
          "orth:OrthologsCluster",
          "void:inDataset"
        ]
      ]
    },
    "owl:Restriction": {
      "entities": 57177,
      "rhs": [
        [
          "owl:onProperty",
          "owl:ObjectProperty"
        ],
        [
          "owl:onProperty",
          "owl:TransitiveProperty"
        ]
      ],
      "lhs": [
        [
          "owl:Axiom",
          "owl:annotatedTarget"
        ],
        [
          "owl:Class",
          "owl:disjointWith"
        ],
        [
          "owl:Class",
          "rdfs:subClassOf"
        ]
      ]
    },
    "owl:TransitiveProperty": {
      "entities": 22,
      "rhs": [
        [
          "http://www.geneontology.org/formats/oboInOwl#hasDbXref",
          "rdfs:Literal"
        ],
        [
          "http://www.geneontology.org/formats/oboInOwl#hasOBONamespace",
          "rdfs:Literal"
        ],
        [
          "http://www.geneontology.org/formats/oboInOwl#id",
          "rdfs:Literal"
        ],
        [
          "http://www.geneontology.org/formats/oboInOwl#shorthand",
          "rdfs:Literal"
        ],
        [
          "owl:inverseOf",
          "owl:TransitiveProperty"
        ],
        [
          "owl:inverseOf",
          "owl:ObjectProperty"
        ]
      ],
      "lhs": [
        [
          "owl:ObjectProperty",
          "owl:inverseOf"
        ],
        [
          "owl:TransitiveProperty",
          "owl:inverseOf"
        ],
        [
          "owl:Restriction",
          "owl:onProperty"
        ]
      ]
    },
    "owl:Class": {
      "entities": 4,
      "rhs": [
        [
          "dc:creator",
          "rdfs:Literal"
        ],
        [
          "dc:date",
          "rdfs:Literal"
        ],
        [
          "http://www.geneontology.org/formats/oboInOwl#consider",
          "rdfs:Literal"
        ],
        [
          "http://www.geneontology.org/formats/oboInOwl#created_by",
          "rdfs:Literal"
        ],
        [
          "http://www.geneontology.org/formats/oboInOwl#creation_date",
          "rdfs:Literal"
        ],
        [
          "http://www.geneontology.org/formats/oboInOwl#hasAlternativeId",
          "rdfs:Literal"
        ],
        [
          "http://www.geneontology.org/formats/oboInOwl#hasBroadSynonym",
          "rdfs:Literal"
        ],
        [
          "http://www.geneontology.org/formats/oboInOwl#hasDbXref",
          "rdfs:Literal"
        ],
        [
          "http://www.geneontology.org/formats/oboInOwl#hasExactSynonym",
          "rdfs:Literal"
        ],
        [
          "http://www.geneontology.org/formats/oboInOwl#hasNarrowSynonym",
          "rdfs:Literal"
        ],
        [
          "http://www.geneontology.org/formats/oboInOwl#hasOBONamespace",
          "rdfs:Literal"
        ],
        [
          "http://www.geneontology.org/formats/oboInOwl#hasRelatedSynonym",
          "rdfs:Literal"
        ],
        [
          "http://www.geneontology.org/formats/oboInOwl#id",
          "rdfs:Literal"
        ],
        [
          "http://www.geneontology.org/formats/oboInOwl#inSubset",
          "owl:AnnotationProperty"
        ],
        [
          "obo:IAO_0000115",
          "rdfs:Literal"
        ],
        [
          "obo:IAO_0000589",
          "rdfs:Literal"
        ],
        [
          "obo:IAO_0100001",
          "rdfs:Literal"
        ],
        [
          "obo:RO_0002161",
          "rdfs:Literal"
        ],
        [
          "owl:deprecated",
          "rdfs:Literal"
        ],
        [
          "owl:disjointWith",
          "owl:Restriction"
        ],
        [
          "rdfs:subClassOf",
          "owl:Restriction"
        ]
      ]
    },
    "owl:Axiom": {
      "entities": 157721,
      "rhs": [
        [
          "http://www.geneontology.org/formats/oboInOwl#SynonymTypeProperty",
          "rdfs:Literal"
        ],
        [
          "http://www.geneontology.org/formats/oboInOwl#hasAlternativeId",
          "rdfs:Literal"
        ],
        [
          "http://www.geneontology.org/formats/oboInOwl#hasDbXref",
          "rdfs:Literal"
        ],
        [
          "http://www.geneontology.org/formats/oboInOwl#hasSynonymType",
          "owl:AnnotationProperty"
        ],
        [
          "http://www.geneontology.org/formats/oboInOwl#http://purl.org/dc/terms/source",
          "rdfs:Literal"
        ],
        [
          "http://www.geneontology.org/formats/oboInOwl#id",
          "rdfs:Literal"
        ],
        [
          "http://www.geneontology.org/formats/oboInOwl#notes",
          "rdfs:Literal"
        ],
        [
          "http://www.geneontology.org/formats/oboInOwl#seeAlso",
          "rdfs:Literal"
        ],
        [
          "http://www.geneontology.org/formats/oboInOwl#source",
          "rdfs:Literal"
        ],
        [
          "owl:annotatedProperty",
          "owl:AnnotationProperty"
        ],
        [
          "owl:annotatedTarget",
          "owl:Restriction"
        ],
        [
          "owl:annotatedTarget",
          "rdfs:Literal"
        ]
      ]
    },
    "owl:AnnotationProperty": {
      "entities": 54,
      "rhs": [
        [
          "http://www.geneontology.org/formats/oboInOwl#hasDbXref",
          "rdfs:Literal"
        ],
        [
          "http://www.geneontology.org/formats/oboInOwl#hasOBONamespace",
          "rdfs:Literal"
        ],
        [
          "http://www.geneontology.org/formats/oboInOwl#hasScope",
          "owl:AnnotationProperty"
        ],
        [
          "http://www.geneontology.org/formats/oboInOwl#id",
          "rdfs:Literal"
        ],
        [
          "http://www.geneontology.org/formats/oboInOwl#is_class_level",
          "rdfs:Literal"
        ],
        [
          "http://www.geneontology.org/formats/oboInOwl#is_metadata_tag",
          "rdfs:Literal"
        ],
        [
          "http://www.geneontology.org/formats/oboInOwl#shorthand",
          "rdfs:Literal"
        ],
        [
          "obo:IAO_0000425",
          "rdfs:Literal"
        ]
      ],
      "lhs": [
        [
          "owl:AnnotationProperty",
          "http://www.geneontology.org/formats/oboInOwl#hasScope"
        ],
        [
          "owl:Axiom",
          "http://www.geneontology.org/formats/oboInOwl#hasSynonymType"
        ],
        [
          "owl:Class",
          "http://www.geneontology.org/formats/oboInOwl#inSubset"
        ],
        [
          "owl:Axiom",
          "owl:annotatedProperty"
        ]
      ]
    },
    "sd:Service": {
      "entities": 1
    },
    "http://ddbj.nig.ac.jp/ontologies/taxonomy/DummyTaxon": {
      "entities": 1,
      "rhs": [
        [
          "http://ddbj.nig.ac.jp/ontologies/taxonomy/geneticCode",
          "http://ddbj.nig.ac.jp/ontologies/taxonomy/GeneticCode"
        ],
        [
          "http://ddbj.nig.ac.jp/ontologies/taxonomy/rank",
          "http://ddbj.nig.ac.jp/ontologies/taxonomy/Rank"
        ],
        [
          "http://ddbj.nig.ac.jp/ontologies/taxonomy/scientificName",
          "rdfs:Literal"
        ]
      ]
    },
    "http://ddbj.nig.ac.jp/ontologies/taxonomy/Taxon": {
      "entities": 1535271,
      "rhs": [
        [
          "http://ddbj.nig.ac.jp/ontologies/taxonomy/acronym",
          "rdfs:Literal"
        ],
        [
          "http://ddbj.nig.ac.jp/ontologies/taxonomy/anamorph",
          "rdfs:Literal"
        ],
        [
          "http://ddbj.nig.ac.jp/ontologies/taxonomy/authority",
          "rdfs:Literal"
        ],
        [
          "http://ddbj.nig.ac.jp/ontologies/taxonomy/blastName",
          "rdfs:Literal"
        ],
        [
          "http://ddbj.nig.ac.jp/ontologies/taxonomy/commonName",
          "rdfs:Literal"
        ],
        [
          "http://ddbj.nig.ac.jp/ontologies/taxonomy/equivalentName",
          "rdfs:Literal"
        ],
        [
          "http://ddbj.nig.ac.jp/ontologies/taxonomy/genbankAcronym",
          "rdfs:Literal"
        ],
        [
          "http://ddbj.nig.ac.jp/ontologies/taxonomy/genbankAnamorph",
          "rdfs:Literal"
        ],
        [
          "http://ddbj.nig.ac.jp/ontologies/taxonomy/genbankCommonName",
          "rdfs:Literal"
        ],
        [
          "http://ddbj.nig.ac.jp/ontologies/taxonomy/genbankSynonym",
          "rdfs:Literal"
        ],
        [
          "http://ddbj.nig.ac.jp/ontologies/taxonomy/geneticCode",
          "http://ddbj.nig.ac.jp/ontologies/taxonomy/GeneticCode"
        ],
        [
          "http://ddbj.nig.ac.jp/ontologies/taxonomy/geneticCodeMt",
          "http://ddbj.nig.ac.jp/ontologies/taxonomy/GeneticCode"
        ],
        [
          "http://ddbj.nig.ac.jp/ontologies/taxonomy/inPart",
          "rdfs:Literal"
        ],
        [
          "http://ddbj.nig.ac.jp/ontologies/taxonomy/includes",
          "rdfs:Literal"
        ],
        [
          "http://ddbj.nig.ac.jp/ontologies/taxonomy/misnomer",
          "rdfs:Literal"
        ],
        [
          "http://ddbj.nig.ac.jp/ontologies/taxonomy/misspelling",
          "rdfs:Literal"
        ],
        [
          "http://ddbj.nig.ac.jp/ontologies/taxonomy/rank",
          "http://ddbj.nig.ac.jp/ontologies/taxonomy/Rank"
        ],
        [
          "http://ddbj.nig.ac.jp/ontologies/taxonomy/scientificName",
          "rdfs:Literal"
        ],
        [
          "http://ddbj.nig.ac.jp/ontologies/taxonomy/synonym",
          "rdfs:Literal"
        ],
        [
          "http://ddbj.nig.ac.jp/ontologies/taxonomy/teleomorph",
          "rdfs:Literal"
        ],
        [
          "http://ddbj.nig.ac.jp/ontologies/taxonomy/typeMaterial",
          "rdfs:Literal"
        ],
        [
          "http://ddbj.nig.ac.jp/ontologies/taxonomy/uniqueName",
          "rdfs:Literal"
        ]
      ]
    },
    "owl:DatatypeProperty": {
      "entities": 28
    },
    "owl:FunctionalProperty": {
      "entities": 5
    },
    "http://ddbj.nig.ac.jp/ontologies/taxonomy/Rank": {
      "entities": 29,
      "lhs": [
        [
          "http://ddbj.nig.ac.jp/ontologies/taxonomy/Taxon",
          "http://ddbj.nig.ac.jp/ontologies/taxonomy/rank"
        ],
        [
          "http://ddbj.nig.ac.jp/ontologies/taxonomy/DummyTaxon",
          "http://ddbj.nig.ac.jp/ontologies/taxonomy/rank"
        ]
      ]
    },
    "http://ddbj.nig.ac.jp/ontologies/taxonomy/GeneticCode": {
      "entities": 20,
      "lhs": [
        [
          "http://ddbj.nig.ac.jp/ontologies/taxonomy/Taxon",
          "http://ddbj.nig.ac.jp/ontologies/taxonomy/geneticCode"
        ],
        [
          "http://ddbj.nig.ac.jp/ontologies/taxonomy/DummyTaxon",
          "http://ddbj.nig.ac.jp/ontologies/taxonomy/geneticCode"
        ],
        [
          "http://ddbj.nig.ac.jp/ontologies/taxonomy/Taxon",
          "http://ddbj.nig.ac.jp/ontologies/taxonomy/geneticCodeMt"
        ]
      ]
    },
    "http://purl.jp/bio/11/mbgd#precursor_": {
      "entities": 2374
    },
    "http://purl.jp/bio/11/mbgd#misc_RNA": {
      "entities": 43374
    },
    "http://purl.jp/bio/11/mbgd#CDS": {
      "entities": 134824115,
      "rhs": [
        [
          "http://gtps.ddbj.nig.ac.jp/core/qualifier/grade",
          "rdfs:Literal"
        ],
        [
          "http://purl.jp/bio/11/mbgd#aaLength",
          "rdfs:Literal"
        ],
        [
          "http://purl.jp/bio/11/mbgd#protein",
          "orth:Protein"
        ],
        [
          "rdfs:seeAlso",
          "orth:Protein"
        ],
        [
          "sio:SIO_010078",
          "orth:Protein"
        ]
      ]
    },
    "http://purl.jp/bio/11/mbgd#tRNA": {
      "entities": 2196932
    },
    "orth:Protein": {
      "entities": 14587354,
      "label": {
        "en": "Protein"
      },
      "subClassOf": [
        "orth:SequenceUnit"
      ],
      "lhs": [
        [
          "http://purl.jp/bio/11/mbgd#CDS",
          "http://purl.jp/bio/11/mbgd#protein"
        ],
        [
          "orth:Gene",
          "http://purl.jp/bio/11/mbgd#protein"
        ],
        [
          "orth:Gene",
          "rdfs:seeAlso"
        ],
        [
          "http://purl.jp/bio/11/mbgd#CDS",
          "rdfs:seeAlso"
        ],
        [
          "orth:Gene",
          "sio:SIO_010078"
        ],
        [
          "http://purl.jp/bio/11/mbgd#CDS",
          "sio:SIO_010078"
        ]
      ]
    },
    "http://purl.jp/bio/11/mbgd#rRNA": {
      "entities": 505696
    },
    "http://purl.jp/bio/11/mbgd#tmRNA": {
      "entities": 1163
    },
    "http://purl.jp/bio/11/mbgd#ncRNA": {
      "entities": 132182
    },
    "orth:Gene": {
      "entities": 137705839,
      "label": {
        "en": "Gene"
      },
      "subClassOf": [
        "orth:SequenceUnit"
      ],
      "rhs": [
        [
          "http://gtps.ddbj.nig.ac.jp/core/qualifier/grade",
          "rdfs:Literal"
        ],
        [
          "http://purl.jp/bio/11/mbgd#aaLength",
          "rdfs:Literal"
        ],
        [
          "http://purl.jp/bio/11/mbgd#protein",
          "orth:Protein"
        ],
        [
          "rdfs:seeAlso",
          "orth:Protein"
        ],
        [
          "sio:SIO_010078",
          "orth:Protein"
        ]
      ]
    },
    "http://purl.jp/bio/11/mbgd#snoRNA": {
      "entities": 3
    },
    "http://biohackathon.org/resource/faldo#Region": {
      "entities": 5848478,
      "rhs": [
        [
          "http://biohackathon.org/resource/faldo#begin",
          "http://biohackathon.org/resource/faldo#ExactPosition"
        ],
        [
          "http://biohackathon.org/resource/faldo#end",
          "http://biohackathon.org/resource/faldo#ExactPosition"
        ],
        [
          "http://purl.jp/bio/11/mbgd#domainBegin",
          "rdfs:Literal"
        ],
        [
          "http://purl.jp/bio/11/mbgd#domainEnd",
          "rdfs:Literal"
        ]
      ],
      "lhs": [
        [
          "orth:OrthologsCluster",
          "orth:hasHomologous"
        ]
      ]
    },
    "http://biohackathon.org/resource/faldo#ExactPosition": {
      "entities": 11696956,
      "rhs": [
        [
          "http://biohackathon.org/resource/faldo#position",
          "rdfs:Literal"
        ]
      ],
      "lhs": [
        [
          "http://purl.jp/bio/11/mbgd#Domain",
          "http://biohackathon.org/resource/faldo#begin"
        ],
        [
          "orth:Subgene",
          "http://biohackathon.org/resource/faldo#begin"
        ],
        [
          "http://biohackathon.org/resource/faldo#Region",
          "http://biohackathon.org/resource/faldo#begin"
        ],
        [
          "http://biohackathon.org/resource/faldo#Region",
          "http://biohackathon.org/resource/faldo#end"
        ],
        [
          "orth:Subgene",
          "http://biohackathon.org/resource/faldo#end"
        ],
        [
          "http://purl.jp/bio/11/mbgd#Domain",
          "http://biohackathon.org/resource/faldo#end"
        ]
      ]
    },
    "orth:OrthologsCluster": {
      "entities": 754889,
      "label": {
        "en": "Cluster of orthologs"
      },
      "subClassOf": [
        "orth:HomologsCluster"
      ],
      "rhs": [
        [
          "http://purl.jp/bio/11/mbgd#dist",
          "rdfs:Literal"
        ],
        [
          "http://purl.jp/bio/11/mbgd#funcCog",
          "rdfs:Literal"
        ],
        [
          "http://purl.jp/bio/11/mbgd#funcKegg",
          "rdfs:Literal"
        ],
        [
          "http://purl.jp/bio/11/mbgd#funcMbgd",
          "rdfs:Literal"
        ],
        [
          "http://purl.jp/bio/11/mbgd#funcTigr",
          "rdfs:Literal"
        ],
        [
          "http://purl.jp/bio/11/mbgd#score",
          "rdfs:Literal"
        ],
        [
          "orth:hasHomologous",
          "http://biohackathon.org/resource/faldo#Region"
        ],
        [
          "void:inDataset",
          "void:Dataset"
        ]
      ]
    },
    "orth:OrthologyDataset": {
      "entities": 1,
      "label": {
        "en": "Orthology datasource"
      }
    },
    "orth:Subgene": {
      "entities": 5848478,
      "label": {
        "en": "region of a gene"
      },
      "subClassOf": [
        "orth:SequenceUnit"
      ],
      "rhs": [
        [
          "http://biohackathon.org/resource/faldo#begin",
          "http://biohackathon.org/resource/faldo#ExactPosition"
        ],
        [
          "http://biohackathon.org/resource/faldo#end",
          "http://biohackathon.org/resource/faldo#ExactPosition"
        ],
        [
          "http://purl.jp/bio/11/mbgd#domainBegin",
          "rdfs:Literal"
        ],
        [
          "http://purl.jp/bio/11/mbgd#domainEnd",
          "rdfs:Literal"
        ]
      ]
    },
    "http://purl.jp/bio/11/mbgd#Domain": {
      "entities": 5848478,
      "rhs": [
        [
          "http://biohackathon.org/resource/faldo#begin",
          "http://biohackathon.org/resource/faldo#ExactPosition"
        ],
        [
          "http://biohackathon.org/resource/faldo#end",
          "http://biohackathon.org/resource/faldo#ExactPosition"
        ],
        [
          "http://purl.jp/bio/11/mbgd#domainBegin",
          "rdfs:Literal"
        ],
        [
          "http://purl.jp/bio/11/mbgd#domainEnd",
          "rdfs:Literal"
        ]
      ]
    },
    "http://purl.jp/bio/11/mbgd#DraftGenome": {
      "entities": 29181,
      "rhs": [
        [
          "dct:issued",
          "rdfs:Literal"
        ],
        [
          "http://purl.jp/bio/11/mbgd#abbrev",
          "rdfs:Literal"
        ],
        [
          "http://purl.jp/bio/11/mbgd#assemblyContigCount",
          "rdfs:Literal"
        ],
        [
          "http://purl.jp/bio/11/mbgd#assemblyContigN50",
          "rdfs:Literal"
        ],
        [
          "http://purl.jp/bio/11/mbgd#assemblyLevel",
          "rdfs:Literal"
        ],
        [
          "http://purl.jp/bio/11/mbgd#assemblyMoleculeCount",
          "rdfs:Literal"
        ],
        [
          "http://purl.jp/bio/11/mbgd#assemblyTopLevelCount",
          "rdfs:Literal"
        ],
        [
          "http://purl.jp/bio/11/mbgd#assemblyTotalGapLength",
          "rdfs:Literal"
        ],
        [
          "http://purl.jp/bio/11/mbgd#assemblyTotalLength",
          "rdfs:Literal"
        ],
        [
          "http://purl.jp/bio/11/mbgd#family",
          "rdfs:Literal"
        ],
        [
          "http://purl.jp/bio/11/mbgd#genus",
          "rdfs:Literal"
        ],
        [
          "http://purl.jp/bio/11/mbgd#species",
          "rdfs:Literal"
        ],
        [
          "http://purl.jp/bio/11/mbgd#spid",
          "rdfs:Literal"
        ],
        [
          "http://purl.jp/bio/11/mbgd#strain",
          "rdfs:Literal"
        ],
        [
          "http://purl.jp/bio/11/mbgd#unlocalizedTotalLength",
          "rdfs:Literal"
        ],
        [
          "http://purl.jp/bio/11/mbgd#unlocalizedUngappedLength",
          "rdfs:Literal"
        ]
      ]
    },
    "http://purl.jp/bio/11/mbgd#Genome": {
      "entities": 35499,
      "rhs": [
        [
          "dct:issued",
          "rdfs:Literal"
        ],
        [
          "http://purl.jp/bio/11/mbgd#abbrev",
          "rdfs:Literal"
        ],
        [
          "http://purl.jp/bio/11/mbgd#assemblyContigCount",
          "rdfs:Literal"
        ],
        [
          "http://purl.jp/bio/11/mbgd#assemblyContigN50",
          "rdfs:Literal"
        ],
        [
          "http://purl.jp/bio/11/mbgd#assemblyLevel",
          "rdfs:Literal"
        ],
        [
          "http://purl.jp/bio/11/mbgd#assemblyMoleculeCount",
          "rdfs:Literal"
        ],
        [
          "http://purl.jp/bio/11/mbgd#assemblyTopLevelCount",
          "rdfs:Literal"
        ],
        [
          "http://purl.jp/bio/11/mbgd#assemblyTotalGapLength",
          "rdfs:Literal"
        ],
        [
          "http://purl.jp/bio/11/mbgd#assemblyTotalLength",
          "rdfs:Literal"
        ],
        [
          "http://purl.jp/bio/11/mbgd#family",
          "rdfs:Literal"
        ],
        [
          "http://purl.jp/bio/11/mbgd#genus",
          "rdfs:Literal"
        ],
        [
          "http://purl.jp/bio/11/mbgd#species",
          "rdfs:Literal"
        ],
        [
          "http://purl.jp/bio/11/mbgd#spid",
          "rdfs:Literal"
        ],
        [
          "http://purl.jp/bio/11/mbgd#strain",
          "rdfs:Literal"
        ],
        [
          "http://purl.jp/bio/11/mbgd#unlocalizedTotalLength",
          "rdfs:Literal"
        ],
        [
          "http://purl.jp/bio/11/mbgd#unlocalizedUngappedLength",
          "rdfs:Literal"
        ]
      ]
    },
    "http://purl.jp/bio/11/mbgd#CompleteGenome": {
      "entities": 6318,
      "rhs": [
        [
          "dct:issued",
          "rdfs:Literal"
        ],
        [
          "http://purl.jp/bio/11/mbgd#abbrev",
          "rdfs:Literal"
        ],
        [
          "http://purl.jp/bio/11/mbgd#assemblyContigCount",
          "rdfs:Literal"
        ],
        [
          "http://purl.jp/bio/11/mbgd#assemblyContigN50",
          "rdfs:Literal"
        ],
        [
          "http://purl.jp/bio/11/mbgd#assemblyLevel",
          "rdfs:Literal"
        ],
        [
          "http://purl.jp/bio/11/mbgd#assemblyMoleculeCount",
          "rdfs:Literal"
        ],
        [
          "http://purl.jp/bio/11/mbgd#assemblyTopLevelCount",
          "rdfs:Literal"
        ],
        [
          "http://purl.jp/bio/11/mbgd#assemblyTotalGapLength",
          "rdfs:Literal"
        ],
        [
          "http://purl.jp/bio/11/mbgd#assemblyTotalLength",
          "rdfs:Literal"
        ],
        [
          "http://purl.jp/bio/11/mbgd#family",
          "rdfs:Literal"
        ],
        [
          "http://purl.jp/bio/11/mbgd#genus",
          "rdfs:Literal"
        ],
        [
          "http://purl.jp/bio/11/mbgd#species",
          "rdfs:Literal"
        ],
        [
          "http://purl.jp/bio/11/mbgd#spid",
          "rdfs:Literal"
        ],
        [
          "http://purl.jp/bio/11/mbgd#strain",
          "rdfs:Literal"
        ],
        [
          "http://purl.jp/bio/11/mbgd#unlocalizedTotalLength",
          "rdfs:Literal"
        ],
        [
          "http://purl.jp/bio/11/mbgd#unlocalizedUngappedLength",
          "rdfs:Literal"
        ]
      ]
    },
    "up:Protein": {
      "entities": 14587354
    },
    "obo:SO_0005855": {
      "label": {
        "": "gene_group"
      }
    },
    "orth:HomologsCluster": {
      "label": {
        "en": "Cluster of homologous sequences"
      },
      "subClassOf": [
        "orth:GeneTreeNode",
        "obo:SO_0005855"
      ]
    },
    "obo:CDAO_0000140": {
      "label": {
        "": "Node"
      }
    },
    "orth:GeneTreeNode": {
      "label": {
        "en": "Gene tree node"
      },
      "subClassOf": [
        "obo:CDAO_0000140"
      ]
    },
    "orth:SequenceUnit": {
      "label": {
        "en": "Sequence unit"
      },
      "subClassOf": [
        "orth:GeneTreeNode"
      ]
    }
  },
  "properties": [
    {
      "uri": "http://purl.jp/bio/11/mbgd#aaLength",
      "triples": 269648230,
      "class_relations": [
        {
          "triples": 134824115,
          "object_class": null,
          "object_datatype": "rdfs:Literal",
          "subject_class": "http://purl.jp/bio/11/mbgd#CDS"
        },
        {
          "triples": 134824115,
          "object_class": null,
          "object_datatype": "rdfs:Literal",
          "subject_class": "orth:Gene"
        }
      ]
    },
    {
      "uri": "sio:SIO_010078",
      "triples": 261689512,
      "class_relations": [
        {
          "triples": 130844756,
          "object_class": "orth:Protein",
          "object_datatype": null,
          "subject_class": "http://purl.jp/bio/11/mbgd#CDS"
        },
        {
          "triples": 130844756,
          "object_class": "orth:Protein",
          "object_datatype": null,
          "subject_class": "orth:Gene"
        }
      ]
    },
    {
      "uri": "http://purl.jp/bio/11/mbgd#protein",
      "triples": 259628216,
      "class_relations": [
        {
          "triples": 129814108,
          "object_class": "orth:Protein",
          "object_datatype": null,
          "subject_class": "http://purl.jp/bio/11/mbgd#CDS"
        },
        {
          "triples": 129814108,
          "object_class": "orth:Protein",
          "object_datatype": null,
          "subject_class": "orth:Gene"
        }
      ]
    },
    {
      "uri": "http://purl.jp/bio/11/mbgd#domainBegin",
      "triples": 17545434,
      "class_relations": [
        {
          "triples": 5848478,
          "object_class": null,
          "object_datatype": "rdfs:Literal",
          "subject_class": "orth:Subgene"
        },
        {
          "triples": 5848478,
          "object_class": null,
          "object_datatype": "rdfs:Literal",
          "subject_class": "http://biohackathon.org/resource/faldo#Region"
        },
        {
          "triples": 5848478,
          "object_class": null,
          "object_datatype": "rdfs:Literal",
          "subject_class": "http://purl.jp/bio/11/mbgd#Domain"
        }
      ]
    },
    {
      "uri": "http://biohackathon.org/resource/faldo#end",
      "triples": 17545434,
      "class_relations": [
        {
          "triples": 5848478,
          "object_class": "http://biohackathon.org/resource/faldo#ExactPosition",
          "object_datatype": null,
          "subject_class": "orth:Subgene"
        },
        {
          "triples": 5848478,
          "object_class": "http://biohackathon.org/resource/faldo#ExactPosition",
          "object_datatype": null,
          "subject_class": "http://biohackathon.org/resource/faldo#Region"
        },
        {
          "triples": 5848478,
          "object_class": "http://biohackathon.org/resource/faldo#ExactPosition",
          "object_datatype": null,
          "subject_class": "http://purl.jp/bio/11/mbgd#Domain"
        }
      ]
    },
    {
      "uri": "orth:hasHomologous",
      "triples": 17545434,
      "class_relations": [
        {
          "triples": 5848478,
          "object_class": "http://biohackathon.org/resource/faldo#Region",
          "object_datatype": null,
          "subject_class": "orth:OrthologsCluster"
        }
      ]
    },
    {
      "uri": "http://biohackathon.org/resource/faldo#begin",
      "triples": 17545434,
      "class_relations": [
        {
          "triples": 5848478,
          "object_class": "http://biohackathon.org/resource/faldo#ExactPosition",
          "object_datatype": null,
          "subject_class": "orth:Subgene"
        },
        {
          "triples": 5848478,
          "object_class": "http://biohackathon.org/resource/faldo#ExactPosition",
          "object_datatype": null,
          "subject_class": "http://biohackathon.org/resource/faldo#Region"
        },
        {
          "triples": 5848478,
          "object_class": "http://biohackathon.org/resource/faldo#ExactPosition",
          "object_datatype": null,
          "subject_class": "http://purl.jp/bio/11/mbgd#Domain"
        }
      ]
    },
    {
      "uri": "http://purl.jp/bio/11/mbgd#domainEnd",
      "triples": 17545434,
      "class_relations": [
        {
          "triples": 5848478,
          "object_class": null,
          "object_datatype": "rdfs:Literal",
          "subject_class": "orth:Subgene"
        },
        {
          "triples": 5848478,
          "object_class": null,
          "object_datatype": "rdfs:Literal",
          "subject_class": "http://biohackathon.org/resource/faldo#Region"
        },
        {
          "triples": 5848478,
          "object_class": null,
          "object_datatype": "rdfs:Literal",
          "subject_class": "http://purl.jp/bio/11/mbgd#Domain"
        }
      ]
    },
    {
      "uri": "http://biohackathon.org/resource/faldo#position",
      "triples": 11696956,
      "class_relations": [
        {
          "triples": 11696956,
          "object_class": null,
          "object_datatype": "rdfs:Literal",
          "subject_class": "http://biohackathon.org/resource/faldo#ExactPosition"
        }
      ]
    },
    {
      "uri": "http://gtps.ddbj.nig.ac.jp/core/qualifier/grade",
      "triples": 11227320,
      "class_relations": [
        {
          "triples": 5613660,
          "object_class": null,
          "object_datatype": "rdfs:Literal",
          "subject_class": "http://purl.jp/bio/11/mbgd#CDS"
        },
        {
          "triples": 5613660,
          "object_class": null,
          "object_datatype": "rdfs:Literal",
          "subject_class": "orth:Gene"
        }
      ]
    },
    {
      "uri": "http://purl.jp/bio/11/mbgd#nucLength",
      "triples": 6435636,
      "class_relations": [
        {
          "triples": 3206242,
          "object_class": null,
          "object_datatype": "rdfs:Literal",
          "subject_class": "http://purl.jp/bio/11/mbgd#Linear"
        },
        {
          "triples": 3192144,
          "object_class": null,
          "object_datatype": "rdfs:Literal",
          "subject_class": "http://purl.jp/bio/11/mbgd#Contig"
        },
        {
          "triples": 18756,
          "object_class": null,
          "object_datatype": "rdfs:Literal",
          "subject_class": "http://purl.jp/bio/11/mbgd#Chromosome"
        },
        {
          "triples": 11576,
          "object_class": null,
          "object_datatype": "rdfs:Literal",
          "subject_class": "http://purl.jp/bio/11/mbgd#Circular"
        },
        {
          "triples": 6694,
          "object_class": null,
          "object_datatype": "rdfs:Literal",
          "subject_class": "http://purl.jp/bio/11/mbgd#Plasmid"
        },
        {
          "triples": 224,
          "object_class": null,
          "object_datatype": "rdfs:Literal",
          "subject_class": "http://purl.jp/bio/11/mbgd#Mitochondrion"
        }
      ]
    },
    {
      "uri": "dct:identifier",
      "triples": 6435636,
      "class_relations": [
        {
          "triples": 3206242,
          "object_class": null,
          "object_datatype": "rdfs:Literal",
          "subject_class": "http://purl.jp/bio/11/mbgd#Linear"
        },
        {
          "triples": 3192144,
          "object_class": null,
          "object_datatype": "rdfs:Literal",
          "subject_class": "http://purl.jp/bio/11/mbgd#Contig"
        },
        {
          "triples": 18756,
          "object_class": null,
          "object_datatype": "rdfs:Literal",
          "subject_class": "http://purl.jp/bio/11/mbgd#Chromosome"
        },
        {
          "triples": 11576,
          "object_class": null,
          "object_datatype": "rdfs:Literal",
          "subject_class": "http://purl.jp/bio/11/mbgd#Circular"
        },
        {
          "triples": 6694,
          "object_class": null,
          "object_datatype": "rdfs:Literal",
          "subject_class": "http://purl.jp/bio/11/mbgd#Plasmid"
        },
        {
          "triples": 224,
          "object_class": null,
          "object_datatype": "rdfs:Literal",
          "subject_class": "http://purl.jp/bio/11/mbgd#Mitochondrion"
        }
      ]
    },
    {
      "uri": "http://purl.jp/bio/11/mbgd#geneCount",
      "triples": 5957410,
      "class_relations": [
        {
          "triples": 2967424,
          "object_class": null,
          "object_datatype": "rdfs:Literal",
          "subject_class": "http://purl.jp/bio/11/mbgd#Linear"
        },
        {
          "triples": 2959698,
          "object_class": null,
          "object_datatype": "rdfs:Literal",
          "subject_class": "http://purl.jp/bio/11/mbgd#Contig"
        },
        {
          "triples": 12393,
          "object_class": null,
          "object_datatype": "rdfs:Literal",
          "subject_class": "http://purl.jp/bio/11/mbgd#Chromosome"
        },
        {
          "triples": 11281,
          "object_class": null,
          "object_datatype": "rdfs:Literal",
          "subject_class": "http://purl.jp/bio/11/mbgd#Circular"
        },
        {
          "triples": 6490,
          "object_class": null,
          "object_datatype": "rdfs:Literal",
          "subject_class": "http://purl.jp/bio/11/mbgd#Plasmid"
        },
        {
          "triples": 124,
          "object_class": null,
          "object_datatype": "rdfs:Literal",
          "subject_class": "http://purl.jp/bio/11/mbgd#Mitochondrion"
        }
      ]
    },
    {
      "uri": "rdfs:seeAlso",
      "triples": 2061296,
      "class_relations": [
        {
          "triples": 1030648,
          "object_class": "orth:Protein",
          "object_datatype": null,
          "subject_class": "http://purl.jp/bio/11/mbgd#CDS"
        },
        {
          "triples": 1030648,
          "object_class": "orth:Protein",
          "object_datatype": null,
          "subject_class": "orth:Gene"
        }
      ]
    },
    {
      "uri": "http://ddbj.nig.ac.jp/ontologies/taxonomy/rank",
      "triples": 1535272,
      "class_relations": [
        {
          "triples": 1535271,
          "object_class": "http://ddbj.nig.ac.jp/ontologies/taxonomy/Rank",
          "object_datatype": null,
          "subject_class": "http://ddbj.nig.ac.jp/ontologies/taxonomy/Taxon"
        },
        {
          "triples": 1,
          "object_class": "http://ddbj.nig.ac.jp/ontologies/taxonomy/Rank",
          "object_datatype": null,
          "subject_class": "http://ddbj.nig.ac.jp/ontologies/taxonomy/DummyTaxon"
        }
      ]
    },
    {
      "uri": "http://ddbj.nig.ac.jp/ontologies/taxonomy/scientificName",
      "triples": 1535272,
      "class_relations": [
        {
          "triples": 1535271,
          "object_class": null,
          "object_datatype": "rdfs:Literal",
          "subject_class": "http://ddbj.nig.ac.jp/ontologies/taxonomy/Taxon"
        },
        {
          "triples": 1,
          "object_class": null,
          "object_datatype": "rdfs:Literal",
          "subject_class": "http://ddbj.nig.ac.jp/ontologies/taxonomy/DummyTaxon"
        }
      ]
    },
    {
      "uri": "http://ddbj.nig.ac.jp/ontologies/taxonomy/geneticCode",
      "triples": 1535270,
      "class_relations": [
        {
          "triples": 1535269,
          "object_class": "http://ddbj.nig.ac.jp/ontologies/taxonomy/GeneticCode",
          "object_datatype": null,
          "subject_class": "http://ddbj.nig.ac.jp/ontologies/taxonomy/Taxon"
        },
        {
          "triples": 1,
          "object_class": "http://ddbj.nig.ac.jp/ontologies/taxonomy/GeneticCode",
          "object_datatype": null,
          "subject_class": "http://ddbj.nig.ac.jp/ontologies/taxonomy/DummyTaxon"
        }
      ]
    },
    {
      "uri": "void:inDataset",
      "triples": 1509778,
      "class_relations": [
        {
          "triples": 754889,
          "object_class": "void:Dataset",
          "object_datatype": null,
          "subject_class": "orth:OrthologsCluster"
        }
      ]
    },
    {
      "uri": "http://ddbj.nig.ac.jp/ontologies/taxonomy/geneticCodeMt",
      "triples": 890463,
      "class_relations": [
        {
          "triples": 890463,
          "object_class": "http://ddbj.nig.ac.jp/ontologies/taxonomy/GeneticCode",
          "object_datatype": null,
          "subject_class": "http://ddbj.nig.ac.jp/ontologies/taxonomy/Taxon"
        }
      ]
    },
    {
      "uri": "http://purl.jp/bio/11/mbgd#funcKegg",
      "triples": 754889,
      "class_relations": [
        {
          "triples": 754889,
          "object_class": null,
          "object_datatype": "rdfs:Literal",
          "subject_class": "orth:OrthologsCluster"
        }
      ]
    },
    {
      "uri": "http://purl.jp/bio/11/mbgd#funcCog",
      "triples": 754889,
      "class_relations": [
        {
          "triples": 754889,
          "object_class": null,
          "object_datatype": "rdfs:Literal",
          "subject_class": "orth:OrthologsCluster"
        }
      ]
    },
    {
      "uri": "http://purl.jp/bio/11/mbgd#funcTigr",
      "triples": 754889,
      "class_relations": [
        {
          "triples": 754889,
          "object_class": null,
          "object_datatype": "rdfs:Literal",
          "subject_class": "orth:OrthologsCluster"
        }
      ]
    },
    {
      "uri": "http://purl.jp/bio/11/mbgd#dist",
      "triples": 754889,
      "class_relations": [
        {
          "triples": 754889,
          "object_class": null,
          "object_datatype": "rdfs:Literal",
          "subject_class": "orth:OrthologsCluster"
        }
      ]
    },
    {
      "uri": "http://purl.jp/bio/11/mbgd#funcMbgd",
      "triples": 754889,
      "class_relations": [
        {
          "triples": 754889,
          "object_class": null,
          "object_datatype": "rdfs:Literal",
          "subject_class": "orth:OrthologsCluster"
        }
      ]
    },
    {
      "uri": "http://purl.jp/bio/11/mbgd#score",
      "triples": 754889,
      "class_relations": [
        {
          "triples": 754889,
          "object_class": null,
          "object_datatype": "rdfs:Literal",
          "subject_class": "orth:OrthologsCluster"
        }
      ]
    },
    {
      "uri": "http://ddbj.nig.ac.jp/ontologies/taxonomy/authority",
      "triples": 363795,
      "class_relations": [
        {
          "triples": 363795,
          "object_class": null,
          "object_datatype": "rdfs:Literal",
          "subject_class": "http://ddbj.nig.ac.jp/ontologies/taxonomy/Taxon"
        }
      ]
    },
    {
      "uri": "http://www.geneontology.org/formats/oboInOwl#hasDbXref",
      "triples": 222006,
      "class_relations": [
        {
          "triples": 173927,
          "object_class": null,
          "object_datatype": "rdfs:Literal",
          "subject_class": "owl:Axiom"
        },
        {
          "triples": 47896,
          "object_class": null,
          "object_datatype": "rdfs:Literal",
          "subject_class": "owl:Class"
        },
        {
          "triples": 160,
          "object_class": null,
          "object_datatype": "rdfs:Literal",
          "subject_class": "owl:ObjectProperty"
        },
        {
          "triples": 22,
          "object_class": null,
          "object_datatype": "rdfs:Literal",
          "subject_class": "owl:TransitiveProperty"
        },
        {
          "triples": 1,
          "object_class": null,
          "object_datatype": "rdfs:Literal",
          "subject_class": "owl:AnnotationProperty"
        }
      ]
    },
    {
      "uri": "owl:annotatedTarget",
      "triples": 157630,
      "class_relations": [
        {
          "triples": 157074,
          "object_class": null,
          "object_datatype": "rdfs:Literal",
          "subject_class": "owl:Axiom"
        },
        {
          "triples": 556,
          "object_class": "owl:Restriction",
          "object_datatype": null,
          "subject_class": "owl:Axiom"
        }
      ]
    },
    {
      "uri": "owl:annotatedProperty",
      "triples": 157165,
      "class_relations": [
        {
          "triples": 157165,
          "object_class": "owl:AnnotationProperty",
          "object_datatype": null,
          "subject_class": "owl:Axiom"
        }
      ]
    },
    {
      "uri": "http://ddbj.nig.ac.jp/ontologies/taxonomy/synonym",
      "triples": 154717,
      "class_relations": [
        {
          "triples": 154717,
          "object_class": null,
          "object_datatype": "rdfs:Literal",
          "subject_class": "http://ddbj.nig.ac.jp/ontologies/taxonomy/Taxon"
        }
      ]
    },
    {
      "uri": "http://ddbj.nig.ac.jp/ontologies/taxonomy/typeMaterial",
      "triples": 95084,
      "class_relations": [
        {
          "triples": 95084,
          "object_class": null,
          "object_datatype": "rdfs:Literal",
          "subject_class": "http://ddbj.nig.ac.jp/ontologies/taxonomy/Taxon"
        }
      ]
    },
    {
      "uri": "http://www.geneontology.org/formats/oboInOwl#hasExactSynonym",
      "triples": 90458,
      "class_relations": [
        {
          "triples": 90458,
          "object_class": null,
          "object_datatype": "rdfs:Literal",
          "subject_class": "owl:Class"
        }
      ]
    },
    {
      "uri": "owl:onProperty",
      "triples": 75914,
      "class_relations": [
        {
          "triples": 57177,
          "object_class": "owl:ObjectProperty",
          "object_datatype": null,
          "subject_class": "owl:Restriction"
        },
        {
          "triples": 18737,
          "object_class": "owl:TransitiveProperty",
          "object_datatype": null,
          "subject_class": "owl:Restriction"
        }
      ]
    },
    {
      "uri": "http://purl.jp/bio/11/mbgd#family",
      "triples": 70998,
      "class_relations": [
        {
          "triples": 35499,
          "object_class": null,
          "object_datatype": "rdfs:Literal",
          "subject_class": "http://purl.jp/bio/11/mbgd#Genome"
        },
        {
          "triples": 29181,
          "object_class": null,
          "object_datatype": "rdfs:Literal",
          "subject_class": "http://purl.jp/bio/11/mbgd#DraftGenome"
        },
        {
          "triples": 6318,
          "object_class": null,
          "object_datatype": "rdfs:Literal",
          "subject_class": "http://purl.jp/bio/11/mbgd#CompleteGenome"
        }
      ]
    },
    {
      "uri": "http://purl.jp/bio/11/mbgd#abbrev",
      "triples": 70998,
      "class_relations": [
        {
          "triples": 35499,
          "object_class": null,
          "object_datatype": "rdfs:Literal",
          "subject_class": "http://purl.jp/bio/11/mbgd#Genome"
        },
        {
          "triples": 29181,
          "object_class": null,
          "object_datatype": "rdfs:Literal",
          "subject_class": "http://purl.jp/bio/11/mbgd#DraftGenome"
        },
        {
          "triples": 6318,
          "object_class": null,
          "object_datatype": "rdfs:Literal",
          "subject_class": "http://purl.jp/bio/11/mbgd#CompleteGenome"
        }
      ]
    },
    {
      "uri": "http://purl.jp/bio/11/mbgd#spid",
      "triples": 70998,
      "class_relations": [
        {
          "triples": 35499,
          "object_class": null,
          "object_datatype": "rdfs:Literal",
          "subject_class": "http://purl.jp/bio/11/mbgd#Genome"
        },
        {
          "triples": 29181,
          "object_class": null,
          "object_datatype": "rdfs:Literal",
          "subject_class": "http://purl.jp/bio/11/mbgd#DraftGenome"
        },
        {
          "triples": 6318,
          "object_class": null,
          "object_datatype": "rdfs:Literal",
          "subject_class": "http://purl.jp/bio/11/mbgd#CompleteGenome"
        }
      ]
    },
    {
      "uri": "http://purl.jp/bio/11/mbgd#species",
      "triples": 70998,
      "class_relations": [
        {
          "triples": 35499,
          "object_class": null,
          "object_datatype": "rdfs:Literal",
          "subject_class": "http://purl.jp/bio/11/mbgd#Genome"
        },
        {
          "triples": 29181,
          "object_class": null,
          "object_datatype": "rdfs:Literal",
          "subject_class": "http://purl.jp/bio/11/mbgd#DraftGenome"
        },
        {
          "triples": 6318,
          "object_class": null,
          "object_datatype": "rdfs:Literal",
          "subject_class": "http://purl.jp/bio/11/mbgd#CompleteGenome"
        }
      ]
    },
    {
      "uri": "http://purl.jp/bio/11/mbgd#genus",
      "triples": 70998,
      "class_relations": [
        {
          "triples": 35499,
          "object_class": null,
          "object_datatype": "rdfs:Literal",
          "subject_class": "http://purl.jp/bio/11/mbgd#Genome"
        },
        {
          "triples": 29181,
          "object_class": null,
          "object_datatype": "rdfs:Literal",
          "subject_class": "http://purl.jp/bio/11/mbgd#DraftGenome"
        },
        {
          "triples": 6318,
          "object_class": null,
          "object_datatype": "rdfs:Literal",
          "subject_class": "http://purl.jp/bio/11/mbgd#CompleteGenome"
        }
      ]
    },
    {
      "uri": "dct:issued",
      "triples": 70998,
      "class_relations": [
        {
          "triples": 35499,
          "object_class": null,
          "object_datatype": "rdfs:Literal",
          "subject_class": "http://purl.jp/bio/11/mbgd#Genome"
        },
        {
          "triples": 29181,
          "object_class": null,
          "object_datatype": "rdfs:Literal",
          "subject_class": "http://purl.jp/bio/11/mbgd#DraftGenome"
        },
        {
          "triples": 6318,
          "object_class": null,
          "object_datatype": "rdfs:Literal",
          "subject_class": "http://purl.jp/bio/11/mbgd#CompleteGenome"
        }
      ]
    },
    {
      "uri": "http://purl.jp/bio/11/mbgd#assemblyLevel",
      "triples": 70386,
      "class_relations": [
        {
          "triples": 35193,
          "object_class": null,
          "object_datatype": "rdfs:Literal",
          "subject_class": "http://purl.jp/bio/11/mbgd#Genome"
        },
        {
          "triples": 28875,
          "object_class": null,
          "object_datatype": "rdfs:Literal",
          "subject_class": "http://purl.jp/bio/11/mbgd#DraftGenome"
        },
        {
          "triples": 6318,
          "object_class": null,
          "object_datatype": "rdfs:Literal",
          "subject_class": "http://purl.jp/bio/11/mbgd#CompleteGenome"
        }
      ]
    },
    {
      "uri": "http://purl.jp/bio/11/mbgd#assemblyTopLevelCount",
      "triples": 70376,
      "class_relations": [
        {
          "triples": 35188,
          "object_class": null,
          "object_datatype": "rdfs:Literal",
          "subject_class": "http://purl.jp/bio/11/mbgd#Genome"
        },
        {
          "triples": 28875,
          "object_class": null,
          "object_datatype": "rdfs:Literal",
          "subject_class": "http://purl.jp/bio/11/mbgd#DraftGenome"
        },
        {
          "triples": 6313,
          "object_class": null,
          "object_datatype": "rdfs:Literal",
          "subject_class": "http://purl.jp/bio/11/mbgd#CompleteGenome"
        }
      ]
    },
    {
      "uri": "http://purl.jp/bio/11/mbgd#assemblyTotalGapLength",
      "triples": 70376,
      "class_relations": [
        {
          "triples": 35188,
          "object_class": null,
          "object_datatype": "rdfs:Literal",
          "subject_class": "http://purl.jp/bio/11/mbgd#Genome"
        },
        {
          "triples": 28875,
          "object_class": null,
          "object_datatype": "rdfs:Literal",
          "subject_class": "http://purl.jp/bio/11/mbgd#DraftGenome"
        },
        {
          "triples": 6313,
          "object_class": null,
          "object_datatype": "rdfs:Literal",
          "subject_class": "http://purl.jp/bio/11/mbgd#CompleteGenome"
        }
      ]
    },
    {
      "uri": "http://purl.jp/bio/11/mbgd#unlocalizedUngappedLength",
      "triples": 70376,
      "class_relations": [
        {
          "triples": 35188,
          "object_class": null,
          "object_datatype": "rdfs:Literal",
          "subject_class": "http://purl.jp/bio/11/mbgd#Genome"
        },
        {
          "triples": 28875,
          "object_class": null,
          "object_datatype": "rdfs:Literal",
          "subject_class": "http://purl.jp/bio/11/mbgd#DraftGenome"
        },
        {
          "triples": 6313,
          "object_class": null,
          "object_datatype": "rdfs:Literal",
          "subject_class": "http://purl.jp/bio/11/mbgd#CompleteGenome"
        }
      ]
    },
    {
      "uri": "http://purl.jp/bio/11/mbgd#assemblyContigCount",
      "triples": 70376,
      "class_relations": [
        {
          "triples": 35188,
          "object_class": null,
          "object_datatype": "rdfs:Literal",
          "subject_class": "http://purl.jp/bio/11/mbgd#Genome"
        },
        {
          "triples": 28875,
          "object_class": null,
          "object_datatype": "rdfs:Literal",
          "subject_class": "http://purl.jp/bio/11/mbgd#DraftGenome"
        },
        {
          "triples": 6313,
          "object_class": null,
          "object_datatype": "rdfs:Literal",
          "subject_class": "http://purl.jp/bio/11/mbgd#CompleteGenome"
        }
      ]
    },
    {
      "uri": "http://purl.jp/bio/11/mbgd#assemblyTotalLength",
      "triples": 70376,
      "class_relations": [
        {
          "triples": 35188,
          "object_class": null,
          "object_datatype": "rdfs:Literal",
          "subject_class": "http://purl.jp/bio/11/mbgd#Genome"
        },
        {
          "triples": 28875,
          "object_class": null,
          "object_datatype": "rdfs:Literal",
          "subject_class": "http://purl.jp/bio/11/mbgd#DraftGenome"
        },
        {
          "triples": 6313,
          "object_class": null,
          "object_datatype": "rdfs:Literal",
          "subject_class": "http://purl.jp/bio/11/mbgd#CompleteGenome"
        }
      ]
    },
    {
      "uri": "http://purl.jp/bio/11/mbgd#unlocalizedTotalLength",
      "triples": 70376,
      "class_relations": [
        {
          "triples": 35188,
          "object_class": null,
          "object_datatype": "rdfs:Literal",
          "subject_class": "http://purl.jp/bio/11/mbgd#Genome"
        },
        {
          "triples": 28875,
          "object_class": null,
          "object_datatype": "rdfs:Literal",
          "subject_class": "http://purl.jp/bio/11/mbgd#DraftGenome"
        },
        {
          "triples": 6313,
          "object_class": null,
          "object_datatype": "rdfs:Literal",
          "subject_class": "http://purl.jp/bio/11/mbgd#CompleteGenome"
        }
      ]
    },
    {
      "uri": "http://purl.jp/bio/11/mbgd#assemblyContigN50",
      "triples": 70376,
      "class_relations": [
        {
          "triples": 35188,
          "object_class": null,
          "object_datatype": "rdfs:Literal",
          "subject_class": "http://purl.jp/bio/11/mbgd#Genome"
        },
        {
          "triples": 28875,
          "object_class": null,
          "object_datatype": "rdfs:Literal",
          "subject_class": "http://purl.jp/bio/11/mbgd#DraftGenome"
        },
        {
          "triples": 6313,
          "object_class": null,
          "object_datatype": "rdfs:Literal",
          "subject_class": "http://purl.jp/bio/11/mbgd#CompleteGenome"
        }
      ]
    },
    {
      "uri": "http://purl.jp/bio/11/mbgd#assemblyMoleculeCount",
      "triples": 70376,
      "class_relations": [
        {
          "triples": 35188,
          "object_class": null,
          "object_datatype": "rdfs:Literal",
          "subject_class": "http://purl.jp/bio/11/mbgd#Genome"
        },
        {
          "triples": 28875,
          "object_class": null,
          "object_datatype": "rdfs:Literal",
          "subject_class": "http://purl.jp/bio/11/mbgd#DraftGenome"
        },
        {
          "triples": 6313,
          "object_class": null,
          "object_datatype": "rdfs:Literal",
          "subject_class": "http://purl.jp/bio/11/mbgd#CompleteGenome"
        }
      ]
    },
    {
      "uri": "http://purl.jp/bio/11/mbgd#strain",
      "triples": 69436,
      "class_relations": [
        {
          "triples": 34718,
          "object_class": null,
          "object_datatype": "rdfs:Literal",
          "subject_class": "http://purl.jp/bio/11/mbgd#Genome"
        },
        {
          "triples": 28641,
          "object_class": null,
          "object_datatype": "rdfs:Literal",
          "subject_class": "http://purl.jp/bio/11/mbgd#DraftGenome"
        },
        {
          "triples": 6077,
          "object_class": null,
          "object_datatype": "rdfs:Literal",
          "subject_class": "http://purl.jp/bio/11/mbgd#CompleteGenome"
        }
      ]
    },
    {
      "uri": "http://www.geneontology.org/formats/oboInOwl#id",
      "triples": 48001,
      "class_relations": [
        {
          "triples": 47281,
          "object_class": null,
          "object_datatype": "rdfs:Literal",
          "subject_class": "owl:Class"
        },
        {
          "triples": 537,
          "object_class": null,
          "object_datatype": "rdfs:Literal",
          "subject_class": "owl:Axiom"
        },
        {
          "triples": 160,
          "object_class": null,
          "object_datatype": "rdfs:Literal",
          "subject_class": "owl:ObjectProperty"
        },
        {
          "triples": 22,
          "object_class": null,
          "object_datatype": "rdfs:Literal",
          "subject_class": "owl:TransitiveProperty"
        },
        {
          "triples": 1,
          "object_class": null,
          "object_datatype": "rdfs:Literal",
          "subject_class": "owl:AnnotationProperty"
        }
      ]
    },
    {
      "uri": "http://www.geneontology.org/formats/oboInOwl#hasOBONamespace",
      "triples": 47464,
      "class_relations": [
        {
          "triples": 47281,
          "object_class": null,
          "object_datatype": "rdfs:Literal",
          "subject_class": "owl:Class"
        },
        {
          "triples": 160,
          "object_class": null,
          "object_datatype": "rdfs:Literal",
          "subject_class": "owl:ObjectProperty"
        },
        {
          "triples": 22,
          "object_class": null,
          "object_datatype": "rdfs:Literal",
          "subject_class": "owl:TransitiveProperty"
        },
        {
          "triples": 1,
          "object_class": null,
          "object_datatype": "rdfs:Literal",
          "subject_class": "owl:AnnotationProperty"
        }
      ]
    },
    {
      "uri": "obo:IAO_0000115",
      "triples": 47281,
      "class_relations": [
        {
          "triples": 47281,
          "object_class": null,
          "object_datatype": "rdfs:Literal",
          "subject_class": "owl:Class"
        }
      ]
    },
    {
      "uri": "http://ddbj.nig.ac.jp/ontologies/taxonomy/uniqueName",
      "triples": 41059,
      "class_relations": [
        {
          "triples": 41059,
          "object_class": null,
          "object_datatype": "rdfs:Literal",
          "subject_class": "http://ddbj.nig.ac.jp/ontologies/taxonomy/Taxon"
        }
      ]
    },
    {
      "uri": "http://ddbj.nig.ac.jp/ontologies/taxonomy/misspelling",
      "triples": 31471,
      "class_relations": [
        {
          "triples": 31471,
          "object_class": null,
          "object_datatype": "rdfs:Literal",
          "subject_class": "http://ddbj.nig.ac.jp/ontologies/taxonomy/Taxon"
        }
      ]
    },
    {
      "uri": "rdfs:subClassOf",
      "triples": 30731,
      "class_relations": [
        {
          "triples": 30731,
          "object_class": "owl:Restriction",
          "object_datatype": null,
          "subject_class": "owl:Class"
        }
      ]
    },
    {
      "uri": "http://ddbj.nig.ac.jp/ontologies/taxonomy/includes",
      "triples": 29747,
      "class_relations": [
        {
          "triples": 29747,
          "object_class": null,
          "object_datatype": "rdfs:Literal",
          "subject_class": "http://ddbj.nig.ac.jp/ontologies/taxonomy/Taxon"
        }
      ]
    },
    {
      "uri": "http://ddbj.nig.ac.jp/ontologies/taxonomy/genbankCommonName",
      "triples": 27443,
      "class_relations": [
        {
          "triples": 27443,
          "object_class": null,
          "object_datatype": "rdfs:Literal",
          "subject_class": "http://ddbj.nig.ac.jp/ontologies/taxonomy/Taxon"
        }
      ]
    },
    {
      "uri": "http://ddbj.nig.ac.jp/ontologies/taxonomy/equivalentName",
      "triples": 23454,
      "class_relations": [
        {
          "triples": 23454,
          "object_class": null,
          "object_datatype": "rdfs:Literal",
          "subject_class": "http://ddbj.nig.ac.jp/ontologies/taxonomy/Taxon"
        }
      ]
    },
    {
      "uri": "http://www.geneontology.org/formats/oboInOwl#hasNarrowSynonym",
      "triples": 18692,
      "class_relations": [
        {
          "triples": 18692,
          "object_class": null,
          "object_datatype": "rdfs:Literal",
          "subject_class": "owl:Class"
        }
      ]
    },
    {
      "uri": "http://www.geneontology.org/formats/oboInOwl#creation_date",
      "triples": 17465,
      "class_relations": [
        {
          "triples": 17464,
          "object_class": null,
          "object_datatype": "rdfs:Literal",
          "subject_class": "owl:Class"
        },
        {
          "triples": 1,
          "object_class": null,
          "object_datatype": "rdfs:Literal",
          "subject_class": "owl:ObjectProperty"
        }
      ]
    },
    {
      "uri": "http://www.geneontology.org/formats/oboInOwl#created_by",
      "triples": 17428,
      "class_relations": [
        {
          "triples": 17427,
          "object_class": null,
          "object_datatype": "rdfs:Literal",
          "subject_class": "owl:Class"
        },
        {
          "triples": 1,
          "object_class": null,
          "object_datatype": "rdfs:Literal",
          "subject_class": "owl:ObjectProperty"
        }
      ]
    },
    {
      "uri": "http://www.geneontology.org/formats/oboInOwl#hasRelatedSynonym",
      "triples": 15079,
      "class_relations": [
        {
          "triples": 15079,
          "object_class": null,
          "object_datatype": "rdfs:Literal",
          "subject_class": "owl:Class"
        }
      ]
    },
    {
      "uri": "http://ddbj.nig.ac.jp/ontologies/taxonomy/commonName",
      "triples": 14078,
      "class_relations": [
        {
          "triples": 14078,
          "object_class": null,
          "object_datatype": "rdfs:Literal",
          "subject_class": "http://ddbj.nig.ac.jp/ontologies/taxonomy/Taxon"
        }
      ]
    },
    {
      "uri": "owl:deprecated",
      "triples": 4639,
      "class_relations": [
        {
          "triples": 4639,
          "object_class": null,
          "object_datatype": "rdfs:Literal",
          "subject_class": "owl:Class"
        }
      ]
    },
    {
      "uri": "http://www.geneontology.org/formats/oboInOwl#hasBroadSynonym",
      "triples": 3603,
      "class_relations": [
        {
          "triples": 3602,
          "object_class": null,
          "object_datatype": "rdfs:Literal",
          "subject_class": "owl:Class"
        },
        {
          "triples": 1,
          "object_class": null,
          "object_datatype": "rdfs:Literal",
          "subject_class": "owl:ObjectProperty"
        }
      ]
    },
    {
      "uri": "http://ddbj.nig.ac.jp/ontologies/taxonomy/genbankSynonym",
      "triples": 3138,
      "class_relations": [
        {
          "triples": 3138,
          "object_class": null,
          "object_datatype": "rdfs:Literal",
          "subject_class": "http://ddbj.nig.ac.jp/ontologies/taxonomy/Taxon"
        }
      ]
    },
    {
      "uri": "http://www.geneontology.org/formats/oboInOwl#inSubset",
      "triples": 2622,
      "class_relations": [
        {
          "triples": 2622,
          "object_class": "owl:AnnotationProperty",
          "object_datatype": null,
          "subject_class": "owl:Class"
        }
      ]
    },
    {
      "uri": "http://www.geneontology.org/formats/oboInOwl#hasAlternativeId",
      "triples": 2357,
      "class_relations": [
        {
          "triples": 2355,
          "object_class": null,
          "object_datatype": "rdfs:Literal",
          "subject_class": "owl:Class"
        },
        {
          "triples": 2,
          "object_class": null,
          "object_datatype": "rdfs:Literal",
          "subject_class": "owl:Axiom"
        }
      ]
    },
    {
      "uri": "http://www.geneontology.org/formats/oboInOwl#consider",
      "triples": 1810,
      "class_relations": [
        {
          "triples": 1810,
          "object_class": null,
          "object_datatype": "rdfs:Literal",
          "subject_class": "owl:Class"
        }
      ]
    },
    {
      "uri": "http://ddbj.nig.ac.jp/ontologies/taxonomy/misnomer",
      "triples": 1354,
      "class_relations": [
        {
          "triples": 1354,
          "object_class": null,
          "object_datatype": "rdfs:Literal",
          "subject_class": "http://ddbj.nig.ac.jp/ontologies/taxonomy/Taxon"
        }
      ]
    },
    {
      "uri": "http://ddbj.nig.ac.jp/ontologies/taxonomy/acronym",
      "triples": 1028,
      "class_relations": [
        {
          "triples": 1028,
          "object_class": null,
          "object_datatype": "rdfs:Literal",
          "subject_class": "http://ddbj.nig.ac.jp/ontologies/taxonomy/Taxon"
        }
      ]
    },
    {
      "uri": "obo:IAO_0100001",
      "triples": 519,
      "class_relations": [
        {
          "triples": 519,
          "object_class": null,
          "object_datatype": "rdfs:Literal",
          "subject_class": "owl:Class"
        }
      ]
    },
    {
      "uri": "http://ddbj.nig.ac.jp/ontologies/taxonomy/genbankAcronym",
      "triples": 483,
      "class_relations": [
        {
          "triples": 483,
          "object_class": null,
          "object_datatype": "rdfs:Literal",
          "subject_class": "http://ddbj.nig.ac.jp/ontologies/taxonomy/Taxon"
        }
      ]
    },
    {
      "uri": "http://ddbj.nig.ac.jp/ontologies/taxonomy/inPart",
      "triples": 447,
      "class_relations": [
        {
          "triples": 447,
          "object_class": null,
          "object_datatype": "rdfs:Literal",
          "subject_class": "http://ddbj.nig.ac.jp/ontologies/taxonomy/Taxon"
        }
      ]
    },
    {
      "uri": "http://ddbj.nig.ac.jp/ontologies/taxonomy/anamorph",
      "triples": 309,
      "class_relations": [
        {
          "triples": 309,
          "object_class": null,
          "object_datatype": "rdfs:Literal",
          "subject_class": "http://ddbj.nig.ac.jp/ontologies/taxonomy/Taxon"
        }
      ]
    },
    {
      "uri": "owl:disjointWith",
      "triples": 274,
      "class_relations": [
        {
          "triples": 274,
          "object_class": "owl:Restriction",
          "object_datatype": null,
          "subject_class": "owl:Class"
        }
      ]
    },
    {
      "uri": "http://ddbj.nig.ac.jp/ontologies/taxonomy/blastName",
      "triples": 227,
      "class_relations": [
        {
          "triples": 227,
          "object_class": null,
          "object_datatype": "rdfs:Literal",
          "subject_class": "http://ddbj.nig.ac.jp/ontologies/taxonomy/Taxon"
        }
      ]
    },
    {
      "uri": "http://www.geneontology.org/formats/oboInOwl#shorthand",
      "triples": 183,
      "class_relations": [
        {
          "triples": 160,
          "object_class": null,
          "object_datatype": "rdfs:Literal",
          "subject_class": "owl:ObjectProperty"
        },
        {
          "triples": 22,
          "object_class": null,
          "object_datatype": "rdfs:Literal",
          "subject_class": "owl:TransitiveProperty"
        },
        {
          "triples": 1,
          "object_class": null,
          "object_datatype": "rdfs:Literal",
          "subject_class": "owl:AnnotationProperty"
        }
      ]
    },
    {
      "uri": "http://ddbj.nig.ac.jp/ontologies/taxonomy/teleomorph",
      "triples": 182,
      "class_relations": [
        {
          "triples": 182,
          "object_class": null,
          "object_datatype": "rdfs:Literal",
          "subject_class": "http://ddbj.nig.ac.jp/ontologies/taxonomy/Taxon"
        }
      ]
    },
    {
      "uri": "http://ddbj.nig.ac.jp/ontologies/taxonomy/genbankAnamorph",
      "triples": 114,
      "class_relations": [
        {
          "triples": 114,
          "object_class": null,
          "object_datatype": "rdfs:Literal",
          "subject_class": "http://ddbj.nig.ac.jp/ontologies/taxonomy/Taxon"
        }
      ]
    },
    {
      "uri": "http://www.geneontology.org/formats/oboInOwl#hasSynonymType",
      "triples": 109,
      "class_relations": [
        {
          "triples": 109,
          "object_class": "owl:AnnotationProperty",
          "object_datatype": null,
          "subject_class": "owl:Axiom"
        }
      ]
    },
    {
      "uri": "http://www.geneontology.org/formats/oboInOwl#http://purl.org/dc/terms/source",
      "triples": 108,
      "class_relations": [
        {
          "triples": 108,
          "object_class": null,
          "object_datatype": "rdfs:Literal",
          "subject_class": "owl:Axiom"
        }
      ]
    },
    {
      "uri": "owl:inverseOf",
      "triples": 55,
      "class_relations": [
        {
          "triples": 30,
          "object_class": "owl:ObjectProperty",
          "object_datatype": null,
          "subject_class": "owl:ObjectProperty"
        },
        {
          "triples": 10,
          "object_class": "owl:TransitiveProperty",
          "object_datatype": null,
          "subject_class": "owl:ObjectProperty"
        },
        {
          "triples": 8,
          "object_class": "owl:ObjectProperty",
          "object_datatype": null,
          "subject_class": "owl:TransitiveProperty"
        },
        {
          "triples": 7,
          "object_class": "owl:TransitiveProperty",
          "object_datatype": null,
          "subject_class": "owl:TransitiveProperty"
        }
      ]
    },
    {
      "uri": "http://www.geneontology.org/formats/oboInOwl#source",
      "triples": 33,
      "class_relations": [
        {
          "triples": 33,
          "object_class": null,
          "object_datatype": "rdfs:Literal",
          "subject_class": "owl:Axiom"
        }
      ]
    },
    {
      "uri": "rdfs:isDefinedBy",
      "triples": 29,
      "class_relations": [
        {
          "triples": 29,
          "object_class": "owl:Ontology",
          "object_datatype": null,
          "subject_class": "owl:ObjectProperty"
        }
      ]
    },
    {
      "uri": "rdfs:comment",
      "triples": 29,
      "class_relations": [
        {
          "triples": 29,
          "object_class": null,
          "object_datatype": "rdfs:Literal",
          "subject_class": "owl:ObjectProperty"
        }
      ]
    },
    {
      "uri": "rdfs:label",
      "triples": 29,
      "class_relations": [
        {
          "triples": 29,
          "object_class": null,
          "object_datatype": "rdfs:Literal",
          "subject_class": "owl:ObjectProperty"
        }
      ]
    },
    {
      "uri": "rdfs:subPropertyOf",
      "triples": 28,
      "class_relations": [
        {
          "triples": 28,
          "object_class": "owl:ObjectProperty",
          "object_datatype": null,
          "subject_class": "owl:ObjectProperty"
        }
      ]
    },
    {
      "uri": "http://www.geneontology.org/formats/oboInOwl#notes",
      "triples": 2,
      "class_relations": [
        {
          "triples": 2,
          "object_class": null,
          "object_datatype": "rdfs:Literal",
          "subject_class": "owl:Axiom"
        }
      ]
    },
    {
      "uri": "dct:title",
      "triples": 1,
      "class_relations": [
        {
          "triples": 1,
          "object_class": null,
          "object_datatype": "rdfs:Literal",
          "subject_class": "owl:Ontology"
        }
      ]
    },
    {
      "uri": "dct:description",
      "triples": 1,
      "class_relations": [
        {
          "triples": 1,
          "object_class": null,
          "object_datatype": "rdfs:Literal",
          "subject_class": "owl:Ontology"
        }
      ]
    },
    {
      "uri": "owl:versionInfo",
      "triples": 1,
      "class_relations": [
        {
          "triples": 1,
          "object_class": null,
          "object_datatype": "rdfs:Literal",
          "subject_class": "owl:Ontology"
        }
      ]
    },
    {
      "uri": "pav:version",
      "triples": 1,
      "class_relations": [
        {
          "triples": 1,
          "object_class": null,
          "object_datatype": "rdfs:Literal",
          "subject_class": "void:Dataset"
        }
      ]
    },
    {
      "uri": "dct:created",
      "triples": 1,
      "class_relations": [
        {
          "triples": 1,
          "object_class": null,
          "object_datatype": "rdfs:Literal",
          "subject_class": "void:Dataset"
        }
      ]
    },
    {
      "uri": "obo:IAO_0000425",
      "triples": 1,
      "class_relations": [
        {
          "triples": 1,
          "object_class": null,
          "object_datatype": "rdfs:Literal",
          "subject_class": "owl:AnnotationProperty"
        }
      ]
    },
    {
      "uri": "obo:IAO_0000589",
      "triples": 1,
      "class_relations": [
        {
          "triples": 1,
          "object_class": null,
          "object_datatype": "rdfs:Literal",
          "subject_class": "owl:Class"
        }
      ]
    },
    {
      "uri": "http://www.geneontology.org/formats/oboInOwl#hasOBOFormatVersion",
      "triples": 1,
      "class_relations": [
        {
          "triples": 1,
          "object_class": null,
          "object_datatype": "rdfs:Literal",
          "subject_class": "owl:Ontology"
        }
      ]
    },
    {
      "uri": "dc:date",
      "triples": 1,
      "class_relations": [
        {
          "triples": 1,
          "object_class": null,
          "object_datatype": "rdfs:Literal",
          "subject_class": "owl:Class"
        }
      ]
    },
    {
      "uri": "http://www.geneontology.org/formats/oboInOwl#is_class_level",
      "triples": 1,
      "class_relations": [
        {
          "triples": 1,
          "object_class": null,
          "object_datatype": "rdfs:Literal",
          "subject_class": "owl:AnnotationProperty"
        }
      ]
    },
    {
      "uri": "http://www.geneontology.org/formats/oboInOwl#SynonymTypeProperty",
      "triples": 1,
      "class_relations": [
        {
          "triples": 1,
          "object_class": null,
          "object_datatype": "rdfs:Literal",
          "subject_class": "owl:Axiom"
        }
      ]
    },
    {
      "uri": "http://www.geneontology.org/formats/oboInOwl#seeAlso",
      "triples": 1,
      "class_relations": [
        {
          "triples": 1,
          "object_class": null,
          "object_datatype": "rdfs:Literal",
          "subject_class": "owl:Axiom"
        }
      ]
    },
    {
      "uri": "obo:RO_0002161",
      "triples": 1,
      "class_relations": [
        {
          "triples": 1,
          "object_class": null,
          "object_datatype": "rdfs:Literal",
          "subject_class": "owl:Class"
        }
      ]
    },
    {
      "uri": "http://www.geneontology.org/formats/oboInOwl#default-namespace",
      "triples": 1,
      "class_relations": [
        {
          "triples": 1,
          "object_class": null,
          "object_datatype": "rdfs:Literal",
          "subject_class": "owl:Ontology"
        }
      ]
    },
    {
      "uri": "http://www.geneontology.org/formats/oboInOwl#is_metadata_tag",
      "triples": 1,
      "class_relations": [
        {
          "triples": 1,
          "object_class": null,
          "object_datatype": "rdfs:Literal",
          "subject_class": "owl:AnnotationProperty"
        }
      ]
    },
    {
      "uri": "dc:creator",
      "triples": 1,
      "class_relations": [
        {
          "triples": 1,
          "object_class": null,
          "object_datatype": "rdfs:Literal",
          "subject_class": "owl:Class"
        }
      ]
    },
    {
      "uri": "http://www.geneontology.org/formats/oboInOwl#hasScope",
      "triples": 1,
      "class_relations": [
        {
          "triples": 1,
          "object_class": "owl:AnnotationProperty",
          "object_datatype": null,
          "subject_class": "owl:AnnotationProperty"
        }
      ]
    }
  ],
  "prefixes": {
    "xml": "http://www.w3.org/XML/1998/namespace",
    "rdf": "http://www.w3.org/1999/02/22-rdf-syntax-ns#",
    "rdfs": "http://www.w3.org/2000/01/rdf-schema#",
    "xsd": "http://www.w3.org/2001/XMLSchema#",
    "owl": "http://www.w3.org/2002/07/owl#",
    "skos": "http://www.w3.org/2004/02/skos/core#",
    "doap": "http://usefulinc.com/ns/doap#",
    "foaf": "http://xmlns.com/foaf/0.1/",
    "dc": "http://purl.org/dc/elements/1.1/",
    "dcterms": "http://purl.org/dc/terms/",
    "void": "http://rdfs.org/ns/void#",
    "": "http://purl.org/net/orth#",
    "up": "http://purl.uniprot.org/core/",
    "dct": "http://purl.org/dc/terms/",
    "obo": "http://purl.obolibrary.org/obo/",
    "pav": "http://purl.org/pav/",
    "sio": "http://semanticscience.org/resource/",
    "orth": "http://purl.org/net/orth#",
    "sd": "http://www.w3.org/ns/sparql-service-description#",
    "sbm": "http://sparqlbuilder.org/2015/09/rdf-metadata-schema#"
  },
  "meta_data": {
    "endpoint": "http://sparql.nibb.ac.jp/sparql",
    "crawl_date": "2021/08/05 18:56:35",
    "triples": 404107426,
    "classes": 57,
    "properties": 106
  }
}