{
  "inheritance_structure": [
    {
      "uri": "http://purl.obolibrary.org/obo/SO_0000704"
    },
    {
      "uri": "http://purl.obolibrary.org/obo/SO_0000553"
    },
    {
      "uri": "http://purl.obolibrary.org/obo/SO_0000104"
    }
  ],
  "classes": {
    "http://purl.obolibrary.org/obo/SO_0000704": {
      "entities": 9203,
      "rhs": [
        [
          "http://purl.org/obo/owl/obo#encodes",
          "http://purl.obolibrary.org/obo/SO_0000104"
        ],
        [
          "rdfs:label",
          "rdfs:Literal"
        ]
      ],
      "lhs": [
        [
          "http://purl.obolibrary.org/obo/SO_0000553",
          "http://purl.obolibrary.org/obo/so#associated_with"
        ]
      ]
    },
    "http://purl.obolibrary.org/obo/SO_0000553": {
      "entities": 24014,
      "rhs": [
        [
          "http://linkeddata.systems/ontologies/hasPosition",
          "rdfs:Literal"
        ],
        [
          "http://linkeddata.systems/ontologies/onStrand",
          "rdfs:Literal"
        ],
        [
          "http://purl.obolibrary.org/obo/so#associated_with",
          "http://purl.obolibrary.org/obo/SO_0000704"
        ]
      ]
    },
    "http://purl.obolibrary.org/obo/SO_0000104": {
      "entities": 8992,
      "rhs": [
        [
          "rdfs:label",
          "rdfs:Literal"
        ]
      ],
      "lhs": [
        [
          "http://purl.obolibrary.org/obo/SO_0000704",
          "http://purl.org/obo/owl/obo#encodes"
        ]
      ]
    }
  },
  "properties": [
    {
      "uri": "http://linkeddata.systems/ontologies/onStrand",
      "triples": 24014,
      "class_relations": [
        {
          "triples": 24014,
          "object_class": null,
          "object_datatype": "rdfs:Literal",
          "subject_class": "http://purl.obolibrary.org/obo/SO_0000553"
        }
      ]
    },
    {
      "uri": "http://purl.obolibrary.org/obo/so#associated_with",
      "triples": 24014,
      "class_relations": [
        {
          "triples": 24014,
          "object_class": "http://purl.obolibrary.org/obo/SO_0000704",
          "object_datatype": null,
          "subject_class": "http://purl.obolibrary.org/obo/SO_0000553"
        }
      ]
    },
    {
      "uri": "http://linkeddata.systems/ontologies/hasPosition",
      "triples": 24014,
      "class_relations": [
        {
          "triples": 24014,
          "object_class": null,
          "object_datatype": "rdfs:Literal",
          "subject_class": "http://purl.obolibrary.org/obo/SO_0000553"
        }
      ]
    },
    {
      "uri": "rdfs:label",
      "triples": 18195,
      "class_relations": [
        {
          "triples": 9203,
          "object_class": null,
          "object_datatype": "rdfs:Literal",
          "subject_class": "http://purl.obolibrary.org/obo/SO_0000704"
        },
        {
          "triples": 8992,
          "object_class": null,
          "object_datatype": "rdfs:Literal",
          "subject_class": "http://purl.obolibrary.org/obo/SO_0000104"
        }
      ]
    },
    {
      "uri": "http://purl.org/obo/owl/obo#encodes",
      "triples": 8992,
      "class_relations": [
        {
          "triples": 8992,
          "object_class": "http://purl.obolibrary.org/obo/SO_0000104",
          "object_datatype": null,
          "subject_class": "http://purl.obolibrary.org/obo/SO_0000704"
        }
      ]
    }
  ],
  "prefixes": {
    "xml": "http://www.w3.org/XML/1998/namespace",
    "rdf": "http://www.w3.org/1999/02/22-rdf-syntax-ns#",
    "rdfs": "http://www.w3.org/2000/01/rdf-schema#",
    "xsd": "http://www.w3.org/2001/XMLSchema#",
    "owl": "http://www.w3.org/2002/07/owl#",
    "skos": "http://www.w3.org/2004/02/skos/core#",
    "doap": "http://usefulinc.com/ns/doap#",
    "foaf": "http://xmlns.com/foaf/0.1/",
    "dc": "http://purl.org/dc/elements/1.1/",
    "dcterms": "http://purl.org/dc/terms/",
    "void": "http://rdfs.org/ns/void#",
    "sd": "http://www.w3.org/ns/sparql-service-description#",
    "sbm": "http://sparqlbuilder.org/2015/09/rdf-metadata-schema#"
  },
  "meta_data": {
    "endpoint": "https://dydra.com/markw/polyadenylation-sites-in-magnaporthe-oryza/sparql",
    "crawl_date": "2021/02/03 21:49:07",
    "triples": 510508,
    "classes": 3,
    "properties": 5
  }
}