{
  "inheritance_structure": [
    {
      "uri": "owl:Ontology"
    },
    {
      "uri": "owl:Class"
    }
  ],
  "classes": {
    "owl:Ontology": {
      "entities": 1
    },
    "owl:Class": {
      "entities": 777962,
      "rhs": [
        [
          "http://purl.obolibrary.org/obo/chebi/charge",
          "rdfs:Literal"
        ],
        [
          "http://purl.obolibrary.org/obo/chebi/formula",
          "rdfs:Literal"
        ],
        [
          "http://purl.obolibrary.org/obo/chebi/inchi",
          "rdfs:Literal"
        ],
        [
          "http://purl.obolibrary.org/obo/chebi/inchikey",
          "rdfs:Literal"
        ],
        [
          "http://purl.obolibrary.org/obo/chebi/smiles",
          "rdfs:Literal"
        ],
        [
          "http://semanticscience.org/resource/CHEMINF_000412",
          "rdfs:Literal"
        ],
        [
          "https://swisslipids.org/rdf/SLM_rankPreference",
          "rdfs:Literal"
        ],
        [
          "rdfs:label",
          "rdfs:Literal"
        ],
        [
          "skos:altLabel",
          "rdfs:Literal"
        ]
      ]
    }
  },
  "properties": [
    {
      "uri": "rdfs:label",
      "triples": 777962,
      "class_relations": [
        {
          "triples": 777962,
          "object_class": null,
          "object_datatype": "rdfs:Literal",
          "subject_class": "owl:Class"
        }
      ]
    },
    {
      "uri": "http://semanticscience.org/resource/CHEMINF_000412",
      "triples": 777956,
      "class_relations": [
        {
          "triples": 777956,
          "object_class": null,
          "object_datatype": "rdfs:Literal",
          "subject_class": "owl:Class"
        }
      ]
    },
    {
      "uri": "http://purl.obolibrary.org/obo/chebi/formula",
      "triples": 777846,
      "class_relations": [
        {
          "triples": 777846,
          "object_class": null,
          "object_datatype": "rdfs:Literal",
          "subject_class": "owl:Class"
        }
      ]
    },
    {
      "uri": "http://purl.obolibrary.org/obo/chebi/smiles",
      "triples": 777735,
      "class_relations": [
        {
          "triples": 777735,
          "object_class": null,
          "object_datatype": "rdfs:Literal",
          "subject_class": "owl:Class"
        }
      ]
    },
    {
      "uri": "skos:altLabel",
      "triples": 776458,
      "class_relations": [
        {
          "triples": 776458,
          "object_class": null,
          "object_datatype": "rdfs:Literal",
          "subject_class": "owl:Class"
        }
      ]
    },
    {
      "uri": "http://purl.obolibrary.org/obo/chebi/inchi",
      "triples": 592411,
      "class_relations": [
        {
          "triples": 592411,
          "object_class": null,
          "object_datatype": "rdfs:Literal",
          "subject_class": "owl:Class"
        }
      ]
    },
    {
      "uri": "http://purl.obolibrary.org/obo/chebi/inchikey",
      "triples": 592411,
      "class_relations": [
        {
          "triples": 592411,
          "object_class": null,
          "object_datatype": "rdfs:Literal",
          "subject_class": "owl:Class"
        }
      ]
    },
    {
      "uri": "http://purl.obolibrary.org/obo/chebi/charge",
      "triples": 444173,
      "class_relations": [
        {
          "triples": 444173,
          "object_class": null,
          "object_datatype": "rdfs:Literal",
          "subject_class": "owl:Class"
        }
      ]
    },
    {
      "uri": "https://swisslipids.org/rdf/SLM_rankPreference",
      "triples": 6,
      "class_relations": [
        {
          "triples": 6,
          "object_class": null,
          "object_datatype": "rdfs:Literal",
          "subject_class": "owl:Class"
        }
      ]
    }
  ],
  "prefixes": {
    "brick": "https://brickschema.org/schema/Brick#",
    "csvw": "http://www.w3.org/ns/csvw#",
    "dc": "http://purl.org/dc/elements/1.1/",
    "dcat": "http://www.w3.org/ns/dcat#",
    "dcmitype": "http://purl.org/dc/dcmitype/",
    "dcterms": "http://purl.org/dc/terms/",
    "dcam": "http://purl.org/dc/dcam/",
    "doap": "http://usefulinc.com/ns/doap#",
    "foaf": "http://xmlns.com/foaf/0.1/",
    "odrl": "http://www.w3.org/ns/odrl/2/",
    "org": "http://www.w3.org/ns/org#",
    "owl": "http://www.w3.org/2002/07/owl#",
    "prof": "http://www.w3.org/ns/dx/prof/",
    "prov": "http://www.w3.org/ns/prov#",
    "qb": "http://purl.org/linked-data/cube#",
    "rdf": "http://www.w3.org/1999/02/22-rdf-syntax-ns#",
    "rdfs": "http://www.w3.org/2000/01/rdf-schema#",
    "schema": "https://schema.org/",
    "sh": "http://www.w3.org/ns/shacl#",
    "skos": "http://www.w3.org/2004/02/skos/core#",
    "sosa": "http://www.w3.org/ns/sosa/",
    "ssn": "http://www.w3.org/ns/ssn/",
    "time": "http://www.w3.org/2006/time#",
    "vann": "http://purl.org/vocab/vann/",
    "void": "http://rdfs.org/ns/void#",
    "xsd": "http://www.w3.org/2001/XMLSchema#",
    "xml": "http://www.w3.org/XML/1998/namespace",
    "sd": "http://www.w3.org/ns/sparql-service-description#",
    "sbm": "http://sparqlbuilder.org/2015/09/rdf-metadata-schema#"
  },
  "meta_data": {
    "endpoint": "https://beta.sparql.swisslipids.org/",
    "crawl_date": "2022/09/09 11:45:39",
    "triples": 13399579,
    "classes": 2,
    "properties": 9
  }
}